{
  "adultCount": 1,
  "childCount": 0,
  "infantCount": 0,
  "currency": "SGD",
  "fareTotal": 960.00,
  "taxTotal": 63.80,
  "surchargeTotal": 161.90,
  "fareSubTotal": 1185.70,
  "grandTotal": 1209.70,
  "costPayableByCash": 0.00,
  "costPayableByMiles": 1185.70,
  "cashAllocated": 1179.70,
  "milesAllocated": 2940,
  "totalMilesForORB": 0,
  "addonSubTotal": 24.00,
  "flight": [
    {
      "totalTravelTime": "7hrs 55mins",
      "origin": "Singapore",
      "destination": "Sydney",
      "flightSegments": [
        {
          "carrierCode": "SQ",
          "airCraftType": "Boeing 777-300ER",
          "flightNumber": "231",
          "cabinClassDesc": "ECONOMY",
          "deparure": {
            "time": "00:45",
            "date": "28 Feb (Sat)",
            "airportCode": "SIN",
            "airportName": "Changi Intl",
            "cityCode": "SIN",
            "cityName": "Singapore",
            "terminal": "3"
          },
          "arrival": {
            "time": "11:40",
            "date": "28 Feb (Sat)",
            "airportCode": "SYD",
            "airportName": "Kingsford Smith",
            "cityCode": "SYD",
            "cityName": "Sydney",
            "terminal": "1"
          }
        }
      ]
    }
  ],
  "paxDetails": [
    {
      "paxType": "Adult",
      "id": 1,
      "paxName": "Mr RAVI RAJ JOHANN VELU PILLAI",
      "paxCategory": "Nominee",
      "fareDetails": {
        "totalCost": 1185.70,
        "totalMiles": 0,
        "fareAmount": 960.00,
        "taxAmount": 63.80,
        "surchargeAmount": 161.90,
        "milesAllocation": [
          {
            "category": "Fare",
            "totalAmount": 1185.70,
            "milesAllocated": 2940,
            "equivalentCash": 30.00,
            "balanceAmount": 1155.70
          }
        ],
        "surcharge": [
          {
            "amount": 6.80,
            "code": "YQAD",
            "description": "Airline Insurance"
          },
          {
            "amount": 155.10,
            "code": "YQAC",
            "description": "Airline Fuel Surcharge"
          }
        ],
        "taxes": [
          {
            "amount": 29.80,
            "code": "WY",
            "description": "Passenger Services Charge - Intl"
          },
          {
            "amount": 8.00,
            "code": "OO",
            "description": "Passenger Security Service Charge"
          },
          {
            "amount": 6.10,
            "code": "OP",
            "description": "Aviation Levy"
          },
          {
            "amount": 19.90,
            "code": "SG",
            "description": "Passenger Service and Security Charge"
          }
        ]
      },
      "detailsPerFlight": [
        {
          "flightNo": "231",
          "from": "SIN",
          "to": "SYD",
          "departureDate": "Sat Feb 28 00:45:00 IST 2015",
          "addonPerPax": [
            {
              "type": "Seat",
              "description": "AISLE",
              "category": "Free"
            }
          ]
        }
      ]
    }
  ],
  "commonAddons": [
    {
      "type": "Travel Insurance",
      "description": "From 28 Feb (Sat) to 28 Feb (Sat)",
      "category": "Chargeable",
      "amount": 24.00
    }
  ]
}