{
  "adultCount": 2,
  "childCount": 1,
  "infantCount": 0,
  "currency": "SGD",
  "taxTotal": 166.20,
  "surchargeTotal": 971.40,
  "fareSubTotal": 1137.60,
  "grandTotal": 1137.60,
  "costPayableByCash": 0.00,
  "costPayableByMiles": 0.00,
  "milesAllocated": 0,
  "totalMilesForORB": 94350,
  "flight": [
    {
      "totalTravelTime": "4hrs 10mins",
      "origin": "Singapore",
      "destination": "Chennai",
      "flightSegments": [
        {
          "carrierCode": "SQ",
          "airCraftType": "Airbus A330-300",
          "flightNumber": "528",
          "cabinClassDesc": "ECONOMY",
          "deparure": {
            "time": "20:20",
            "date": "25 Feb (Wed)",
            "airportCode": "SIN",
            "airportName": "Changi Intl",
            "cityCode": "SIN",
            "cityName": "Singapore",
            "terminal": "2"
          },
          "arrival": {
            "time": "22:00",
            "date": "25 Feb (Wed)",
            "airportCode": "MAA",
            "airportName": "Chennai International Airport",
            "cityCode": "MAA",
            "cityName": "Chennai",
            "terminal": "3"
          }
        }
      ]
    },
    {
      "totalTravelTime": "4hrs 10mins",
      "origin": "Chennai",
      "destination": "Singapore",
      "flightSegments": [
        {
          "carrierCode": "SQ",
          "airCraftType": "Airbus A330-300",
          "flightNumber": "529",
          "cabinClassDesc": "ECONOMY",
          "deparure": {
            "time": "23:15",
            "date": "10 Mar (Tue)",
            "airportCode": "MAA",
            "airportName": "Chennai International Airport",
            "cityCode": "MAA",
            "cityName": "Chennai",
            "terminal": "4"
          },
          "arrival": {
            "time": "05:55",
            "date": "11 Mar (Wed)",
            "airportCode": "SIN",
            "airportName": "Changi Intl",
            "cityCode": "SIN",
            "cityName": "Singapore"
          }
        }
      ]
    }
  ],
  "paxDetails": [
    {
      "paxType": "Adult",
      "id": 2,
      "paxName": "Mr RAVI RAJJOHANN VELU PILLAI",
      "paxCategory": "Non-Nominee",
      "fareDetails": {
        "totalCost": 758.40,
        "totalMiles": 31450,
        "fareAmount": 0.00,
        "taxAmount": 110.80,
        "surchargeAmount": 647.60,
        "surcharge": [
          {
            "amount": 647.60,
            "code": "YQ",
            "description": "Airline Fuel and Insurance Surcharge"
          }
        ],
        "taxes": [
          {
            "amount": 16.00,
            "code": "OO",
            "description": "Passenger Security Service Charge"
          },
          {
            "amount": 12.20,
            "code": "OP",
            "description": "Aviation Levy"
          },
          {
            "amount": 39.80,
            "code": "SG",
            "description": "Passenger Service and Security Charge"
          },
          {
            "amount": 32.80,
            "code": "IN",
            "description": "User Development Fee(Domestic/International)"
          },
          {
            "amount": 10.00,
            "code": "WO",
            "description": "Passenger Service Fee (Domestic/International)"
          }
        ]
      },
      "detailsPerFlight": [
        {
          "flightNo": "528",
          "from": "SIN",
          "to": "MAA",
          "departureDate": "Wed Feb 25 20:20:00 IST 2015"
        },
        {
          "flightNo": "529",
          "from": "MAA",
          "to": "SIN",
          "departureDate": "Tue Mar 10 23:15:00 IST 2015"
        }
      ]
    },
    {
      "paxType": "Adult",
      "id": 3,
      "paxName": "Mr Yasar Arafath",
      "paxCategory": "Non-Nominee",
      "fareDetails": {
        "totalCost": 758.40,
        "totalMiles": 31450,
        "fareAmount": 0.00,
        "taxAmount": 110.80,
        "surchargeAmount": 647.60,
        "surcharge": [
          {
            "amount": 647.60,
            "code": "YQ",
            "description": "Airline Fuel and Insurance Surcharge"
          }
        ],
        "taxes": [
          {
            "amount": 16.00,
            "code": "OO",
            "description": "Passenger Security Service Charge"
          },
          {
            "amount": 12.20,
            "code": "OP",
            "description": "Aviation Levy"
          },
          {
            "amount": 39.80,
            "code": "SG",
            "description": "Passenger Service and Security Charge"
          },
          {
            "amount": 32.80,
            "code": "IN",
            "description": "User Development Fee(Domestic/International)"
          },
          {
            "amount": 10.00,
            "code": "WO",
            "description": "Passenger Service Fee (Domestic/International)"
          }
        ]
      },
      "detailsPerFlight": [
        {
          "flightNo": "528",
          "from": "SIN",
          "to": "MAA",
          "departureDate": "Wed Feb 25 20:20:00 IST 2015"
        },
        {
          "flightNo": "529",
          "from": "MAA",
          "to": "SIN",
          "departureDate": "Tue Mar 10 23:15:00 IST 2015"
        }
      ]
    },
    {
      "paxType": "Child",
      "id": 4,
      "paxName": "Mstr Tintu Mon",
      "paxCategory": "Non-Nominee",
      "fareDetails": {
        "totalCost": 1137.60,
        "totalMiles": 31450,
        "fareAmount": 0.00,
        "taxAmount": 166.20,
        "surchargeAmount": 971.40,
        "surcharge": [
          {
            "amount": 971.40,
            "code": "YQ",
            "description": "Airline Fuel and Insurance Surcharge"
          }
        ],
        "taxes": [
          {
            "amount": 24.00,
            "code": "OO",
            "description": "Passenger Security Service Charge"
          },
          {
            "amount": 18.30,
            "code": "OP",
            "description": "Aviation Levy"
          },
          {
            "amount": 59.70,
            "code": "SG",
            "description": "Passenger Service and Security Charge"
          },
          {
            "amount": 49.20,
            "code": "IN",
            "description": "User Development Fee(Domestic/International)"
          },
          {
            "amount": 15.00,
            "code": "WO",
            "description": "Passenger Service Fee (Domestic/International)"
          }
        ]
      },
      "detailsPerFlight": [
        {
          "flightNo": "528",
          "from": "SIN",
          "to": "MAA",
          "departureDate": "Wed Feb 25 20:20:00 IST 2015"
        },
        {
          "flightNo": "529",
          "from": "MAA",
          "to": "SIN",
          "departureDate": "Tue Mar 10 23:15:00 IST 2015"
        }
      ]
    }
  ]
}