{
  "adultCount": 1,
  "childCount": 2,
  "infantCount": 0,
  "currency": "SGD",
  "fareTotal": 616.00,
  "taxTotal": 102.00,
  "surchargeTotal": 167.10,
  "fareSubTotal": 885.10,
  "grandTotal": 885.10,
  "costPayableByCash": 0.00,
  "costPayableByMiles": 0.00,
  "milesAllocated": 0,
  "totalMilesForORB": 0,
  "flight": [
    {
      "totalTravelTime": "0hrs 55mins",
      "origin": "Singapore",
      "destination": "Kuala Lumpur",
      "flightSegments": [
        {
          "carrierCode": "SQ",
          "airCraftType": "Airbus A319",
          "flightNumber": "5320",
          "cabinClassDesc": "ECONOMY",
          "deparure": {
            "time": "06:00",
            "date": "27 Feb (Fri)",
            "airportCode": "SIN",
            "airportName": "Changi Intl",
            "cityCode": "SIN",
            "cityName": "Singapore",
            "terminal": "2"
          },
          "arrival": {
            "time": "06:55",
            "date": "27 Feb (Fri)",
            "airportCode": "KUL",
            "airportName": "Kuala Lumpur Intl",
            "cityCode": "KUL",
            "cityName": "Kuala Lumpur",
            "terminal": "M"
          }
        }
      ]
    }
  ],
  "paxDetails": [
    {
      "paxType": "Adult",
      "id": 1,
      "paxName": "Dr Test",
      "paxCategory": "Non-Nominee",
      "fareDetails": {
        "totalCost": 335.70,
        "totalMiles": 0,
        "fareAmount": 246.00,
        "taxAmount": 34.00,
        "surchargeAmount": 55.70,
        "surcharge": [
          {
            "amount": 6.80,
            "code": "YQAD",
            "description": "Airline Insurance"
          },
          {
            "amount": 48.90,
            "code": "YQAC",
            "description": "Airline Fuel Surcharge"
          }
        ],
        "taxes": [
          {
            "amount": 8.00,
            "code": "OO",
            "description": "Passenger Security Service Charge"
          },
          {
            "amount": 6.10,
            "code": "OP",
            "description": "Aviation Levy"
          },
          {
            "amount": 19.90,
            "code": "SG",
            "description": "Passenger Service and Security Charge"
          }
        ]
      },
      "detailsPerFlight": [
        {
          "flightNo": "5320",
          "from": "SIN",
          "to": "KUL",
          "departureDate": "Fri Feb 27 06:00:00 IST 2015"
        }
      ]
    },
    {
      "paxType": "Child",
      "id": 2,
      "paxName": "Mstr test",
      "paxCategory": "Non-Nominee",
      "fareDetails": {
        "totalCost": 274.70,
        "totalMiles": 0,
        "fareAmount": 185.00,
        "taxAmount": 34.00,
        "surchargeAmount": 55.70,
        "surcharge": [
          {
            "amount": 6.80,
            "code": "YQAD",
            "description": "Airline Insurance"
          },
          {
            "amount": 48.90,
            "code": "YQAC",
            "description": "Airline Fuel Surcharge"
          }
        ],
        "taxes": [
          {
            "amount": 8.00,
            "code": "OO",
            "description": "Passenger Security Service Charge"
          },
          {
            "amount": 6.10,
            "code": "OP",
            "description": "Aviation Levy"
          },
          {
            "amount": 19.90,
            "code": "SG",
            "description": "Passenger Service and Security Charge"
          }
        ]
      },
      "detailsPerFlight": [
        {
          "flightNo": "5320",
          "from": "SIN",
          "to": "KUL",
          "departureDate": "Fri Feb 27 06:00:00 IST 2015"
        }
      ]
    },
    {
      "paxType": "Child",
      "id": 3,
      "paxName": "Miss testsd",
      "paxCategory": "Non-Nominee",
      "fareDetails": {
        "totalCost": 274.70,
        "totalMiles": 0,
        "fareAmount": 185.00,
        "taxAmount": 34.00,
        "surchargeAmount": 55.70,
        "surcharge": [
          {
            "amount": 6.80,
            "code": "YQAD",
            "description": "Airline Insurance"
          },
          {
            "amount": 48.90,
            "code": "YQAC",
            "description": "Airline Fuel Surcharge"
          }
        ],
        "taxes": [
          {
            "amount": 8.00,
            "code": "OO",
            "description": "Passenger Security Service Charge"
          },
          {
            "amount": 6.10,
            "code": "OP",
            "description": "Aviation Levy"
          },
          {
            "amount": 19.90,
            "code": "SG",
            "description": "Passenger Service and Security Charge"
          }
        ]
      },
      "detailsPerFlight": [
        {
          "flightNo": "5320",
          "from": "SIN",
          "to": "KUL",
          "departureDate": "Fri Feb 27 06:00:00 IST 2015"
        }
      ]
    }
  ]
}