{
  "adultCount": 2,
  "childCount": 2,
  "infantCount": 0,
  "currency": "SGD",
  "fareTotal": 2416.00,
  "taxTotal": 136.00,
  "surchargeTotal": 56.40,
  "fareSubTotal": 2608.40,
  "grandTotal": 2608.40,
  "costPayableByCash": 566.10,
  "costPayableByMiles": 2042.30,
  "milesAllocated": 0,
  "totalMilesForORB": 0,
  "flight": [
    {
      "totalTravelTime": "3hrs 45mins",
      "origin": "Singapore",
      "destination": "Hong Kong",
      "flightSegments": [
        {
          "carrierCode": "SQ",
          "airCraftType": "Airbus A330-300",
          "flightNumber": "890",
          "cabinClassDesc": "ECONOMY",
          "deparure": {
            "time": "07:35",
            "date": "26 Feb (Thu)",
            "airportCode": "SIN",
            "airportName": "Changi Intl",
            "cityCode": "SIN",
            "cityName": "Singapore",
            "terminal": "3"
          },
          "arrival": {
            "time": "11:20",
            "date": "26 Feb (Thu)",
            "airportCode": "HKG",
            "airportName": "Hong Kong",
            "cityCode": "HKG",
            "cityName": "Hong Kong",
            "terminal": "1"
          }
        }
      ]
    }
  ],
  "paxDetails": [
    {
      "paxType": "Adult",
      "id": 1,
      "paxName": "Mr RAVI RAJ JOHANN VELU PILLAI",
      "paxCategory": "Nominee",
      "fareDetails": {
        "totalCost": 738.10,
        "totalMiles": 0,
        "fareAmount": 690.00,
        "taxAmount": 34.00,
        "surchargeAmount": 14.10,
        "surcharge": [
          {
            "amount": 14.10,
            "code": "YQAC",
            "description": "Airline Fuel Surcharge"
          }
        ],
        "taxes": [
          {
            "amount": 8.00,
            "code": "OO",
            "description": "Passenger Security Service Charge"
          },
          {
            "amount": 6.10,
            "code": "OP",
            "description": "Aviation Levy"
          },
          {
            "amount": 19.90,
            "code": "SG",
            "description": "Passenger Service and Security Charge"
          }
        ]
      },
      "detailsPerFlight": [
        {
          "flightNo": "890",
          "from": "SIN",
          "to": "HKG",
          "departureDate": "Thu Feb 26 07:35:00 IST 2015"
        }
      ]
    },
    {
      "paxType": "Adult",
      "id": 2,
      "paxName": "Dr lain mathur",
      "paxCategory": "Nominee",
      "fareDetails": {
        "totalCost": 738.10,
        "totalMiles": 0,
        "fareAmount": 690.00,
        "taxAmount": 34.00,
        "surchargeAmount": 14.10,
        "surcharge": [
          {
            "amount": 14.10,
            "code": "YQAC",
            "description": "Airline Fuel Surcharge"
          }
        ],
        "taxes": [
          {
            "amount": 8.00,
            "code": "OO",
            "description": "Passenger Security Service Charge"
          },
          {
            "amount": 6.10,
            "code": "OP",
            "description": "Aviation Levy"
          },
          {
            "amount": 19.90,
            "code": "SG",
            "description": "Passenger Service and Security Charge"
          }
        ]
      },
      "detailsPerFlight": [
        {
          "flightNo": "890",
          "from": "SIN",
          "to": "HKG",
          "departureDate": "Thu Feb 26 07:35:00 IST 2015"
        }
      ]
    },
    {
      "paxType": "Child",
      "id": 3,
      "paxName": "Mstr Tintu Mon",
      "paxCategory": "Nominee",
      "fareDetails": {
        "totalCost": 566.10,
        "totalMiles": 0,
        "fareAmount": 518.00,
        "taxAmount": 34.00,
        "surchargeAmount": 14.10,
        "surcharge": [
          {
            "amount": 14.10,
            "code": "YQAC",
            "description": "Airline Fuel Surcharge"
          }
        ],
        "taxes": [
          {
            "amount": 8.00,
            "code": "OO",
            "description": "Passenger Security Service Charge"
          },
          {
            "amount": 6.10,
            "code": "OP",
            "description": "Aviation Levy"
          },
          {
            "amount": 19.90,
            "code": "SG",
            "description": "Passenger Service and Security Charge"
          }
        ]
      },
      "detailsPerFlight": [
        {
          "flightNo": "890",
          "from": "SIN",
          "to": "HKG",
          "departureDate": "Thu Feb 26 07:35:00 IST 2015"
        }
      ]
    },
    {
      "paxType": "Child",
      "id": 4,
      "paxName": "Miss Tintu mol",
      "paxCategory": "Non-Nominee",
      "fareDetails": {
        "totalCost": 566.10,
        "totalMiles": 0,
        "fareAmount": 518.00,
        "taxAmount": 34.00,
        "surchargeAmount": 14.10,
        "surcharge": [
          {
            "amount": 14.10,
            "code": "YQAC",
            "description": "Airline Fuel Surcharge"
          }
        ],
        "taxes": [
          {
            "amount": 8.00,
            "code": "OO",
            "description": "Passenger Security Service Charge"
          },
          {
            "amount": 6.10,
            "code": "OP",
            "description": "Aviation Levy"
          },
          {
            "amount": 19.90,
            "code": "SG",
            "description": "Passenger Service and Security Charge"
          }
        ]
      },
      "detailsPerFlight": [
        {
          "flightNo": "890",
          "from": "SIN",
          "to": "HKG",
          "departureDate": "Thu Feb 26 07:35:00 IST 2015"
        }
      ]
    }
  ]
}