{
  "bookingSummary": {
    "locale": "en_UK",
    "adultCount": 2,
    "childCount": 1,
    "infantCount": 0,
    "precision": 2,
    "currency": "SGD",
    "taxTotal": 451.20,
    "surchargeTotal": 873.00,
    "fareSubTotal": 1324.20,
    "grandTotal": 1324.20,
    "milesAllocated": 0,
    "totalMilesForORB": 127500,
    "orbQSurchargeTotal": 0.00,
    "totalToBePaidMiles": 0,
    "milesToBeRefunded": 0,
    "scenario": "ORC",
    "flight": [{
      "origin": "Sydney",
      "destination": "Singapore",
      "flightSegments": [{
        "carrierCode": "SQ",
        "airCraftType": "Boeing 777-200",
        "flightNumber": "241",
        "cabinClassDesc": "Economy(X)",
        "deparure": {
          "time": "07:05",
          "date": "11 Jun (Thu)",
          "airportCode": "SIN",
          "airportName": "Changi Intl",
          "cityCode": "SIN",
          "cityName": "Singapore",
          "terminal": "3"
        },
        "arrival": {
          "time": "16:45",
          "date": "11 Jun (Thu)",
          "airportCode": "SYD",
          "airportName": "Kingsford Smith",
          "cityCode": "SYD",
          "cityName": "Sydney"
        }
      }]
    }, {
      "origin": "Sydney",
      "destination": "Singapore",
      "flightSegments": [{
        "carrierCode": "SQ",
        "airCraftType": "Boeing 777-300ER",
        "flightNumber": "222",
        "cabinClassDesc": "Economy(X)",
        "deparure": {
          "time": "15:10",
          "date": "17 Jun (Wed)",
          "airportCode": "SYD",
          "airportName": "Kingsford Smith",
          "cityCode": "SYD",
          "cityName": "Sydney",
          "terminal": "1"
        },
        "arrival": {
          "time": "21:30",
          "date": "17 Jun (Wed)",
          "airportCode": "SIN",
          "airportName": "Changi Intl",
          "cityCode": "SIN",
          "cityName": "Singapore"
        }
      }]
    }],
    "waitListFlights": [],
    "paxDetails": [{
      "paxType": "Adult",
      "id": 2,
      "paxName": "Mrs TWO TESTA",
      "paxCategory": "Non-Nominee",
      "fareDetails": {
        "totalCost": 441.40,
        "totalMiles": 42500,
        "fareAmount": 0.00,
        "taxAmount": 150.40,
        "surchargeAmount": 291.00,
        "qSurchargeAmount": 0.00,
        "surcharge": [{
          "amount": 291.00,
          "code": "YQ",
          "description": "Airline Fuel and Insurance Surcharge"
        }],
        "taxes": [{
          "amount": 19.90,
          "code": "SG",
          "description": "Passenger Service and Security Charge"
        }, {
          "amount": 57.20,
          "code": "AU",
          "description": "Passenger Movement Charge"
        }, {
          "amount": 59.20,
          "code": "WY",
          "description": "Passenger Services Charge - Intl"
        }, {
          "amount": 6.10,
          "code": "OP",
          "description": "Aviation Levy"
        }, {
          "amount": 8.00,
          "code": "OO",
          "description": "Passenger Security Service Charge"
        }],
        "orbQSurcharge": []
      },
      "detailsPerFlight": [{
        "flightNo": "SQ241",
        "from": "SIN",
        "to": "SYD",
        "departureDate": "Thu Jun 11 07:05:00 SGT 2015"
      }, {
        "flightNo": "SQ222",
        "from": "SYD",
        "to": "SIN",
        "departureDate": "Wed Jun 17 15:10:00 SGT 2015"
      }]
    }, {
      "paxType": "Adult",
      "id": 3,
      "paxName": "Mrs ANCY JAMES",
      "paxCategory": "Non-Nominee",
      "fareDetails": {
        "totalCost": 441.40,
        "totalMiles": 42500,
        "fareAmount": 0.00,
        "taxAmount": 150.40,
        "surchargeAmount": 291.00,
        "qSurchargeAmount": 0.00,
        "surcharge": [{
          "amount": 291.00,
          "code": "YQ",
          "description": "Airline Fuel and Insurance Surcharge"
        }],
        "taxes": [{
          "amount": 19.90,
          "code": "SG",
          "description": "Passenger Service and Security Charge"
        }, {
          "amount": 57.20,
          "code": "AU",
          "description": "Passenger Movement Charge"
        }, {
          "amount": 59.20,
          "code": "WY",
          "description": "Passenger Services Charge - Intl"
        }, {
          "amount": 6.10,
          "code": "OP",
          "description": "Aviation Levy"
        }, {
          "amount": 8.00,
          "code": "OO",
          "description": "Passenger Security Service Charge"
        }],
        "orbQSurcharge": []
      },
      "detailsPerFlight": [{
        "flightNo": "SQ241",
        "from": "SIN",
        "to": "SYD",
        "departureDate": "Thu Jun 11 07:05:00 SGT 2015"
      }, {
        "flightNo": "SQ222",
        "from": "SYD",
        "to": "SIN",
        "departureDate": "Wed Jun 17 15:10:00 SGT 2015"
      }]
    }, {
      "paxType": "Child",
      "id": 4,
      "paxName": "Mr TEST MINOR",
      "paxCategory": "Non-Nominee",
      "fareDetails": {
        "totalCost": 441.40,
        "totalMiles": 42500,
        "fareAmount": 0.00,
        "taxAmount": 150.40,
        "surchargeAmount": 291.00,
        "qSurchargeAmount": 0.00,
        "surcharge": [{
          "amount": 291.00,
          "code": "YQ",
          "description": "Airline Fuel and Insurance Surcharge"
        }],
        "taxes": [{
          "amount": 19.90,
          "code": "SG",
          "description": "Passenger Service and Security Charge"
        }, {
          "amount": 57.20,
          "code": "AU",
          "description": "Passenger Movement Charge"
        }, {
          "amount": 59.20,
          "code": "WY",
          "description": "Passenger Services Charge - Intl"
        }, {
          "amount": 6.10,
          "code": "OP",
          "description": "Aviation Levy"
        }, {
          "amount": 8.00,
          "code": "OO",
          "description": "Passenger Security Service Charge"
        }],
        "orbQSurcharge": []
      },
      "detailsPerFlight": [{
        "flightNo": "SQ241",
        "from": "SIN",
        "to": "SYD",
        "departureDate": "Thu Jun 11 07:05:00 SGT 2015"
      }, {
        "flightNo": "SQ222",
        "from": "SYD",
        "to": "SIN",
        "departureDate": "Wed Jun 17 15:10:00 SGT 2015"
      }]
    }],
    "topUpMiles": {
      "currencyCode": "SGD",
      "totalAmount": 0.0,
      "additionalMiles": 0,
      "notEnoughMiles": false
    }
  }
}
