{
	 "bookingSummary":{
			"locale":"en_UK",
			"adultCount":1,
			"childCount":0,
			"infantCount":0,
			"precision":2,
			"currency":"SGD",
			"fareTotal":320.00,
			"taxTotal":57.00,
			"surchargeTotal":101.40,
			"fareSubTotal":478.40,
			"grandTotal":478.40,
			"milesAllocated":0,
			"totalMilesForORB":0,
			"totalToBePaidCash": 0.00,
			"oldItinerary":{
				 "currency":"SGD",
				 "fareTotalInMiles":0,
				 "costPaidByMiles":3724,
				 "totalMilesForORB":0,
				 "costPaidByCash":478.40
			},
			"rebookingFee":0.00,
			"totalToBePaidMiles":0,
			"milesToBeRefunded":0,
			"totalMilesExpired":0,
			"expiredMilesNonRefund":0,
			"scenario":"ATC",
			"flight":[
				 {
						"totalTravelTime":"1hrs",
						"origin":"Singapore",
						"destination":"Kuala Lumpur",
						"originAirportCode":"SIN",
						"destinationAirportCode":"KUL",
						"flightSegments":[
							 {
									"carrierCode":"SQ",
									"airCraftType":"Airbus A330-300",
									"flightNumber":"116",
									"cabinClassDesc":"Economy (E)",
									"deparure":{
										 "time":"16:50",
										 "date":"12 Apr (Tue)",
										 "airportCode":"SIN",
										 "airportName":"Changi Intl",
										 "cityCode":"SIN",
										 "cityName":"Singapore",
										 "terminal":"2"
									},
									"arrival":{
										 "time":"17:50",
										 "date":"12 Apr (Tue)",
										 "airportCode":"KUL",
										 "airportName":"Kuala Lumpur Intl",
										 "cityCode":"KUL",
										 "cityName":"Kuala Lumpur",
										 "terminal":"M"
									}
							 }
						],
						"isMixedCabinClass":false
				 },
				 {
						"totalTravelTime":"1hrs",
						"origin":"Kuala Lumpur",
						"destination":"Singapore",
						"originAirportCode":"KUL",
						"destinationAirportCode":"SIN",
						"flightSegments":[
							 {
									"carrierCode":"SQ",
									"airCraftType":"Airbus A330-300",
									"flightNumber":"107",
									"cabinClassDesc":"Economy (E)",
									"deparure":{
										 "time":"10:25",
										 "date":"03 May (Tue)",
										 "airportCode":"KUL",
										 "airportName":"Kuala Lumpur Intl",
										 "cityCode":"KUL",
										 "cityName":"Kuala Lumpur",
										 "terminal":"M"
									},
									"arrival":{
										 "time":"11:25",
										 "date":"03 May (Tue)",
										 "airportCode":"SIN",
										 "airportName":"Changi Intl",
										 "cityCode":"SIN",
										 "cityName":"Singapore",
										 "terminal":""
									}
							 }
						],
						"isMixedCabinClass":false
				 }
			],
			"paxDetails":[
				 {
						"paxType":"Adult",
						"id":1,
						"paxName":"Mdm Testn",
						"fareDetails":{
							 "totalCost":478.40,
							 "totalMiles":0,
							 "fareAmount":320.00,
							 "taxAmount":57.00,
							 "surchargeAmount":101.40,
							 "othersAmount":0.00,
							 "surcharge":[
									{
										 "amount":14.20,
										 "code":"YQAD",
										 "description":"Airline Insurance"
									},
									{
										 "amount":87.20,
										 "code":"YQAC",
										 "description":"Airline Fuel Surcharge"
									}
							 ],
							 "taxes":[
									{
										 "amount":19.90,
										 "code":"SG",
										 "description":"Passenger Service and Security Charge"
									},
									{
										 "amount":6.10,
										 "code":"OP",
										 "description":"Aviation Levy"
									},
									{
										 "amount":8.00,
										 "code":"OO",
										 "description":"Passenger Security Service Charge"
									},
									{
										 "amount":21.70,
										 "code":"MY",
										 "description":"Passenger Service and Security Charge (Domestic/International)"
									},
									{
										 "amount":1.30,
										 "code":"D8",
										 "description":"Goods And Services Tax"
									}
							 ]
						},
						"detailsPerFlight":[
							 {
									"flightNo":"SQ116",
									"from":"SIN",
									"to":"KUL",
									"departureDate":"Tue Apr 12 16:50:00 SGT 2016",
									"id":"0",
									"originAirportCode":"SIN",
									"destinationAirportCode":"KUL"
							 },
							 {
									"flightNo":"SQ107",
									"from":"KUL",
									"to":"SIN",
									"departureDate":"Tue May 03 10:25:00 SGT 2016",
									"id":"0",
									"originAirportCode":"KUL",
									"destinationAirportCode":"SIN"
							 }
						]
				 }
			],
			"othersTotal":0
	 }
}
