{  
"locale": "en_UK",
   "bookingSummary":{
      "scenario": "ORU",  
      "adultCount":2,
      "childCount":0,
      "infantCount":0,
      "precision":0,
      "milesAllocated":0,
      "totalMilesForORB":0,
      "totalToBePaidMiles":0,
      "milesToBeRefunded":0,
      "oldItinerary":{  
         "currency":"SGD",
         "fareTotal":854.00,
         "taxTotal":314.00,
         "totalMilesForORB":0
      },
      "flight":[  
         {  
            "totalTravelTime":"1hrs",
            "origin":"Singapore",
            "destination":"Kuala Lumpur",
            "flightSegments":[  
               {  
                  "carrierCode":"SQ",
                  "airCraftType":"Airbus A330-300",
                  "flightNumber":"106",
                  "cabinClassDesc":"BUSINESS",
                  "deparure":{  
                     "time":"08:30",
                     "date":"08 Oct (Thu)",
                     "airportCode":"SIN",
                     "airportName":"Changi Intl",
                     "cityCode":"SIN",
                     "cityName":"Singapore",
                     "terminal":"2"
                  },
                  "arrival":{  
                     "time":"09:30",
                     "date":"08 Oct (Thu)",
                     "airportCode":"KUL",
                     "airportName":"Kuala Lumpur Intl",
                     "cityCode":"KUL",
                     "cityName":"Kuala Lumpur",
                     "terminal":"M"
                  }
               }
            ]
         },
         {  
            "totalTravelTime":"1hrs",
            "origin":"Kuala Lumpur",
            "destination":"Singapore",
            "flightSegments":[  
               {  
                  "carrierCode":"SQ",
                  "airCraftType":"Airbus A330-300",
                  "flightNumber":"107",
                  "cabinClassDesc":"BUSINESS",
                  "deparure":{  
                     "time":"10:25",
                     "date":"14 Oct (Wed)",
                     "airportCode":"KUL",
                     "airportName":"Kuala Lumpur Intl",
                     "cityCode":"KUL",
                     "cityName":"Kuala Lumpur",
                     "terminal":"M"
                  },
                  "arrival":{  
                     "time":"11:25",
                     "date":"14 Oct (Wed)",
                     "airportCode":"SIN",
                     "airportName":"Changi Intl",
                     "cityCode":"SIN",
                     "cityName":"Singapore"
                  }
               }
            ]
         }
      ],
      "paxDetails":[  
         {  
            "paxType":"Adult",
            "id":1,
            "paxName":"TWO TESTA",
            "detailsPerFlight":[  
               {  
                  "flightNo":"SQ 106",
                  "from":"SIN",
                  "to":"KUL",
                  "departureDate":"Thu Oct 08 08:30:00 IST 2015"
               },
               {  
                  "flightNo":"SQ 107",
                  "from":"KUL",
                  "to":"SIN",
                  "departureDate":"Wed Oct 14 10:25:00 IST 2015"
               }
            ]
         },
         {  
            "paxType":"Adult",
            "id":2,
            "paxName":"NOMINEE",
            "detailsPerFlight":[  
               {  
                  "flightNo":"SQ 106",
                  "from":"SIN",
                  "to":"KUL",
                  "departureDate":"Thu Oct 08 08:30:00 IST 2015"
               },
               {  
                  "flightNo":"SQ 107",
                  "from":"KUL",
                  "to":"SIN",
                  "departureDate":"Wed Oct 14 10:25:00 IST 2015"
               }
            ]
         }
      ]
   },
   "oruUpgradeJsonVO":{  
      "totMilesForORU":"127500"

   }
}