<?xml version="1.0" encoding="UTF-8"?>
<svg width="8px" height="12px" viewBox="0 0 8 12" version="1.1" xmlns="http://www.w3.org/2000/svg" xmlns:xlink="http://www.w3.org/1999/xlink">
    <!-- Generator: Sketch 51.2 (57519) - http://www.bohemiancoding.com/sketch -->
    <title>icon/paginator-next-active</title>
    <desc>Created with Sketch.</desc>
    <defs>
        <path d="M5.99799,9.17172 C5.81079,9.17172 5.63199,9.09702 5.50089,8.96382 L0.20079,3.58752 C-0.06981,3.31302 -0.06651,2.87142 0.20769,2.60082 C0.48309,2.33022 0.92349,2.33352 1.19469,2.60802 L5.99799,7.48032 L10.80579,2.60772 C11.07609,2.33292 11.51859,2.33082 11.79219,2.60112 C12.06669,2.87172 12.06969,3.31362 11.79909,3.58782 L6.49449,8.96412 C6.36369,9.09702 6.18429,9.17172 5.99799,9.17172" id="path-1"></path>
    </defs>
    <g id="Symbols" stroke="none" stroke-width="1" fill="none" fill-rule="evenodd">
        <g id="Pagination" transform="translate(-256.000000, -14.000000)">
            <g id="Group-11-Copy">
                <g transform="translate(240.000000, 0.000000)">
                    <g id="icon/paginator-next-active" transform="translate(20.000000, 19.978774) scale(-1, 1) rotate(90.000000) translate(-20.000000, -19.978774) translate(14.000000, 14.000000)">
                        <mask id="mask-2" fill="white">
                            <use xlink:href="#path-1"></use>
                        </mask>
                        <use id="Fill-1" fill="#000000" fill-rule="evenodd" xlink:href="#path-1"></use>
                        <g id="icon/color-blue" mask="url(#mask-2)" fill="#00266B" fill-rule="evenodd">
                            <rect id="Rectangle-9" x="0" y="0" width="12" height="12"></rect>
                        </g>
                    </g>
                </g>
            </g>
        </g>
    </g>
</svg>