{
   "response":{
      "sessionID":"JSESSIONID\u003dyIUuxvKcG4dkuTXTraWRbRk9m0z6RIgl4k2-XKV1M8nxkIpSaSL0!-1225374176!-2065255447",
      "pageTicket":"0",
      "currency":{
         "code":"USD",
         "name":"U.S. Dollar",
         "precision":2
      },
      "resultType":"F",
      "tripType":"R",
      "defaultRecommendationID":0,
      "recommendations":[
         {
            "recommendationID":0,
            "segmentBounds":[
               {
                  "segments":[
                     {
                        "segmentID":0,
                        "numOfLastSeats":7,
                        "displayLastSeat":true,
                        "legs":[
                           {
                              "sellingClass":"O",
                              "cabinClass":"Y",
                              "fareClass":"MHOU"
                           },
                           {
                              "sellingClass":"M",
                              "cabinClass":"Y",
                              "fareClass":"MHOU"
                           },
                           {
                              "sellingClass":"M",
                              "cabinClass":"Y",
                              "fareClass":"MHOU"
                           }
                        ],
                        "eligibleOCRecommendationIDs":[
                           0
                        ]
                     },
                     {
                        "segmentID":1,
                        "numOfLastSeats":7,
                        "displayLastSeat":true,
                        "legs":[
                           {
                              "sellingClass":"O",
                              "cabinClass":"Y",
                              "fareClass":"MHOU"
                           },
                           {
                              "sellingClass":"M",
                              "cabinClass":"Y",
                              "fareClass":"MHOU"
                           },
                           {
                              "sellingClass":"M",
                              "cabinClass":"Y",
                              "fareClass":"MHOU"
                           }
                        ],
                        "eligibleOCRecommendationIDs":[
                           0
                        ]
                     }
                  ],
                  "fareFamily":"FF31LAX",
                  "fareSummary":{
                     "fareTotal":{
                        "totalAmount":693.59,
                        "amountWithoutTax":655.0,
                        "tax":38.59
                     },
                     "fareDetailsPerAdult":{
                        "totalAmount":693.59,
                        "amountWithoutTax":655.0,
                        "tax":38.59
                     }
                  }
               },
               {
                  "segments":[
                     {
                        "segmentID":0,
                        "numOfLastSeats":7,
                        "displayLastSeat":true,
                        "legs":[
                           {
                              "sellingClass":"N",
                              "cabinClass":"Y",
                              "fareClass":"NHOU"
                           },
                           {
                              "sellingClass":"N",
                              "cabinClass":"Y",
                              "fareClass":"NHOU"
                           },
                           {
                              "sellingClass":"O",
                              "cabinClass":"Y",
                              "fareClass":"NHOU"
                           }
                        ],
                        "eligibleOCRecommendationIDs":[
                           0
                        ]
                     }
                  ],
                  "fareFamily":"FF41LAX",
                  "fareSummary":{
                     "fareTotal":{
                        "totalAmount":559.0,
                        "amountWithoutTax":480.0,
                        "tax":79.0
                     },
                     "fareDetailsPerAdult":{
                        "totalAmount":559.0,
                        "amountWithoutTax":480.0,
                        "tax":79.0
                     }
                  }
               }
            ],
            "fareFamily":"FF41LAX",
            "fareSummary":{
               "fareTotal":{
                  "totalAmount":1252.59,
                  "amountWithoutTax":1135.0,
                  "tax":117.59
               },
               "fareDetailsPerAdult":{
                  "totalAmount":1252.59,
                  "amountWithoutTax":1135.0,
                  "tax":117.59
               }
            }
         },
         {
            "recommendationID":3,
            "segmentBounds":[
               {
                  "segments":[
                     {
                        "segmentID":0,
                        "numOfLastSeats":7,
                        "displayLastSeat":true,
                        "legs":[
                           {
                              "sellingClass":"O",
                              "cabinClass":"Y",
                              "fareClass":"BHOU"
                           },
                           {
                              "sellingClass":"B",
                              "cabinClass":"Y",
                              "fareClass":"BHOU"
                           },
                           {
                              "sellingClass":"B",
                              "cabinClass":"Y",
                              "fareClass":"BHOU"
                           }
                        ],
                        "eligibleOCRecommendationIDs":[
                           0
                        ]
                     },
                     {
                        "segmentID":1,
                        "numOfLastSeats":7,
                        "displayLastSeat":true,
                        "legs":[
                           {
                              "sellingClass":"O",
                              "cabinClass":"Y",
                              "fareClass":"BHOU"
                           },
                           {
                              "sellingClass":"B",
                              "cabinClass":"Y",
                              "fareClass":"BHOU"
                           },
                           {
                              "sellingClass":"B",
                              "cabinClass":"Y",
                              "fareClass":"BHOU"
                           }
                        ],
                        "eligibleOCRecommendationIDs":[
                           0
                        ]
                     }
                  ],
                  "fareFamily":"FF21LAX",
                  "fareSummary":{
                     "fareTotal":{
                        "totalAmount":943.59,
                        "amountWithoutTax":905.0,
                        "tax":38.59
                     },
                     "fareDetailsPerAdult":{
                        "totalAmount":943.59,
                        "amountWithoutTax":905.0,
                        "tax":38.59
                     }
                  }
               },
               {
                  "segments":[
                     {
                        "segmentID":0,
                        "numOfLastSeats":7,
                        "displayLastSeat":true,
                        "legs":[
                           {
                              "sellingClass":"N",
                              "cabinClass":"Y",
                              "fareClass":"NHOU"
                           },
                           {
                              "sellingClass":"N",
                              "cabinClass":"Y",
                              "fareClass":"NHOU"
                           },
                           {
                              "sellingClass":"O",
                              "cabinClass":"Y",
                              "fareClass":"NHOU"
                           }
                        ],
                        "eligibleOCRecommendationIDs":[
                           0
                        ]
                     }
                  ],
                  "fareFamily":"FF41LAX",
                  "fareSummary":{
                     "fareTotal":{
                        "totalAmount":559.0,
                        "amountWithoutTax":480.0,
                        "tax":79.0
                     },
                     "fareDetailsPerAdult":{
                        "totalAmount":559.0,
                        "amountWithoutTax":480.0,
                        "tax":79.0
                     }
                  }
               }
            ],
            "fareFamily":"FF41LAX",
            "fareSummary":{
               "fareTotal":{
                  "totalAmount":1502.59,
                  "amountWithoutTax":1385.0,
                  "tax":117.59
               },
               "fareDetailsPerAdult":{
                  "totalAmount":1502.59,
                  "amountWithoutTax":1385.0,
                  "tax":117.59
               }
            }
         },
         {
            "recommendationID":1,
            "segmentBounds":[
               {
                  "segments":[
                     {
                        "segmentID":0,
                        "numOfLastSeats":7,
                        "displayLastSeat":true,
                        "legs":[
                           {
                              "sellingClass":"O",
                              "cabinClass":"Y",
                              "fareClass":"MHOU"
                           },
                           {
                              "sellingClass":"M",
                              "cabinClass":"Y",
                              "fareClass":"MHOU"
                           },
                           {
                              "sellingClass":"M",
                              "cabinClass":"Y",
                              "fareClass":"MHOU"
                           }
                        ],
                        "eligibleOCRecommendationIDs":[
                           0
                        ]
                     },
                     {
                        "segmentID":1,
                        "numOfLastSeats":7,
                        "displayLastSeat":true,
                        "legs":[
                           {
                              "sellingClass":"O",
                              "cabinClass":"Y",
                              "fareClass":"MHOU"
                           },
                           {
                              "sellingClass":"M",
                              "cabinClass":"Y",
                              "fareClass":"MHOU"
                           },
                           {
                              "sellingClass":"M",
                              "cabinClass":"Y",
                              "fareClass":"MHOU"
                           }
                        ],
                        "eligibleOCRecommendationIDs":[
                           0
                        ]
                     }
                  ],
                  "fareFamily":"FF31LAX",
                  "fareSummary":{
                     "fareTotal":{
                        "totalAmount":693.59,
                        "amountWithoutTax":655.0,
                        "tax":38.59
                     },
                     "fareDetailsPerAdult":{
                        "totalAmount":693.59,
                        "amountWithoutTax":655.0,
                        "tax":38.59
                     }
                  }
               },
               {
                  "segments":[
                     {
                        "segmentID":0,
                        "numOfLastSeats":7,
                        "displayLastSeat":true,
                        "legs":[
                           {
                              "sellingClass":"W",
                              "cabinClass":"Y",
                              "fareClass":"WHOU"
                           },
                           {
                              "sellingClass":"W",
                              "cabinClass":"Y",
                              "fareClass":"WHOU"
                           },
                           {
                              "sellingClass":"O",
                              "cabinClass":"Y",
                              "fareClass":"WHOU"
                           }
                        ],
                        "eligibleOCRecommendationIDs":[
                           0
                        ]
                     }
                  ],
                  "fareFamily":"FF31LAX",
                  "fareSummary":{
                     "fareTotal":{
                        "totalAmount":609.3,
                        "amountWithoutTax":530.0,
                        "tax":79.3
                     },
                     "fareDetailsPerAdult":{
                        "totalAmount":609.3,
                        "amountWithoutTax":530.0,
                        "tax":79.3
                     }
                  }
               }
            ],
            "fareFamily":"FF31LAX",
            "fareSummary":{
               "fareTotal":{
                  "totalAmount":1302.89,
                  "amountWithoutTax":1185.0,
                  "tax":117.89
               },
               "fareDetailsPerAdult":{
                  "totalAmount":1302.89,
                  "amountWithoutTax":1185.0,
                  "tax":117.89
               }
            }
         },
         {
            "recommendationID":2,
            "segmentBounds":[
               {
                  "segments":[
                     {
                        "segmentID":0,
                        "numOfLastSeats":7,
                        "displayLastSeat":true,
                        "legs":[
                           {
                              "sellingClass":"O",
                              "cabinClass":"Y",
                              "fareClass":"MHOU"
                           },
                           {
                              "sellingClass":"M",
                              "cabinClass":"Y",
                              "fareClass":"MHOU"
                           },
                           {
                              "sellingClass":"M",
                              "cabinClass":"Y",
                              "fareClass":"MHOU"
                           }
                        ],
                        "eligibleOCRecommendationIDs":[
                           0
                        ]
                     },
                     {
                        "segmentID":1,
                        "numOfLastSeats":7,
                        "displayLastSeat":true,
                        "legs":[
                           {
                              "sellingClass":"O",
                              "cabinClass":"Y",
                              "fareClass":"MHOU"
                           },
                           {
                              "sellingClass":"M",
                              "cabinClass":"Y",
                              "fareClass":"MHOU"
                           },
                           {
                              "sellingClass":"M",
                              "cabinClass":"Y",
                              "fareClass":"MHOU"
                           }
                        ],
                        "eligibleOCRecommendationIDs":[
                           0
                        ]
                     }
                  ],
                  "fareFamily":"FF31LAX",
                  "fareSummary":{
                     "fareTotal":{
                        "totalAmount":693.59,
                        "amountWithoutTax":655.0,
                        "tax":38.59
                     },
                     "fareDetailsPerAdult":{
                        "totalAmount":693.59,
                        "amountWithoutTax":655.0,
                        "tax":38.59
                     }
                  }
               },
               {
                  "segments":[
                     {
                        "segmentID":1,
                        "numOfLastSeats":7,
                        "displayLastSeat":true,
                        "legs":[
                           {
                              "sellingClass":"M",
                              "cabinClass":"Y",
                              "fareClass":"MHOU"
                           },
                           {
                              "sellingClass":"M",
                              "cabinClass":"Y",
                              "fareClass":"MHOU"
                           },
                           {
                              "sellingClass":"O",
                              "cabinClass":"Y",
                              "fareClass":"MHOU"
                           }
                        ],
                        "eligibleOCRecommendationIDs":[
                           0
                        ]
                     }
                  ],
                  "fareFamily":"FF31LAX",
                  "fareSummary":{
                     "fareTotal":{
                        "totalAmount":735.04,
                        "amountWithoutTax":655.0,
                        "tax":80.04
                     },
                     "fareDetailsPerAdult":{
                        "totalAmount":735.04,
                        "amountWithoutTax":655.0,
                        "tax":80.04
                     }
                  }
               }
            ],
            "fareFamily":"FF31LAX",
            "fareSummary":{
               "fareTotal":{
                  "totalAmount":1428.63,
                  "amountWithoutTax":1310.0,
                  "tax":118.63
               },
               "fareDetailsPerAdult":{
                  "totalAmount":1428.63,
                  "amountWithoutTax":1310.0,
                  "tax":118.63
               }
            }
         },
         {
            "recommendationID":4,
            "segmentBounds":[
               {
                  "segments":[
                     {
                        "segmentID":0,
                        "numOfLastSeats":7,
                        "displayLastSeat":true,
                        "legs":[
                           {
                              "sellingClass":"O",
                              "cabinClass":"Y",
                              "fareClass":"BHOU"
                           },
                           {
                              "sellingClass":"B",
                              "cabinClass":"Y",
                              "fareClass":"BHOU"
                           },
                           {
                              "sellingClass":"B",
                              "cabinClass":"Y",
                              "fareClass":"BHOU"
                           }
                        ],
                        "eligibleOCRecommendationIDs":[
                           0
                        ]
                     },
                     {
                        "segmentID":1,
                        "numOfLastSeats":7,
                        "displayLastSeat":true,
                        "legs":[
                           {
                              "sellingClass":"O",
                              "cabinClass":"Y",
                              "fareClass":"BHOU"
                           },
                           {
                              "sellingClass":"B",
                              "cabinClass":"Y",
                              "fareClass":"BHOU"
                           },
                           {
                              "sellingClass":"B",
                              "cabinClass":"Y",
                              "fareClass":"BHOU"
                           }
                        ],
                        "eligibleOCRecommendationIDs":[
                           0
                        ]
                     }
                  ],
                  "fareFamily":"FF21LAX",
                  "fareSummary":{
                     "fareTotal":{
                        "totalAmount":943.59,
                        "amountWithoutTax":905.0,
                        "tax":38.59
                     },
                     "fareDetailsPerAdult":{
                        "totalAmount":943.59,
                        "amountWithoutTax":905.0,
                        "tax":38.59
                     }
                  }
               },
               {
                  "segments":[
                     {
                        "segmentID":0,
                        "numOfLastSeats":7,
                        "displayLastSeat":true,
                        "legs":[
                           {
                              "sellingClass":"W",
                              "cabinClass":"Y",
                              "fareClass":"WHOU"
                           },
                           {
                              "sellingClass":"W",
                              "cabinClass":"Y",
                              "fareClass":"WHOU"
                           },
                           {
                              "sellingClass":"O",
                              "cabinClass":"Y",
                              "fareClass":"WHOU"
                           }
                        ],
                        "eligibleOCRecommendationIDs":[
                           0
                        ]
                     }
                  ],
                  "fareFamily":"FF31LAX",
                  "fareSummary":{
                     "fareTotal":{
                        "totalAmount":609.3,
                        "amountWithoutTax":530.0,
                        "tax":79.3
                     },
                     "fareDetailsPerAdult":{
                        "totalAmount":609.3,
                        "amountWithoutTax":530.0,
                        "tax":79.3
                     }
                  }
               }
            ],
            "fareFamily":"FF31LAX",
            "fareSummary":{
               "fareTotal":{
                  "totalAmount":1552.89,
                  "amountWithoutTax":1435.0,
                  "tax":117.89
               },
               "fareDetailsPerAdult":{
                  "totalAmount":1552.89,
                  "amountWithoutTax":1435.0,
                  "tax":117.89
               }
            }
         },
         {
            "recommendationID":5,
            "segmentBounds":[
               {
                  "segments":[
                     {
                        "segmentID":0,
                        "numOfLastSeats":7,
                        "displayLastSeat":true,
                        "legs":[
                           {
                              "sellingClass":"O",
                              "cabinClass":"Y",
                              "fareClass":"BHOU"
                           },
                           {
                              "sellingClass":"B",
                              "cabinClass":"Y",
                              "fareClass":"BHOU"
                           },
                           {
                              "sellingClass":"B",
                              "cabinClass":"Y",
                              "fareClass":"BHOU"
                           }
                        ],
                        "eligibleOCRecommendationIDs":[
                           0
                        ]
                     },
                     {
                        "segmentID":1,
                        "numOfLastSeats":7,
                        "displayLastSeat":true,
                        "legs":[
                           {
                              "sellingClass":"O",
                              "cabinClass":"Y",
                              "fareClass":"BHOU"
                           },
                           {
                              "sellingClass":"B",
                              "cabinClass":"Y",
                              "fareClass":"BHOU"
                           },
                           {
                              "sellingClass":"B",
                              "cabinClass":"Y",
                              "fareClass":"BHOU"
                           }
                        ],
                        "eligibleOCRecommendationIDs":[
                           0
                        ]
                     }
                  ],
                  "fareFamily":"FF21LAX",
                  "fareSummary":{
                     "fareTotal":{
                        "totalAmount":943.59,
                        "amountWithoutTax":905.0,
                        "tax":38.59
                     },
                     "fareDetailsPerAdult":{
                        "totalAmount":943.59,
                        "amountWithoutTax":905.0,
                        "tax":38.59
                     }
                  }
               },
               {
                  "segments":[
                     {
                        "segmentID":1,
                        "numOfLastSeats":7,
                        "displayLastSeat":true,
                        "legs":[
                           {
                              "sellingClass":"M",
                              "cabinClass":"Y",
                              "fareClass":"MHOU"
                           },
                           {
                              "sellingClass":"M",
                              "cabinClass":"Y",
                              "fareClass":"MHOU"
                           },
                           {
                              "sellingClass":"O",
                              "cabinClass":"Y",
                              "fareClass":"MHOU"
                           }
                        ],
                        "eligibleOCRecommendationIDs":[
                           0
                        ]
                     }
                  ],
                  "fareFamily":"FF31LAX",
                  "fareSummary":{
                     "fareTotal":{
                        "totalAmount":735.04,
                        "amountWithoutTax":655.0,
                        "tax":80.04
                     },
                     "fareDetailsPerAdult":{
                        "totalAmount":735.04,
                        "amountWithoutTax":655.0,
                        "tax":80.04
                     }
                  }
               }
            ],
            "fareFamily":"FF31LAX",
            "fareSummary":{
               "fareTotal":{
                  "totalAmount":1678.63,
                  "amountWithoutTax":1560.0,
                  "tax":118.63
               },
               "fareDetailsPerAdult":{
                  "totalAmount":1678.63,
                  "amountWithoutTax":1560.0,
                  "tax":118.63
               }
            }
         },
         {
            "recommendationID":6,
            "segmentBounds":[
               {
                  "segments":[
                     {
                        "segmentID":0,
                        "numOfLastSeats":7,
                        "displayLastSeat":true,
                        "legs":[
                           {
                              "sellingClass":"O",
                              "cabinClass":"Y",
                              "fareClass":"MHOU"
                           },
                           {
                              "sellingClass":"M",
                              "cabinClass":"Y",
                              "fareClass":"MHOU"
                           },
                           {
                              "sellingClass":"M",
                              "cabinClass":"Y",
                              "fareClass":"MHOU"
                           }
                        ],
                        "eligibleOCRecommendationIDs":[
                           0
                        ]
                     },
                     {
                        "segmentID":1,
                        "numOfLastSeats":7,
                        "displayLastSeat":true,
                        "legs":[
                           {
                              "sellingClass":"O",
                              "cabinClass":"Y",
                              "fareClass":"MHOU"
                           },
                           {
                              "sellingClass":"M",
                              "cabinClass":"Y",
                              "fareClass":"MHOU"
                           },
                           {
                              "sellingClass":"M",
                              "cabinClass":"Y",
                              "fareClass":"MHOU"
                           }
                        ],
                        "eligibleOCRecommendationIDs":[
                           0
                        ]
                     }
                  ],
                  "fareFamily":"FF31LAX",
                  "fareSummary":{
                     "fareTotal":{
                        "totalAmount":693.59,
                        "amountWithoutTax":655.0,
                        "tax":38.59
                     },
                     "fareDetailsPerAdult":{
                        "totalAmount":693.59,
                        "amountWithoutTax":655.0,
                        "tax":38.59
                     }
                  }
               },
               {
                  "segments":[
                     {
                        "segmentID":0,
                        "numOfLastSeats":7,
                        "displayLastSeat":true,
                        "legs":[
                           {
                              "sellingClass":"B",
                              "cabinClass":"Y",
                              "fareClass":"BHOU"
                           },
                           {
                              "sellingClass":"B",
                              "cabinClass":"Y",
                              "fareClass":"BHOU"
                           },
                           {
                              "sellingClass":"O",
                              "cabinClass":"Y",
                              "fareClass":"BHOU"
                           }
                        ],
                        "eligibleOCRecommendationIDs":[
                           0
                        ]
                     },
                     {
                        "segmentID":1,
                        "numOfLastSeats":7,
                        "displayLastSeat":true,
                        "legs":[
                           {
                              "sellingClass":"B",
                              "cabinClass":"Y",
                              "fareClass":"BHOU"
                           },
                           {
                              "sellingClass":"B",
                              "cabinClass":"Y",
                              "fareClass":"BHOU"
                           },
                           {
                              "sellingClass":"O",
                              "cabinClass":"Y",
                              "fareClass":"BHOU"
                           }
                        ],
                        "eligibleOCRecommendationIDs":[
                           0
                        ]
                     }
                  ],
                  "fareFamily":"FF21LAX",
                  "fareSummary":{
                     "fareTotal":{
                        "totalAmount":986.01,
                        "amountWithoutTax":905.0,
                        "tax":81.01
                     },
                     "fareDetailsPerAdult":{
                        "totalAmount":986.01,
                        "amountWithoutTax":905.0,
                        "tax":81.01
                     }
                  }
               }
            ],
            "fareFamily":"FF31LAX",
            "fareSummary":{
               "fareTotal":{
                  "totalAmount":1679.6,
                  "amountWithoutTax":1560.0,
                  "tax":119.6
               },
               "fareDetailsPerAdult":{
                  "totalAmount":1679.6,
                  "amountWithoutTax":1560.0,
                  "tax":119.6
               }
            }
         },
         {
            "recommendationID":7,
            "segmentBounds":[
               {
                  "segments":[
                     {
                        "segmentID":0,
                        "numOfLastSeats":7,
                        "displayLastSeat":true,
                        "legs":[
                           {
                              "sellingClass":"O",
                              "cabinClass":"Y",
                              "fareClass":"BHOU"
                           },
                           {
                              "sellingClass":"B",
                              "cabinClass":"Y",
                              "fareClass":"BHOU"
                           },
                           {
                              "sellingClass":"B",
                              "cabinClass":"Y",
                              "fareClass":"BHOU"
                           }
                        ],
                        "eligibleOCRecommendationIDs":[
                           0
                        ]
                     },
                     {
                        "segmentID":1,
                        "numOfLastSeats":7,
                        "displayLastSeat":true,
                        "legs":[
                           {
                              "sellingClass":"O",
                              "cabinClass":"Y",
                              "fareClass":"BHOU"
                           },
                           {
                              "sellingClass":"B",
                              "cabinClass":"Y",
                              "fareClass":"BHOU"
                           },
                           {
                              "sellingClass":"B",
                              "cabinClass":"Y",
                              "fareClass":"BHOU"
                           }
                        ],
                        "eligibleOCRecommendationIDs":[
                           0
                        ]
                     }
                  ],
                  "fareFamily":"FF21LAX",
                  "fareSummary":{
                     "fareTotal":{
                        "totalAmount":943.59,
                        "amountWithoutTax":905.0,
                        "tax":38.59
                     },
                     "fareDetailsPerAdult":{
                        "totalAmount":943.59,
                        "amountWithoutTax":905.0,
                        "tax":38.59
                     }
                  }
               },
               {
                  "segments":[
                     {
                        "segmentID":0,
                        "numOfLastSeats":7,
                        "displayLastSeat":true,
                        "legs":[
                           {
                              "sellingClass":"B",
                              "cabinClass":"Y",
                              "fareClass":"BHOU"
                           },
                           {
                              "sellingClass":"B",
                              "cabinClass":"Y",
                              "fareClass":"BHOU"
                           },
                           {
                              "sellingClass":"O",
                              "cabinClass":"Y",
                              "fareClass":"BHOU"
                           }
                        ],
                        "eligibleOCRecommendationIDs":[
                           0
                        ]
                     },
                     {
                        "segmentID":1,
                        "numOfLastSeats":7,
                        "displayLastSeat":true,
                        "legs":[
                           {
                              "sellingClass":"B",
                              "cabinClass":"Y",
                              "fareClass":"BHOU"
                           },
                           {
                              "sellingClass":"B",
                              "cabinClass":"Y",
                              "fareClass":"BHOU"
                           },
                           {
                              "sellingClass":"O",
                              "cabinClass":"Y",
                              "fareClass":"BHOU"
                           }
                        ],
                        "eligibleOCRecommendationIDs":[
                           0
                        ]
                     }
                  ],
                  "fareFamily":"FF21LAX",
                  "fareSummary":{
                     "fareTotal":{
                        "totalAmount":986.01,
                        "amountWithoutTax":905.0,
                        "tax":81.01
                     },
                     "fareDetailsPerAdult":{
                        "totalAmount":986.01,
                        "amountWithoutTax":905.0,
                        "tax":81.01
                     }
                  }
               }
            ],
            "fareFamily":"FF21LAX",
            "fareSummary":{
               "fareTotal":{
                  "totalAmount":1929.6,
                  "amountWithoutTax":1810.0,
                  "tax":119.6
               },
               "fareDetailsPerAdult":{
                  "totalAmount":1929.6,
                  "amountWithoutTax":1810.0,
                  "tax":119.6
               }
            }
         }
      ],
      "ocRecommendations":[

      ],
      "flights":[
         {
            "originAirportCode":"PHX",
            "destinationAirportCode":"HKT",
            "departureDate":"2017-12-12",
            "segments":[
               {
                  "segmentID":0,
                  "originAirportCode":"PHX",
                  "destinationAirportCode":"HKT",
                  "departureDateTime":"2017-12-12 10:00:00",
                  "arrivalDateTime":"2017-12-14 14:05:00",
                  "legs":[
                     {
                        "legID":0,
                        "flightNumber":"552",
                        "originAirportCode":"PHX",
                        "destinationAirportCode":"IAH",
                        "departureTerminal":"4",
                        "arrivalTerminal":"A",
                        "departureDateTime":"2017-12-12 10:00:00",
                        "arrivalDateTime":"2017-12-12 13:41:00",
                        "operatingAirline":{
                           "code":"AA",
                           "name":"American Airlines"
                        },
                        "marketingAirline":{
                           "code":"AA",
                           "name":"American Airlines"
                        },
                        "aircraft":{
                           "code":"320",
                           "name":"Airbus A320"
                        },
                        "stops":[

                        ],
                        "flightDuration":9660,
                        "layoverDuration":17940,
                        "codeShareFlight":false
                     },
                     {
                        "legID":0,
                        "flightNumber":"51",
                        "originAirportCode":"IAH",
                        "destinationAirportCode":"SIN",
                        "departureTerminal":"D",
                        "arrivalTerminal":"0",
                        "departureDateTime":"2017-12-12 18:40:00",
                        "arrivalDateTime":"2017-12-14 07:55:00",
                        "operatingAirline":{
                           "code":"SQ",
                           "name":"Singapore Airlines"
                        },
                        "marketingAirline":{
                           "code":"SQ",
                           "name":"Singapore Airlines"
                        },
                        "aircraft":{
                           "code":"359",
                           "name":"Airbus A350-900"
                        },
                        "stops":[
                           {
                              "arrivalDateTime":"2017-12-13 09:30:00",
                              "departureDateTime":"2017-12-13 11:00:00",
                              "airportCode":"MAN",
                              "layoverDuration":5400
                           }
                        ],
                        "flightDuration":83700,
                        "layoverDuration":18900,
                        "codeShareFlight":false
                     },
                     {
                        "legID":0,
                        "flightNumber":"5054",
                        "originAirportCode":"SIN",
                        "destinationAirportCode":"HKT",
                        "departureTerminal":"2",
                        "arrivalTerminal":"I",
                        "departureDateTime":"2017-12-14 13:10:00",
                        "arrivalDateTime":"2017-12-14 14:05:00",
                        "operatingAirline":{
                           "code":"MI",
                           "name":"SilkAir"
                        },
                        "marketingAirline":{
                           "code":"SQ",
                           "name":"Singapore Airlines"
                        },
                        "aircraft":{
                           "code":"738",
                           "name":"Boeing 737-800"
                        },
                        "stops":[

                        ],
                        "flightDuration":6900,
                        "layoverDuration":0,
                        "codeShareFlight":true
                     }
                  ],
                  "tripDuration":137100
               },
               {
                  "segmentID":1,
                  "originAirportCode":"PHX",
                  "destinationAirportCode":"HKT",
                  "departureDateTime":"2017-12-12 10:00:00",
                  "arrivalDateTime":"2017-12-14 17:10:00",
                  "legs":[
                     {
                        "legID":0,
                        "flightNumber":"552",
                        "originAirportCode":"PHX",
                        "destinationAirportCode":"IAH",
                        "departureTerminal":"4",
                        "arrivalTerminal":"A",
                        "departureDateTime":"2017-12-12 10:00:00",
                        "arrivalDateTime":"2017-12-12 13:41:00",
                        "operatingAirline":{
                           "code":"AA",
                           "name":"American Airlines"
                        },
                        "marketingAirline":{
                           "code":"AA",
                           "name":"American Airlines"
                        },
                        "aircraft":{
                           "code":"320",
                           "name":"Airbus A320"
                        },
                        "stops":[

                        ],
                        "flightDuration":9660,
                        "layoverDuration":17940,
                        "codeShareFlight":false
                     },
                     {
                        "legID":0,
                        "flightNumber":"51",
                        "originAirportCode":"IAH",
                        "destinationAirportCode":"SIN",
                        "departureTerminal":"D",
                        "arrivalTerminal":"0",
                        "departureDateTime":"2017-12-12 18:40:00",
                        "arrivalDateTime":"2017-12-14 07:55:00",
                        "operatingAirline":{
                           "code":"SQ",
                           "name":"Singapore Airlines"
                        },
                        "marketingAirline":{
                           "code":"SQ",
                           "name":"Singapore Airlines"
                        },
                        "aircraft":{
                           "code":"359",
                           "name":"Airbus A350-900"
                        },
                        "stops":[
                           {
                              "arrivalDateTime":"2017-12-13 09:30:00",
                              "departureDateTime":"2017-12-13 11:00:00",
                              "airportCode":"MAN",
                              "layoverDuration":5400
                           }
                        ],
                        "flightDuration":83700,
                        "layoverDuration":30600,
                        "codeShareFlight":false
                     },
                     {
                        "legID":0,
                        "flightNumber":"5056",
                        "originAirportCode":"SIN",
                        "destinationAirportCode":"HKT",
                        "departureTerminal":"2",
                        "arrivalTerminal":"I",
                        "departureDateTime":"2017-12-14 16:25:00",
                        "arrivalDateTime":"2017-12-14 17:10:00",
                        "operatingAirline":{
                           "code":"MI",
                           "name":"SilkAir"
                        },
                        "marketingAirline":{
                           "code":"SQ",
                           "name":"Singapore Airlines"
                        },
                        "aircraft":{
                           "code":"320",
                           "name":"Airbus A320"
                        },
                        "stops":[

                        ],
                        "flightDuration":6300,
                        "layoverDuration":0,
                        "codeShareFlight":true
                     }
                  ],
                  "tripDuration":148200
               }
            ]
         },
         {
            "originAirportCode":"HKT",
            "destinationAirportCode":"PHX",
            "departureDate":"2018-01-16",
            "segments":[
               {
                  "segmentID":1,
                  "originAirportCode":"HKT",
                  "destinationAirportCode":"PHX",
                  "departureDateTime":"2018-01-16 20:10:00",
                  "arrivalDateTime":"2018-01-18 07:49:00",
                  "legs":[
                     {
                        "legID":0,
                        "flightNumber":"5057",
                        "originAirportCode":"HKT",
                        "destinationAirportCode":"SIN",
                        "departureTerminal":"I",
                        "arrivalTerminal":"2",
                        "departureDateTime":"2018-01-16 20:10:00",
                        "arrivalDateTime":"2018-01-16 22:55:00",
                        "operatingAirline":{
                           "code":"MI",
                           "name":"SilkAir"
                        },
                        "marketingAirline":{
                           "code":"SQ",
                           "name":"Singapore Airlines"
                        },
                        "aircraft":{
                           "code":"738",
                           "name":"Boeing 737-800"
                        },
                        "stops":[

                        ],
                        "flightDuration":6300,
                        "layoverDuration":11400,
                        "codeShareFlight":true
                     },
                     {
                        "legID":0,
                        "flightNumber":"52",
                        "originAirportCode":"SIN",
                        "destinationAirportCode":"IAH",
                        "departureTerminal":"3",
                        "arrivalTerminal":"E",
                        "departureDateTime":"2018-01-17 02:05:00",
                        "arrivalDateTime":"2018-01-17 14:20:00",
                        "operatingAirline":{
                           "code":"SQ",
                           "name":"Singapore Airlines"
                        },
                        "marketingAirline":{
                           "code":"SQ",
                           "name":"Singapore Airlines"
                        },
                        "aircraft":{
                           "code":"359",
                           "name":"Airbus A350-900"
                        },
                        "stops":[
                           {
                              "arrivalDateTime":"2018-01-17 08:30:00",
                              "departureDateTime":"2018-01-17 10:00:00",
                              "airportCode":"MAN",
                              "layoverDuration":5400
                           }
                        ],
                        "flightDuration":94500,
                        "layoverDuration":56400,
                        "codeShareFlight":false
                     },
                     {
                        "legID":0,
                        "flightNumber":"531",
                        "originAirportCode":"IAH",
                        "destinationAirportCode":"PHX",
                        "departureTerminal":"A",
                        "arrivalTerminal":"4",
                        "departureDateTime":"2018-01-18 06:00:00",
                        "arrivalDateTime":"2018-01-18 07:49:00",
                        "operatingAirline":{
                           "code":"AA",
                           "name":"American Airlines"
                        },
                        "marketingAirline":{
                           "code":"AA",
                           "name":"American Airlines"
                        },
                        "aircraft":{
                           "code":"319",
                           "name":"Airbus A319"
                        },
                        "stops":[

                        ],
                        "flightDuration":10140,
                        "layoverDuration":0,
                        "codeShareFlight":false
                     }
                  ],
                  "tripDuration":178740
               },
               {
                  "segmentID":0,
                  "originAirportCode":"HKT",
                  "destinationAirportCode":"PHX",
                  "departureDateTime":"2018-01-16 17:50:00",
                  "arrivalDateTime":"2018-01-18 07:49:00",
                  "legs":[
                     {
                        "legID":0,
                        "flightNumber":"5055",
                        "originAirportCode":"HKT",
                        "destinationAirportCode":"SIN",
                        "departureTerminal":"I",
                        "arrivalTerminal":"2",
                        "departureDateTime":"2018-01-16 17:50:00",
                        "arrivalDateTime":"2018-01-16 20:40:00",
                        "operatingAirline":{
                           "code":"MI",
                           "name":"SilkAir"
                        },
                        "marketingAirline":{
                           "code":"SQ",
                           "name":"Singapore Airlines"
                        },
                        "aircraft":{
                           "code":"320",
                           "name":"Airbus A320"
                        },
                        "stops":[

                        ],
                        "flightDuration":6600,
                        "layoverDuration":19500,
                        "codeShareFlight":true
                     },
                     {
                        "legID":0,
                        "flightNumber":"52",
                        "originAirportCode":"SIN",
                        "destinationAirportCode":"IAH",
                        "departureTerminal":"3",
                        "arrivalTerminal":"E",
                        "departureDateTime":"2018-01-17 02:05:00",
                        "arrivalDateTime":"2018-01-17 14:20:00",
                        "operatingAirline":{
                           "code":"SQ",
                           "name":"Singapore Airlines"
                        },
                        "marketingAirline":{
                           "code":"SQ",
                           "name":"Singapore Airlines"
                        },
                        "aircraft":{
                           "code":"359",
                           "name":"Airbus A350-900"
                        },
                        "stops":[
                           {
                              "arrivalDateTime":"2018-01-17 08:30:00",
                              "departureDateTime":"2018-01-17 10:00:00",
                              "airportCode":"MAN",
                              "layoverDuration":5400
                           }
                        ],
                        "flightDuration":94500,
                        "layoverDuration":56400,
                        "codeShareFlight":false
                     },
                     {
                        "legID":0,
                        "flightNumber":"531",
                        "originAirportCode":"IAH",
                        "destinationAirportCode":"PHX",
                        "departureTerminal":"A",
                        "arrivalTerminal":"4",
                        "departureDateTime":"2018-01-18 06:00:00",
                        "arrivalDateTime":"2018-01-18 07:49:00",
                        "operatingAirline":{
                           "code":"AA",
                           "name":"American Airlines"
                        },
                        "marketingAirline":{
                           "code":"AA",
                           "name":"American Airlines"
                        },
                        "aircraft":{
                           "code":"319",
                           "name":"Airbus A319"
                        },
                        "stops":[

                        ],
                        "flightDuration":10140,
                        "layoverDuration":0,
                        "codeShareFlight":false
                     }
                  ],
                  "tripDuration":187140
               }
            ]
         }
      ],
      "fareFamilies":[
         {
            "fareFamily":"FF41LAX",
            "fareFamilyCode":"FF4",
            "fareFamilyName":"Economy Lite",
            "cabinClassName":"Economy",
            "cabinClass":"Y",
            "itinChangeAllowed":true,
            "itinCancelRefundAllowed":false,
            "itinEarnMilesAllowed":true,
            "itinAwardUpgradeAllowed":false,
            "itinChangeCondition":"USD 200",
            "itinEarnMilesCondition":"50%",
            "promotionalFF":false
         },
         {
            "fareFamily":"FF31LAX",
            "fareFamilyCode":"FF3",
            "fareFamilyName":"Economy Standard",
            "cabinClassName":"Economy",
            "cabinClass":"Y",
            "itinChangeAllowed":true,
            "itinCancelRefundAllowed":false,
            "itinEarnMilesAllowed":true,
            "itinAwardUpgradeAllowed":false,
            "itinChangeCondition":"USD 50",
            "itinEarnMilesCondition":"75%",
            "promotionalFF":false
         },
         {
            "fareFamily":"FF21LAX",
            "fareFamilyCode":"FF2",
            "fareFamilyName":"Economy Flexi",
            "cabinClassName":"Economy",
            "cabinClass":"Y",
            "itinChangeAllowed":true,
            "itinCancelRefundAllowed":false,
            "itinEarnMilesAllowed":true,
            "itinAwardUpgradeAllowed":false,
            "itinChangeCondition":"Complimentary",
            "itinEarnMilesCondition":"100%",
            "promotionalFF":false
         }
      ],
      "airports":[
         {
            "airportCode":"HKT",
            "airportName":"Phuket Intl",
            "cityCode":"HKT",
            "cityName":"Phuket",
            "countryCode":"TH",
            "countryName":"Thailand"
         },
         {
            "airportCode":"PHX",
            "airportName":"Sky Harbor Intl",
            "stateCode":"AZ",
            "stateName":"AZ",
            "cityCode":"PHX",
            "cityName":"Phoenix",
            "countryCode":"US",
            "countryName":"United States Of America"
         },
         {
            "airportCode":"IAH",
            "airportName":"Intercontinental",
            "stateCode":"TX",
            "stateName":"TX",
            "cityCode":"HOU",
            "cityName":"Houston",
            "countryCode":"US",
            "countryName":"United States Of America"
         },
         {
            "airportCode":"SIN",
            "airportName":"Changi Intl",
            "cityCode":"SIN",
            "cityName":"Singapore",
            "countryCode":"SG",
            "countryName":"Singapore"
         },
         {
            "airportCode":"MAN",
            "airportName":"Manchester Ringway  Intl",
            "cityCode":"MAN",
            "cityName":"Manchester",
            "countryCode":"GB",
            "countryName":"United Kingdom"
         }
      ],
      "creditCardSurcharge":false
   },
   "clientUUID":"ymcuxZGkkyxjViCdjJznlKb69IfJWUnKFpp5ZvN_eKEK5VGr6NR8!395940272!1512613188004",
   "pageTicket":0,
   "status":"SUCCESS",
   "code":"200",
   "message":""
}
