{
	"bundle": [
    {
      "packId": "pack_01_01_01",
  		"percentageSaved":"20",
  		"packCategory":"PSS_XBAG_B",
  		"isRecommended":"true",
  		"packTitle":"",
  		"packDescription":"",
  		"packImageUrl":"",
      "ancillaries": [
        {
          "ancillaryType": "xBag",
          "ancillarySubType": "",
          "units": {"numberOfUnits": "5", "unitOfMeasurement": "Kg"}
        },
        {
          "ancillaryType": "PSS"
        }
      ]
    },
    {
      "packId": "pack_01_01_02",
  		"percentageSaved":"20",
  		"packCategory":"PSS_XBAG_B",
      "ancillaries": [
        {
          "ancillaryType": "xBag",
          "ancillarySubType": "",
          "units": {"numberOfUnits": "10", "unitOfMeasurement": "Kg"}
        },
        {
          "ancillaryType": "PSS"
        }
      ]
    },
    {
      "packId": "pack_01_01_03",
  		"percentageSaved":"20",
  		"packCategory":"PSS_XBAG_B",
      "ancillaries": [
        {
          "ancillaryType": "xBag",
          "ancillarySubType": "",
          "units": {"numberOfUnits": "15", "unitOfMeasurement": "Kg"}
        },
        {
          "ancillaryType": "PSS"
        }
      ]
    },
    {
      "packId": "pack_01_01_04",
  		"percentageSaved":"20",
  		"packCategory":"PSS_XBAG_B",
      "ancillaries": [
        {
          "ancillaryType": "xBag",
          "ancillarySubType": "",
          "units": {"numberOfUnits": "20", "unitOfMeasurement": "Kg"}
        },
        {
          "ancillaryType": "PSS"
        }
      ]
    },
    {
      "packId": "pack_01_01_05",
  		"percentageSaved":"20",
  		"packCategory":"PSS_XBAG_B",
      "ancillaries": [
        {
          "ancillaryType": "xBag",
          "ancillarySubType": "",
          "units": {"numberOfUnits": "25", "unitOfMeasurement": "Kg"}
        },
        {
          "ancillaryType": "PSS"
        }
      ]
    }
  ],
  "alacarte": [
    {
  		"isRecommended":"true",
  		"packCategory":"PSS_A",
  		"packTitle":"",
  		"packDescription":"",
  		"packImageUrl":"",
      "packId": "pack_a_01_01_PSS",
      "ancillaryType": "PSS"
    },
    {
      "packId": "pack_a_01_01_HEAVY",
      "packCategory":"XBAG_A",
      "ancillaryType": "HEAVY",
      "ancillarySubType": "",
      "units": {"numberOfUnits": "9", "unitOfMeasurement": "Kg"}
    },
	  {
      "packId": "pack_a_01_01_BULK",
		  "packCategory":"XBAG_A",
      "ancillaryType": "BULK",
      "ancillarySubType": "",
      "units": {"height": "9", "weight": "5", "breadth": "6", "unitOfMeasurement": "inch"}
    },
	  {
      "packId": "pack_a_01_01_PIECE",
		  "packCategory":"XBAG_A",
      "ancillaryType": "PIECE",
      "ancillarySubType": "",
      "units": {"numberOfUnits": "32", "unitOfMeasurement": "Kg"}
    }
	],
  "packPaxAssociations": [
    {
      "paxId": "passenger_1",
  		"isFK":true,
  		"paxName": "John Tan",
      "segments": [
        {
          "segmentId": "SIN-SFO",
          "segmentDescription": "Singapore to San Francisco",
          "packs": [
            {
              "packId": "pack_01_01_01",
              "price": "50",
              "currency": "SGD",
              "isComplimentry":true
            },
            {
              "packId": "pack_01_01_02",
              "price": "70",
              "currency": "SGD",
				      "isComplimentry":true
            },
            {
              "packId": "pack_01_01_03",
              "price": "90",
              "currency": "SGD",
				      "isComplimentry":true
            },
    			  {
              "packId": "pack_01_01_04",
              "price": "120",
              "currency": "SGD",
				      "isComplimentry":true
            },
            {
              "packId": "pack_a_01_01_PSS",
              "price": "50",
              "currency": "SGD"
            },
            {
              "packId": "pack_a_01_01_HEAVY",
              "price": "20",
              "currency": "SGD"
            },
            {
              "packId": "pack_a_01_01_BULK",
              "price": "30",
              "currency": "SGD"
            },
            {
              "packId": "pack_a_01_01_PIECE",
              "price": "40",
              "currency": "SGD"
            }
          ]
        }
      ]
    }
  ]
}
