{
  "masthead": {
		"items": [
			{
				"country": "UNITED KINGDOM",
				"capital": "London",
				"favourites": "Add to favourites"
			}
		]
	},
	"fareDeal": {
		"introTitle": " One of the world's most visited cities, London has something for everyone: from history and culture to fine food and good times.",
		"introDescrition": " Lorem ipsum dolor sit amet, consectetur adipiscing elit. Curabitur eget justo nec nisi ultricies ultrices a ut diam. Praesent iaculis quam vitae ex imperdiet, sit amet pellentesque urna sodales. In eu tristique justo. Pellentesque faucibus iaculis purus sit amet aliquam. Maecenas ornare congue justo, nec efficitur sapien interdum id. Proin ac felis varius augue feugiat congue et ac mauris. Cras tincidunt accumsan purus, ut pulvinar quam vestibulum vel. Quisque  molestie maximus egestas. Proin ac mi nisi.",
		"header": "Fare deals from Singapore to London",
		"viewAll": "View all deals",
		"items": [
			{
				"currency": "SGD",
				"price": "1,288",
				"travelPeriod": " 1 Jun 2018",
				"travelPeriodTo": "31 Dec 2018",
				"bookNow": {
					"text": "Book now"
				}
			},
			{
				"currency": "SGD",
				"price": "1,288",
				"travelPeriod": " 1 Jun 2018",
				"travelPeriodTo": "31 Dec 2018",
				"bookNow": {
					"text": "Book now",
					"link": "#"
				}
			},
			{
				"currency": "SGD",
				"price": "1,288",
				"travelPeriod": " 1 Jun 2018",
				"travelPeriodTo": "31 Dec 2018",
				"bookNow": {
					"text": "Book now",
					"link": "#"
				}
			}
		]
  },
  "airportInformation": {
		"airport": {
			"header": "Airport information",
			"titleAirport": "Airport",
			"nameAirport": "Heathrow (LHR)",
			"titleVisa": "Visa requirements",
			"visaContent": [
				{
					"titleLink": "Get personalised requirements",
					"href": "#"
				},
				{
					"titleLink": "Apply for a visa",
					"href": "#"
				}
			]
		},
		"weather": {
			"header": "City information",
			"titleLangauges": "Langauges",
			"nameLangauges": "English",
			"titleZone": "Time Zone",
			"nameZone": "GMT +1",
			"titleWeather": "Weather Info",
			"infoWeather": [
				{
					"image": "images/icon-sun.png",
					"temperature": "31°C / 21°C",
					"date": "March 18"
				},
				{
					"image": "images/icon-clould.png",
					"temperature": "12°C / 10°C",
					"date": "April 18"
				},
				{
					"image": "images/icon-rain.png",
					"temperature": "12°C / 5°C",
					"date": "May 18"
				},
				{
					"image": "images/icon-wind.png",
					"temperature": "10°C / 7°C",
					"date": "June 18"
				}
			]
		}
  },
  "citiesMoreDestinations": {
		"viewAll": {
			"text": "View all",
			"href": "#"
		},
		"cities": [
			{
				"image": "images/france-paris.png",
				"destinationCountryName": "France",
				"destinationCityName": "Paris",
				"star": "images/svg/star-white.svg"
			},
			{
				"image": "images/indonesia-yogy.png",
				"destinationCountryName": "Indonesia",
				"destinationCityName": "Yogyakarta",
				"star": "images/svg/star-white.svg"
			},
			{
				"image": "images/indonesia-bali.png",
				"destinationCountryName": "Indonesia",
				"destinationCityName": "Bali",
				"star": "images/svg/star-white.svg"
			}
		]
	}
}
