{
  "fareTypes": [
    {
      "fareFamilyCode": "FF1",
      "title": "From Economy Standard (Saver upgrade award) to Premium Economy",
      "body" : "Number of miles required: 5,000 miles"
    },
    {
      "fareFamilyCode": "FF3",
      "title": "From Economy Standard (Saver upgrade award) to Premium Economy",
      "body" : "Number of miles required: 5,000 miles"
    },
    {
      "fareFamilyCode": "FF2",
      "title": "From Economy Standard (Saver upgrade award) to Premium Economy",
      "body" : "Number of miles required: 5,000 miles"
    },
    {
      "fareFamilyCode": "FF4",
      "title": "From Economy Standard (Saver upgrade award) to Premium Economy",
      "body" : "Number of miles required: 5,000 miles"
    },
    {
      "fareFamilyCode": "FF5",
      "title": "From Economy Standard (Saver upgrade award) to Premium Economy",
      "body" : "Number of miles required: 5,000 miles"
    },
    {
      "fareFamilyCode": "FD7",
      "title": "From Economy Standard (Saver upgrade award) to Premium Economy",
      "body" : "Number of miles required: 5,000 miles"
    },
    {
      "fareFamilyCode": "FD8",
      "title": "From Economy Standard (Saver upgrade award) to Premium Economy",
      "body" : "Number of miles required: 5,000 miles"
    }
  ]
}
