{
  "status": "SUCCESS",
  "code": "200",
  "message": "",
  "response": {
    "sessionID": "JSESSIONID=2UdayboYdOGqYUhHwSXBZ00T9rebHZ6vZfbKKv3fiQhA11yjKxG2!-2016398360!409371542",
    "pageTicket": "0",
    "currency": {
      "code": "INR",
      "name": "Indian Rupee",
      "precision": 2
    },
    "resultType": "F",
    "defaultRecommendationID": 0,
    "recommendations": [
      {
        "recommendationID": 1,
        "segmentBounds": [
          {
            "segments": [
              {
                "segmentID": 0,
                "numOfLastSeats": 9,
                "displayLastSeat": false,
                "sellingClass": "Q",
                "cabinClass": ""
              },
              {
                "segmentID": 1,
                "numOfLastSeats": 9,
                "displayLastSeat": false,
                "sellingClass": "Q",
                "cabinClass": ""
              }
            ],
            "fareFamily": null,
            "fareSummary": null
          },
          {
            "segments": [
              {
                "segmentID": 0,
                "numOfLastSeats": 9,
                "displayLastSeat": false,
                "sellingClass": "Q",
                "cabinClass": ""
              }
            ],
            "fareFamily": null,
            "fareSummary": null
          }
        ],
        "fareFamily": "FF41BOM",
        "fareSummary": {
          "fareTotal": {
            "totalAmount": 195877,
            "amountWithoutTax": 169260,
            "tax": 26617
          },
          "fareDetailsPerAdult": {
            "totalAmount": 62617,
            "amountWithoutTax": 54600,
            "tax": 8017
          },
          "fareDetailsPerChild": {
            "totalAmount": 62617,
            "amountWithoutTax": 54600,
            "tax": 8017
          },
          "fareDetailsPerInfant": {
            "totalAmount": 8026,
            "amountWithoutTax": 5460,
            "tax": 2566
          }
        }
      },
      {
        "recommendationID": 2,
        "segmentBounds": [
          {
            "segments": [
              {
                "segmentID": 0,
                "numOfLastSeats": 9,
                "displayLastSeat": false,
                "sellingClass": "Q",
                "cabinClass": ""
              },
              {
                "segmentID": 1,
                "numOfLastSeats": 9,
                "displayLastSeat": false,
                "sellingClass": "Q",
                "cabinClass": ""
              }
            ],
            "fareFamily": null,
            "fareSummary": null
          },
          {
            "segments": [
              {
                "segmentID": 1,
                "numOfLastSeats": 9,
                "displayLastSeat": false,
                "sellingClass": "Q",
                "cabinClass": ""
              }
            ],
            "fareFamily": null,
            "fareSummary": null
          }
        ],
        "fareFamily": "FF41BOM",
        "fareSummary": {
          "fareTotal": {
            "totalAmount": 201225,
            "amountWithoutTax": 169260,
            "tax": 31965
          },
          "fareDetailsPerAdult": {
            "totalAmount": 63954,
            "amountWithoutTax": 54600,
            "tax": 9354
          },
          "fareDetailsPerChild": {
            "totalAmount": 63954,
            "amountWithoutTax": 54600,
            "tax": 9354
          },
          "fareDetailsPerInfant": {
            "totalAmount": 9363,
            "amountWithoutTax": 5460,
            "tax": 3903
          }
        }
      },
      {
        "recommendationID": 3,
        "segmentBounds": [
          {
            "segments": [
              {
                "segmentID": 0,
                "numOfLastSeats": 9,
                "displayLastSeat": false,
                "sellingClass": "M",
                "cabinClass": ""
              },
              {
                "segmentID": 1,
                "numOfLastSeats": 9,
                "displayLastSeat": false,
                "sellingClass": "M",
                "cabinClass": ""
              }
            ],
            "fareFamily": null,
            "fareSummary": null
          },
          {
            "segments": [
              {
                "segmentID": 0,
                "numOfLastSeats": 9,
                "displayLastSeat": false,
                "sellingClass": "M",
                "cabinClass": ""
              }
            ],
            "fareFamily": null,
            "fareSummary": null
          }
        ],
        "fareFamily": "FF31BOM",
        "fareSummary": {
          "fareTotal": {
            "totalAmount": 219473,
            "amountWithoutTax": 191520,
            "tax": 27953
          },
          "fareDetailsPerAdult": {
            "totalAmount": 75973,
            "amountWithoutTax": 67200,
            "tax": 8773
          },
          "fareDetailsPerChild": {
            "totalAmount": 58164,
            "amountWithoutTax": 50400,
            "tax": 7764
          },
          "fareDetailsPerInfant": {
            "totalAmount": 9363,
            "amountWithoutTax": 6720,
            "tax": 2643
          }
        }
      },
      {
        "recommendationID": 4,
        "segmentBounds": [
          {
            "segments": [
              {
                "segmentID": 0,
                "numOfLastSeats": 9,
                "displayLastSeat": false,
                "sellingClass": "M",
                "cabinClass": ""
              },
              {
                "segmentID": 1,
                "numOfLastSeats": 9,
                "displayLastSeat": false,
                "sellingClass": "M",
                "cabinClass": ""
              }
            ],
            "fareFamily": null,
            "fareSummary": null
          },
          {
            "segments": [
              {
                "segmentID": 1,
                "numOfLastSeats": 9,
                "displayLastSeat": false,
                "sellingClass": "M",
                "cabinClass": ""
              }
            ],
            "fareFamily": null,
            "fareSummary": null
          }
        ],
        "fareFamily": "FF31BOM",
        "fareSummary": {
          "fareTotal": {
            "totalAmount": 224821,
            "amountWithoutTax": 191520,
            "tax": 33301
          },
          "fareDetailsPerAdult": {
            "totalAmount": 77310,
            "amountWithoutTax": 67200,
            "tax": 10110
          },
          "fareDetailsPerChild": {
            "totalAmount": 59501,
            "amountWithoutTax": 50400,
            "tax": 9101
          },
          "fareDetailsPerInfant": {
            "totalAmount": 10700,
            "amountWithoutTax": 6720,
            "tax": 3980
          }
        }
      },
      {
        "recommendationID": 5,
        "segmentBounds": [
          {
            "segments": [
              {
                "segmentID": 0,
                "numOfLastSeats": 9,
                "displayLastSeat": false,
                "sellingClass": "Y",
                "cabinClass": ""
              },
              {
                "segmentID": 1,
                "numOfLastSeats": 9,
                "displayLastSeat": false,
                "sellingClass": "Y",
                "cabinClass": ""
              }
            ],
            "fareFamily": null,
            "fareSummary": null
          },
          {
            "segments": [
              {
                "segmentID": 0,
                "numOfLastSeats": 9,
                "displayLastSeat": false,
                "sellingClass": "Y",
                "cabinClass": ""
              }
            ],
            "fareFamily": null,
            "fareSummary": null
          }
        ],
        "fareFamily": "FF21BOM",
        "fareSummary": {
          "fareTotal": {
            "totalAmount": 295600,
            "amountWithoutTax": 263340,
            "tax": 32260
          },
          "fareDetailsPerAdult": {
            "totalAmount": 102684,
            "amountWithoutTax": 92400,
            "tax": 10284
          },
          "fareDetailsPerChild": {
            "totalAmount": 78198,
            "amountWithoutTax": 69300,
            "tax": 8898
          },
          "fareDetailsPerInfant": {
            "totalAmount": 12034,
            "amountWithoutTax": 9240,
            "tax": 2794
          }
        }
      },
      {
        "recommendationID": 6,
        "segmentBounds": [
          {
            "segments": [
              {
                "segmentID": 0,
                "numOfLastSeats": 9,
                "displayLastSeat": false,
                "sellingClass": "Y",
                "cabinClass": ""
              },
              {
                "segmentID": 1,
                "numOfLastSeats": 9,
                "displayLastSeat": false,
                "sellingClass": "Y",
                "cabinClass": ""
              }
            ],
            "fareFamily": null,
            "fareSummary": null
          },
          {
            "segments": [
              {
                "segmentID": 1,
                "numOfLastSeats": 9,
                "displayLastSeat": false,
                "sellingClass": "Y",
                "cabinClass": ""
              }
            ],
            "fareFamily": null,
            "fareSummary": null
          }
        ],
        "fareFamily": "FF21BOM",
        "fareSummary": {
          "fareTotal": {
            "totalAmount": 300948,
            "amountWithoutTax": 263340,
            "tax": 37608
          },
          "fareDetailsPerAdult": {
            "totalAmount": 104021,
            "amountWithoutTax": 92400,
            "tax": 11621
          },
          "fareDetailsPerChild": {
            "totalAmount": 79535,
            "amountWithoutTax": 69300,
            "tax": 10235
          },
          "fareDetailsPerInfant": {
            "totalAmount": 13371,
            "amountWithoutTax": 9240,
            "tax": 4131
          }
        }
      },
      {
        "recommendationID": 7,
        "segmentBounds": [
          {
            "segments": [
              {
                "segmentID": 1,
                "numOfLastSeats": 9,
                "displayLastSeat": false,
                "sellingClass": "B",
                "cabinClass": ""
              }
            ],
            "fareFamily": null,
            "fareSummary": null
          },
          {
            "segments": [
              {
                "segmentID": 2,
                "numOfLastSeats": 4,
                "displayLastSeat": true,
                "sellingClass": "Y",
                "cabinClass": ""
              }
            ],
            "fareFamily": null,
            "fareSummary": null
          }
        ],
        "fareFamily": "FF21BOM",
        "fareSummary": {
          "fareTotal": {
            "totalAmount": 958206,
            "amountWithoutTax": 886240,
            "tax": 71966
          },
          "fareDetailsPerAdult": {
            "totalAmount": 335013,
            "amountWithoutTax": 310960,
            "tax": 24053
          },
          "fareDetailsPerChild": {
            "totalAmount": 252610,
            "amountWithoutTax": 233220,
            "tax": 19390
          },
          "fareDetailsPerInfant": {
            "totalAmount": 35570,
            "amountWithoutTax": 31100,
            "tax": 4470
          }
        }
      },
      {
        "recommendationID": 8,
        "segmentBounds": [
          {
            "segments": [
              {
                "segmentID": 1,
                "numOfLastSeats": 9,
                "displayLastSeat": false,
                "sellingClass": "B",
                "cabinClass": ""
              }
            ],
            "fareFamily": null,
            "fareSummary": null
          },
          {
            "segments": [
              {
                "segmentID": 3,
                "numOfLastSeats": 4,
                "displayLastSeat": true,
                "sellingClass": "Y",
                "cabinClass": ""
              }
            ],
            "fareFamily": null,
            "fareSummary": null
          }
        ],
        "fareFamily": "FF21BOM",
        "fareSummary": {
          "fareTotal": {
            "totalAmount": 960642,
            "amountWithoutTax": 886240,
            "tax": 74402
          },
          "fareDetailsPerAdult": {
            "totalAmount": 335930,
            "amountWithoutTax": 310960,
            "tax": 24970
          },
          "fareDetailsPerChild": {
            "totalAmount": 253212,
            "amountWithoutTax": 233220,
            "tax": 19992
          },
          "fareDetailsPerInfant": {
            "totalAmount": 35570,
            "amountWithoutTax": 31100,
            "tax": 4470
          }
        }
      },
      {
        "recommendationID": 0,
        "segmentBounds": [
          {
            "segments": [
              {
                "segmentID": 0,
                "numOfLastSeats": 9,
                "displayLastSeat": false,
                "sellingClass": "Y",
                "cabinClass": ""
              },
              {
                "segmentID": 1,
                "numOfLastSeats": 9,
                "displayLastSeat": false,
                "sellingClass": "Y",
                "cabinClass": ""
              }
            ],
            "fareFamily": null,
            "fareSummary": null
          },
          {
            "segments": [
              {
                "segmentID": 0,
                "numOfLastSeats": 9,
                "displayLastSeat": false,
                "sellingClass": "T",
                "cabinClass": ""
              }
            ],
            "fareFamily": null,
            "fareSummary": null
          }
        ],
        "fareFamily": "FF11BOM",
        "fareSummary": {
          "fareTotal": {
            "totalAmount": 192600,
            "amountWithoutTax": 161595,
            "tax": 31005
          },
          "fareDetailsPerAdult": {
            "totalAmount": 66544,
            "amountWithoutTax": 56700,
            "tax": 9844
          },
          "fareDetailsPerChild": {
            "totalAmount": 51093,
            "amountWithoutTax": 42525,
            "tax": 8568
          },
          "fareDetailsPerInfant": {
            "totalAmount": 8419,
            "amountWithoutTax": 5670,
            "tax": 2749
          }
        }
      }
    ],
    "flights": [
      {
        "originAirportCode": "MAA",
        "destinationAirportCode": "SIN",
        "departureDate": "2017-05-07",
        "segments": [
          {
            "segmentID": 1,
            "originAirportCode": "MAA",
            "destinationAirportCode": "SIN",
            "departureDateTime": "2017-05-07 23:15:00",
            "arrivalDateTime": "2017-05-08 06:10:00",
            "legs": [
              {
                "legID": 1,
                "flightNumber": "529",
                "originAirportCode": "MAA",
                "destinationAirportCode": "SIN",
                "departureTerminal": "4",
                "arrivalTerminal": "0",
                "departureDateTime": "2017-05-07 23:15:00",
                "arrivalDateTime": "2017-05-08 06:10:00",
                "operatingAirline": {
                  "code": "SQ",
                  "name": "Singapore Airlines"
                },
                "marketingAirline": {
                  "code": "SQ",
                  "name": "Singapore Airlines"
                },
                "aircraft": {
                  "code": "333",
                  "name": "Airbus Industrie A330-300"
                },
                "stops": [],
                "flightDuration": 15900,
                "layoverDuration": 0,
                "codeShareFlight": false
              }
            ],
            "tripDuration": 15900
          },
          {
            "segmentID": 0,
            "originAirportCode": "MAA",
            "destinationAirportCode": "SIN",
            "departureDateTime": "2017-05-07 10:30:00",
            "arrivalDateTime": "2017-05-07 17:20:00",
            "legs": [
              {
                "legID": 0,
                "flightNumber": "5335",
                "originAirportCode": "MAA",
                "destinationAirportCode": "SIN",
                "departureTerminal": "4",
                "arrivalTerminal": "2",
                "departureDateTime": "2017-05-07 10:30:00",
                "arrivalDateTime": "2017-05-07 17:20:00",
                "operatingAirline": {
                  "code": "MI",
                  "name": "SilkAir"
                },
                "marketingAirline": {
                  "code": "SQ",
                  "name": "Singapore Airlines"
                },
                "aircraft": {
                  "code": "320",
                  "name": "Airbus Industrie A320"
                },
                "stops": [],
                "flightDuration": 15600,
                "layoverDuration": 0,
                "codeShareFlight": true
              }
            ],
            "tripDuration": 15600
          }
        ]
      },
      {
        "originAirportCode": "SIN",
        "destinationAirportCode": "SFO",
        "departureDate": "2017-05-15",
        "segments": [
          {
            "segmentID": 0,
            "originAirportCode": "SIN",
            "destinationAirportCode": "SFO",
            "departureDateTime": "2017-05-15 09:25:00",
            "arrivalDateTime": "2017-05-15 09:40:00",
            "legs": [
              {
                "legID": 2,
                "flightNumber": "32",
                "originAirportCode": "SIN",
                "destinationAirportCode": "SFO",
                "departureTerminal": "3",
                "arrivalTerminal": "I",
                "departureDateTime": "2017-05-15 09:25:00",
                "arrivalDateTime": "2017-05-15 09:40:00",
                "operatingAirline": {
                  "code": "SQ",
                  "name": "Singapore Airlines"
                },
                "marketingAirline": {
                  "code": "SQ",
                  "name": "Singapore Airlines"
                },
                "aircraft": {
                  "code": "359",
                  "name": "Airbus Industrie A350-900"
                },
                "stops": [],
                "flightDuration": 54900,
                "layoverDuration": 0,
                "codeShareFlight": false
              }
            ],
            "tripDuration": 54900
          },
          {
            "segmentID": 1,
            "originAirportCode": "SIN",
            "destinationAirportCode": "SFO",
            "departureDateTime": "2017-05-15 18:30:00",
            "arrivalDateTime": "2017-05-15 21:15:00",
            "legs": [
              {
                "legID": 3,
                "flightNumber": "2",
                "originAirportCode": "SIN",
                "destinationAirportCode": "SFO",
                "departureTerminal": "3",
                "arrivalTerminal": "I",
                "departureDateTime": "2017-05-15 18:30:00",
                "arrivalDateTime": "2017-05-15 21:15:00",
                "operatingAirline": {
                  "code": "SQ",
                  "name": "Singapore Airlines"
                },
                "marketingAirline": {
                  "code": "SQ",
                  "name": "Singapore Airlines"
                },
                "aircraft": {
                  "code": "77W",
                  "name": "Boeing 777-300ER"
                },
                "stops": [
                  {
                    "arrivalDateTime": "2017-05-15 22:15:00",
                    "departureDateTime": "2017-05-15 23:30:00",
                    "airportCode": "HKG"
                  }
                ],
                "flightDuration": 63900,
                "layoverDuration": 0,
                "codeShareFlight": false
              }
            ],
            "tripDuration": 63900
          },
          {
            "segmentID": 2,
            "originAirportCode": "SIN",
            "destinationAirportCode": "SFO",
            "departureDateTime": "2017-05-15 02:25:00",
            "arrivalDateTime": "2017-05-15 10:20:00",
            "legs": [
              {
                "legID": 4,
                "flightNumber": "8",
                "originAirportCode": "SIN",
                "destinationAirportCode": "LAX",
                "departureTerminal": "3",
                "arrivalTerminal": "B",
                "departureDateTime": "2017-05-15 02:25:00",
                "arrivalDateTime": "2017-05-15 06:40:00",
                "operatingAirline": {
                  "code": "SQ",
                  "name": "Singapore Airlines"
                },
                "marketingAirline": {
                  "code": "SQ",
                  "name": "Singapore Airlines"
                },
                "aircraft": {
                  "code": "77W",
                  "name": "Boeing 777-300ER"
                },
                "stops": [
                  {
                    "arrivalDateTime": "2017-05-15 09:50:00",
                    "departureDateTime": "2017-05-15 11:20:00",
                    "airportCode": "ICN"
                  }
                ],
                "flightDuration": 69300,
                "layoverDuration": 8700,
                "codeShareFlight": false
              },
              {
                "legID": 5,
                "flightNumber": "1340",
                "originAirportCode": "LAX",
                "destinationAirportCode": "SFO",
                "departureTerminal": "3",
                "arrivalTerminal": "2",
                "departureDateTime": "2017-05-15 09:05:00",
                "arrivalDateTime": "2017-05-15 10:20:00",
                "operatingAirline": {
                  "code": "VX",
                  "name": "Virgin America"
                },
                "marketingAirline": {
                  "code": "SQ",
                  "name": "Singapore Airlines"
                },
                "aircraft": {
                  "code": "320",
                  "name": "Airbus Industrie A320"
                },
                "stops": [],
                "flightDuration": 4500,
                "layoverDuration": 0,
                "codeShareFlight": true
              }
            ],
            "tripDuration": 82500
          },
          {
            "segmentID": 3,
            "originAirportCode": "SIN",
            "destinationAirportCode": "SFO",
            "departureDateTime": "2017-05-15 09:25:00",
            "arrivalDateTime": "2017-05-15 17:45:00",
            "legs": [
              {
                "legID": 6,
                "flightNumber": "12",
                "originAirportCode": "SIN",
                "destinationAirportCode": "LAX",
                "departureTerminal": "3",
                "arrivalTerminal": "B",
                "departureDateTime": "2017-05-15 09:25:00",
                "arrivalDateTime": "2017-05-15 13:25:00",
                "operatingAirline": {
                  "code": "SQ",
                  "name": "Singapore Airlines"
                },
                "marketingAirline": {
                  "code": "SQ",
                  "name": "Singapore Airlines"
                },
                "aircraft": {
                  "code": "77W",
                  "name": "Boeing 777-300ER"
                },
                "stops": [
                  {
                    "arrivalDateTime": "2017-05-15 17:30:00",
                    "departureDateTime": "2017-05-15 19:15:00",
                    "airportCode": "NRT"
                  }
                ],
                "flightDuration": 68400,
                "layoverDuration": 11100,
                "codeShareFlight": false
              },
              {
                "legID": 7,
                "flightNumber": "1414",
                "originAirportCode": "LAX",
                "destinationAirportCode": "SFO",
                "departureTerminal": "3",
                "arrivalTerminal": "2",
                "departureDateTime": "2017-05-15 16:30:00",
                "arrivalDateTime": "2017-05-15 17:45:00",
                "operatingAirline": {
                  "code": "VX",
                  "name": "Virgin America"
                },
                "marketingAirline": {
                  "code": "SQ",
                  "name": "Singapore Airlines"
                },
                "aircraft": {
                  "code": "320",
                  "name": "Airbus Industrie A320"
                },
                "stops": [],
                "flightDuration": 4500,
                "layoverDuration": 0,
                "codeShareFlight": true
              }
            ],
            "tripDuration": 84000
          }
        ]
      }
    ],
    "fareFamilies": [
      {
        "fareFamily": "FF11BOM",
        "fareFamilyCode": "FF4",
        "fareFamilyName": "TEST",
        "itinChangeAllowed": false,
        "itinCancelRefundAllowed": false,
        "itinEarnMilesAllowed": false,
        "itinAwardUpgradeAllowed": false,
        "itinChangeCondition": null,
        "itinCancelRefundCondition": null,
        "itinEarnMilesCondition": null,
        "itinAwardUpgradeCondition": null
      },
      {
        "fareFamily": "FF41BOM",
        "fareFamilyCode": "FF3",
        "fareFamilyName": "TEST",
        "itinChangeAllowed": false,
        "itinCancelRefundAllowed": false,
        "itinEarnMilesAllowed": false,
        "itinAwardUpgradeAllowed": false,
        "itinChangeCondition": null,
        "itinCancelRefundCondition": null,
        "itinEarnMilesCondition": null,
        "itinAwardUpgradeCondition": null
      },
      {
        "fareFamily": "FF31BOM",
        "fareFamilyCode": "FF2",
        "fareFamilyName": "TEST",
        "itinChangeAllowed": false,
        "itinCancelRefundAllowed": false,
        "itinEarnMilesAllowed": false,
        "itinAwardUpgradeAllowed": false,
        "itinChangeCondition": null,
        "itinCancelRefundCondition": null,
        "itinEarnMilesCondition": null,
        "itinAwardUpgradeCondition": null
      },
      {
        "fareFamily": "FF21BOM",
        "fareFamilyCode": "FF1",
        "fareFamilyName": "TEST",
        "itinChangeAllowed": false,
        "itinCancelRefundAllowed": false,
        "itinEarnMilesAllowed": false,
        "itinAwardUpgradeAllowed": false,
        "itinChangeCondition": null,
        "itinCancelRefundCondition": null,
        "itinEarnMilesCondition": null,
        "itinAwardUpgradeCondition": null
      }
    ],
    "airports": [
      {
        "airportCode": "NRT",
        "airportName": "Narita International",
        "cityCode": "TYO",
        "cityName": "Tokyo",
        "countryCode": "JP",
        "countryName": "Japan"
      },
      {
        "airportCode": "LAX",
        "airportName": "Los Angeles International",
        "stateCode": "CA",
        "stateName": "CA",
        "cityCode": "LAX",
        "cityName": "Los Angeles",
        "countryCode": "US",
        "countryName": "United States Of America"
      },
      {
        "airportCode": "ICN",
        "airportName": "Incheon International",
        "cityCode": "SEL",
        "cityName": "Seoul",
        "countryCode": "KR",
        "countryName": "Korea (Republic of)"
      },
      {
        "airportCode": "HKG",
        "airportName": "Hong Kong International",
        "cityCode": "HKG",
        "cityName": "Hong Kong",
        "countryCode": "HK",
        "countryName": "Hong Kong (SAR of China)"
      },
      {
        "airportCode": "SIN",
        "airportName": "Changi",
        "cityCode": "SIN",
        "cityName": "Singapore",
        "countryCode": "SG",
        "countryName": "Singapore"
      },
      {
        "airportCode": "MAA",
        "airportName": "Chennai International",
        "cityCode": "MAA",
        "cityName": "Chennai",
        "countryCode": "IN",
        "countryName": "India"
      },
      {
        "airportCode": "SFO",
        "airportName": "San Francisco International",
        "stateCode": "CA",
        "stateName": "CA",
        "cityCode": "SFO",
        "cityName": "San Francisco",
        "countryCode": "US",
        "countryName": "United States Of America"
      }
    ]
  }
}
