{
	"status" : "SUCCESS",
	"code" : "200",
	"message" : "",
	"response" : {
		"origin" : {
			"airportCode" : "SIN",
			"airportName" : "Changi",
			"cityCode" : "SIN",
			"cityName" : "Singapore",
			"countryCode" : "SG",
			"countryName" : "Singapore"
		},
		"destination" : {

			"airportCode" : "HKG",
			"airportName" : "Hong Kong International",
			"cityCode" : "HKG",
			"cityName" : "Hong Kong",
			"countryCode" : "HK",
			"countryName" : "Hong Kong (SAR of China)"
		},
		"currency" : {
			"code" : "SGD",
			"name" : "Singapore Dollar",
			"precision" : 2
		},
		"byDay" : [{
				"month" : "2018-2-28",
				"price" : "1448.1"
			}, {
				"month" : "2018-03-01",
				"price" : "1448.1"
			}, {
				"month" : "2018-03-02",
				"price" : "1448.1"
			}, {
				"month" : "2018-03-03",
				"price" : "1448.1"
			}, {
				"month" : "2018-03-04",
				"price" : "1448.1"
			}, {
				"month" : "2018-03-05",
				"price" : "1448.1"
			}, {
				"month" : "2018-03-06",
				"price" : "1448.1"
			}
		]
	}
}