{
  "filter": [
    {
      "text": "All",
      "value": "All"
    },
    {
      "text": "Promo",
      "value": "promo"
    },
    {
      "text": "Expired",
      "value": "expired"
    }
  ],
  "favouriteItems": [
    {
      "type": "promo",
      "expire": true,
      "promoFareId": 1,
      "shareurl": "/booking-flow.form?promotionType=commercial&id=20665",
      "originCityName": "Chennai",
      "destinationCityName": "Singapore",
      "city": "Bangkok",
      "miles": "12500",
      "currency": "INR",
      "price": "2680",
      "favourite": true,
      "flighttype": "Economy",
      "tripType": "Round Trip",
      "imgUrl": "images/promotions-fares-1.jpg",
      "title": null,
      "durationstart": "11 Aug 2014",
      "durationend": "31 Aug 2014",
      "cabin": "Economy",
      "BookBy": "23 Sep 2013"
    },
    {
      "type": "",
      "promoFareId": 2,
      "shareurl": "/booking-flow.form?promotionType=commercial&id=20665/booking-flow.form?promotionType=commercial&id=6636/booking-flow.form?promotionType=commercial&id=7581/booking-flow.form?promotionType=commercial&id=7123/booking-flow.form?promotionType=commercial&id=8517/booking-flow.form?promotionType=commercial&id=8258/booking-flow.form?promotionType=commercial&id=8273/booking-flow.form?promotionType=commercial&id=6630",
      "originCityName": "Chennai",
      "destinationCityName": "Dubai",
      "city": "Jakata",
      "miles": "12600",
      "currency": "INR",
      "price": "1688",
      "favourite": true,
      "flighttype": "Economy",
      "tripType": "One Way",
      "imgUrl": "images/promotions-fares-2.jpg",
      "title": null,
      "durationstart": "11 Aug 2014",
      "durationend": "31 Aug 2014",
      "cabin": "Economy",
      "BookBy": "23 Sep 2013"
    },
    {
      "type": "promo",
      "promoFareId": 3,
      "shareurl": "/booking-flow.form?promotionType=commercial&id=20665/booking-flow.form?promotionType=commercial&id=6636/booking-flow.form?promotionType=commercial&id=7581/booking-flow.form?promotionType=commercial&id=7123/booking-flow.form?promotionType=commercial&id=8517/booking-flow.form?promotionType=commercial&id=8258/booking-flow.form?promotionType=commercial&id=8273/booking-flow.form?promotionType=commercial&id=6630",
      "originCityName": "Chennai",
      "destinationCityName": "Hong Kong",
      "city": "Jangon",
      "miles": "12800",
      "currency": "INR",
      "price": "2000",
      "favourite": true,
      "flighttype": "First",
      "tripType": "One Way",
      "imgUrl": "images/promotions-fares-3.jpg",
      "title": null,
      "durationstart": "11 Aug 2014",
      "durationend": "31 Aug 2014",
      "cabin": "Economy",
      "BookBy": "23 Sep 2013"
    },
    {
      "type": "promo",
      "promoFareId": 4,
      "shareurl": "/booking-flow.form?promotionType=commercial&id=20665/booking-flow.form?promotionType=commercial&id=6636/booking-flow.form?promotionType=commercial&id=7581/booking-flow.form?promotionType=commercial&id=7123/booking-flow.form?promotionType=commercial&id=8517/booking-flow.form?promotionType=commercial&id=8258/booking-flow.form?promotionType=commercial&id=8273/booking-flow.form?promotionType=commercial&id=6630",
      "originCityName": "Chennai",
      "destinationCityName": "Taipei",
      "city": "Denpasar Bali",
      "miles": "15600",
      "currency": "INR",
      "price": "1888",
      "favourite": true,
      "flighttype": "Economy",
      "tripType": "One Way",
      "imgUrl": "images/promotions-fares-4.jpg",
      "title": null,
      "durationstart": "11 Aug 2014",
      "durationend": "31 Aug 2014",
      "cabin": "Economy",
      "BookBy": "23 Sep 2013"
    },
    {
      "type": "",
      "expire": true,
      "promoFareId": 5,
      "shareurl": "/booking-flow.form?promotionType=commercial&id=20665/booking-flow.form?promotionType=commercial&id=6636/booking-flow.form?promotionType=commercial&id=7581/booking-flow.form?promotionType=commercial&id=7123/booking-flow.form?promotionType=commercial&id=8517/booking-flow.form?promotionType=commercial&id=8258/booking-flow.form?promotionType=commercial&id=8273/booking-flow.form?promotionType=commercial&id=6630",
      "originCityName": "Chennai",
      "destinationCityName": "Perth",
      "city": "Ho Chi Minh City",
      "miles": "22600",
      "currency": "INR",
      "price": "1880",
      "favourite": true,
      "flighttype": "Economy",
      "tripType": "One Way",
      "imgUrl": "images/promotions-fares-5.jpg",
      "title": null,
      "durationstart": "11 Jun 2014",
      "durationend": "31 Jun 2014",
      "cabin": "Economy",
      "BookBy": "23 Sep 2013"
    },
    {
      "type": "",
      "promoFareId": 6,
      "shareurl": "/booking-flow.form?promotionType=commercial&id=20665/booking-flow.form?promotionType=commercial&id=6636/booking-flow.form?promotionType=commercial&id=7581/booking-flow.form?promotionType=commercial&id=7123/booking-flow.form?promotionType=commercial&id=8517/booking-flow.form?promotionType=commercial&id=8258/booking-flow.form?promotionType=commercial&id=8273/booking-flow.form?promotionType=commercial&id=6630",
      "originCityName": "Chennai",
      "destinationCityName": "Tokyo",
      "city": "Manila",
      "miles": "42600",
      "currency": "INR",
      "price": "1780",
      "favourite": true,
      "flighttype": "Economy",
      "tripType": "One Way",
      "imgUrl": "images/promotions-fares-6.jpg",
      "title": null,
      "durationstart": "11 Aug 2014",
      "durationend": "31 Aug 2014",
      "cabin": "Economy",
      "BookBy": "23 Sep 2013"
    },
    {
      "type": "promo",
      "promoFareId": 7,
      "shareurl": "/booking-flow.form?promotionType=commercial&id=20665/booking-flow.form?promotionType=commercial&id=6636/booking-flow.form?promotionType=commercial&id=7581/booking-flow.form?promotionType=commercial&id=7123/booking-flow.form?promotionType=commercial&id=8517/booking-flow.form?promotionType=commercial&id=8258/booking-flow.form?promotionType=commercial&id=8273/booking-flow.form?promotionType=commercial&id=6630",
      "originCityName": "Chennai",
      "destinationCityName": "Seoul",
      "city": "Hanoi",
      "miles": "10600",
      "currency": "INR",
      "price": "1988",
      "favourite": true,
      "flighttype": "Business",
      "tripType": "One Way",
      "imgUrl": "images/promotions-fares-7.jpg",
      "title": null,
      "durationstart": "11 Aug 2014",
      "durationend": "31 Aug 2014",
      "cabin": "Economy",
      "BookBy": "23 Sep 2013"
    },
    {
      "type": "",
      "promoFareId": 8,
      "shareurl": "/booking-flow.form?promotionType=commercial&id=20665/booking-flow.form?promotionType=commercial&id=6636/booking-flow.form?promotionType=commercial&id=7581/booking-flow.form?promotionType=commercial&id=7123/booking-flow.form?promotionType=commercial&id=8517/booking-flow.form?promotionType=commercial&id=8258/booking-flow.form?promotionType=commercial&id=8273/booking-flow.form?promotionType=commercial&id=6630",
      "originCityName": "Chennai",
      "destinationCityName": "London",
      "city": "Hong Kong",
      "miles": "22600",
      "currency": "INR",
      "price": "2448",
      "favourite": true,
      "flighttype": "Business",
      "tripType": "One Way",
      "imgUrl": "images/promotions-fares-8.jpg",
      "title": null,
      "durationstart": "11 Aug 2014",
      "durationend": "31 Aug 2014",
      "cabin": "Economy",
      "BookBy": "23 Sep 2013"
    },
    {
      "type": "promo",
      "promoFareId": 9,
      "shareurl": "/booking-flow.form?promotionType=commercial&id=20665/booking-flow.form?promotionType=commercial&id=6636/booking-flow.form?promotionType=commercial&id=7581/booking-flow.form?promotionType=commercial&id=7123/booking-flow.form?promotionType=commercial&id=8517/booking-flow.form?promotionType=commercial&id=8258/booking-flow.form?promotionType=commercial&id=8273/booking-flow.form?promotionType=commercial&id=6630",
      "originCityName": "Chennai",
      "destinationCityName": "Paris",
      "city": "Taipei",
      "miles": "10600",
      "currency": "INR",
      "price": "2444",
      "favourite": true,
      "flighttype": "Economy",
      "tripType": "One Way",
      "imgUrl": "images/promotions-fares-9.jpg",
      "title": null,
      "durationstart": "11 Aug 2014",
      "durationend": "31 Aug 2014",
      "cabin": "Economy",
      "BookBy": "23 Sep 2013"
    },
    {
      "type": "",
      "promoFareId": 10,
      "shareurl": "/booking-flow.form?promotionType=commercial&id=20665/booking-flow.form?promotionType=commercial&id=6636/booking-flow.form?promotionType=commercial&id=7581/booking-flow.form?promotionType=commercial&id=7123/booking-flow.form?promotionType=commercial&id=8517/booking-flow.form?promotionType=commercial&id=8258/booking-flow.form?promotionType=commercial&id=8273/booking-flow.form?promotionType=commercial&id=6630",
      "originCityName": "Chennai",
      "destinationCityName": "Ho Chi Minh City",
      "city": "Los Angeles",
      "miles": "19600",
      "currency": "INR",
      "price": "1888",
      "favourite": true,
      "flighttype": "Economy",
      "tripType": "One Way",
      "imgUrl": "images/promotions-fares-10.jpg",
      "title": null,
      "durationstart": "11 Aug 2014",
      "durationend": "31 Aug 2014",
      "cabin": "Economy",
      "BookBy": "23 Sep 2013"
    },
    {
      "type": "promo",
      "promoFareId": 11,
      "shareurl": "/booking-flow.form?promotionType=commercial&id=20665",
      "originCityName": "Chennai",
      "destinationCityName": "Singapore",
      "city": "Bangkok",
      "miles": "12600",
      "currency": "INR",
      "price": "1680",
      "favourite": true,
      "flighttype": "Economy",
      "tripType": "Round Trip",
      "imgUrl": "images/promotions-fares-1.jpg",
      "title": null,
      "durationstart": "11 Aug 2014",
      "durationend": "31 Aug 2014",
      "cabin": "First",
      "BookBy": "23 Sep 2013"
    },
    {
      "type": "",
      "promoFareId": 12,
      "shareurl": "/booking-flow.form?promotionType=commercial&id=20665/booking-flow.form?promotionType=commercial&id=6636/booking-flow.form?promotionType=commercial&id=7581/booking-flow.form?promotionType=commercial&id=7123/booking-flow.form?promotionType=commercial&id=8517/booking-flow.form?promotionType=commercial&id=8258/booking-flow.form?promotionType=commercial&id=8273/booking-flow.form?promotionType=commercial&id=6630",
      "originCityName": "Chennai",
      "destinationCityName": "Dubai",
      "city": "Jakata",
      "miles": "15600",
      "currency": "INR",
      "price": "2688",
      "favourite": true,
      "flighttype": "Economy",
      "tripType": "One Way",
      "imgUrl": "images/promotions-fares-2.jpg",
      "title": null,
      "durationstart": "11 Aug 2014",
      "durationend": "31 Aug 2014",
      "cabin": "First",
      "BookBy": "23 Sep 2013"
    },
    {
      "type": "promo",
      "promoFareId": 13,
      "shareurl": "/booking-flow.form?promotionType=commercial&id=20665/booking-flow.form?promotionType=commercial&id=6636/booking-flow.form?promotionType=commercial&id=7581/booking-flow.form?promotionType=commercial&id=7123/booking-flow.form?promotionType=commercial&id=8517/booking-flow.form?promotionType=commercial&id=8258/booking-flow.form?promotionType=commercial&id=8273/booking-flow.form?promotionType=commercial&id=6630",
      "originCityName": "Chennai",
      "destinationCityName": "Hong Kong",
      "city": "Jangon",
      "miles": "19600",
      "currency": "INR",
      "price": "2100",
      "favourite": true,
      "flighttype": "Economy",
      "tripType": "One Way",
      "imgUrl": "images/promotions-fares-3.jpg",
      "title": null,
      "durationstart": "11 Aug 2014",
      "durationend": "31 Aug 2014",
      "cabin": "First",
      "BookBy": "23 Sep 2013"
    },
    {
      "type": "",
      "promoFareId": 14,
      "shareurl": "/booking-flow.form?promotionType=commercial&id=20665/booking-flow.form?promotionType=commercial&id=6636/booking-flow.form?promotionType=commercial&id=7581/booking-flow.form?promotionType=commercial&id=7123/booking-flow.form?promotionType=commercial&id=8517/booking-flow.form?promotionType=commercial&id=8258/booking-flow.form?promotionType=commercial&id=8273/booking-flow.form?promotionType=commercial&id=6630",
      "originCityName": "Chennai",
      "destinationCityName": "Taipei",
      "city": "Denpasar Bali",
      "miles": "12600",
      "currency": "INR",
      "price": "2888",
      "favourite": true,
      "flighttype": "Economy",
      "tripType": "One Way",
      "imgUrl": "images/promotions-fares-4.jpg",
      "title": null,
      "durationstart": "11 Aug 2014",
      "durationend": "31 Aug 2014",
      "cabin": "First",
      "BookBy": "23 Sep 2013"
    },
    {
      "type": "",
      "promoFareId": 15,
      "shareurl": "/booking-flow.form?promotionType=commercial&id=20665/booking-flow.form?promotionType=commercial&id=6636/booking-flow.form?promotionType=commercial&id=7581/booking-flow.form?promotionType=commercial&id=7123/booking-flow.form?promotionType=commercial&id=8517/booking-flow.form?promotionType=commercial&id=8258/booking-flow.form?promotionType=commercial&id=8273/booking-flow.form?promotionType=commercial&id=6630",
      "originCityName": "Chennai",
      "destinationCityName": "Perth",
      "city": "Ho Chi Minh City",
      "miles": "22600",
      "currency": "INR",
      "price": "1680",
      "favourite": true,
      "flighttype": "First",
      "tripType": "One Way",
      "imgUrl": "images/promotions-fares-5.jpg",
      "title": null,
      "durationstart": "11 Jun 2014",
      "durationend": "31 Jun 2014",
      "cabin": "First",
      "BookBy": "23 Sep 2013"
    },
    {
      "type": "",
      "promoFareId": 16,
      "shareurl": "/booking-flow.form?promotionType=commercial&id=20665/booking-flow.form?promotionType=commercial&id=6636/booking-flow.form?promotionType=commercial&id=7581/booking-flow.form?promotionType=commercial&id=7123/booking-flow.form?promotionType=commercial&id=8517/booking-flow.form?promotionType=commercial&id=8258/booking-flow.form?promotionType=commercial&id=8273/booking-flow.form?promotionType=commercial&id=6630",
      "originCityName": "Chennai",
      "destinationCityName": "Tokyo",
      "city": "Manila",
      "miles": "20600",
      "currency": "INR",
      "price": "1780",
      "favourite": true,
      "flighttype": "First",
      "tripType": "One Way",
      "imgUrl": "images/promotions-fares-6.jpg",
      "title": null,
      "durationstart": "11 Aug 2014",
      "durationend": "31 Aug 2014",
      "cabin": "First",
      "BookBy": "23 Sep 2013"
    },
    {
      "type": "promo",
      "promoFareId": 17,
      "shareurl": "/booking-flow.form?promotionType=commercial&id=20665/booking-flow.form?promotionType=commercial&id=6636/booking-flow.form?promotionType=commercial&id=7581/booking-flow.form?promotionType=commercial&id=7123/booking-flow.form?promotionType=commercial&id=8517/booking-flow.form?promotionType=commercial&id=8258/booking-flow.form?promotionType=commercial&id=8273/booking-flow.form?promotionType=commercial&id=6630",
      "originCityName": "Chennai",
      "destinationCityName": "Seoul",
      "city": "Hanoi",
      "miles": "14600",
      "currency": "INR",
      "price": "1988",
      "favourite": true,
      "flighttype": "Business",
      "tripType": "One Way",
      "imgUrl": "images/promotions-fares-7.jpg",
      "title": null,
      "durationstart": "11 Aug 2014",
      "durationend": "31 Aug 2014",
      "cabin": "First",
      "BookBy": "23 Sep 2013"
    },
    {
      "type": "",
      "promoFareId": 18,
      "shareurl": "/booking-flow.form?promotionType=commercial&id=20665/booking-flow.form?promotionType=commercial&id=6636/booking-flow.form?promotionType=commercial&id=7581/booking-flow.form?promotionType=commercial&id=7123/booking-flow.form?promotionType=commercial&id=8517/booking-flow.form?promotionType=commercial&id=8258/booking-flow.form?promotionType=commercial&id=8273/booking-flow.form?promotionType=commercial&id=6630",
      "originCityName": "Chennai",
      "destinationCityName": "London",
      "city": "Hong Kong",
      "miles": "16600",
      "currency": "INR",
      "price": "2148",
      "favourite": true,
      "flighttype": "Economy",
      "tripType": "One Way",
      "imgUrl": "images/promotions-fares-8.jpg",
      "title": null,
      "durationstart": "11 Aug 2014",
      "durationend": "31 Aug 2014",
      "cabin": "First",
      "BookBy": "23 Sep 2013"
    },
    {
      "type": "",
      "promoFareId": 19,
      "shareurl": "/booking-flow.form?promotionType=commercial&id=20665/booking-flow.form?promotionType=commercial&id=6636/booking-flow.form?promotionType=commercial&id=7581/booking-flow.form?promotionType=commercial&id=7123/booking-flow.form?promotionType=commercial&id=8517/booking-flow.form?promotionType=commercial&id=8258/booking-flow.form?promotionType=commercial&id=8273/booking-flow.form?promotionType=commercial&id=6630",
      "originCityName": "Chennai",
      "destinationCityName": "Paris",
      "city": "Taipei",
      "miles": "18500",
      "currency": "INR",
      "price": "2044",
      "favourite": true,
      "flighttype": "Economy",
      "tripType": "One Way",
      "imgUrl": "images/promotions-fares-9.jpg",
      "title": null,
      "durationstart": "11 Aug 2014",
      "durationend": "31 Aug 2014",
      "cabin": "First",
      "BookBy": "23 Sep 2013"
    },
    {
      "type": "promo",
      "promoFareId": 20,
      "shareurl": "/booking-flow.form?promotionType=commercial&id=20665/booking-flow.form?promotionType=commercial&id=6636/booking-flow.form?promotionType=commercial&id=7581/booking-flow.form?promotionType=commercial&id=7123/booking-flow.form?promotionType=commercial&id=8517/booking-flow.form?promotionType=commercial&id=8258/booking-flow.form?promotionType=commercial&id=8273/booking-flow.form?promotionType=commercial&id=6630",
      "originCityName": "Chennai",
      "destinationCityName": "Los Angeles",
      "city": "Los Angeles",
      "miles": "12100",
      "currency": "INR",
      "price": "1888",
      "favourite": true,
      "flighttype": "Economy",
      "tripType": "One Way",
      "imgUrl": "images/promotions-fares-10.jpg",
      "title": null,
      "durationstart": "11 Aug 2014",
      "durationend": "31 Aug 2014",
      "cabin": "First",
      "BookBy": "23 Sep 2013"
    },
    {
      "type": "promo",
      "expire": true,
      "promoFareId": 1,
      "shareurl": "/booking-flow.form?promotionType=commercial&id=20665",
      "originCityName": "Chennai",
      "destinationCityName": "Singapore",
      "city": "Bangkok",
      "miles": "12500",
      "currency": "INR",
      "price": "2680",
      "favourite": true,
      "flighttype": "Economy",
      "tripType": "Round Trip",
      "imgUrl": "images/promotions-fares-1.jpg",
      "title": null,
      "durationstart": "11 Aug 2014",
      "durationend": "31 Aug 2014",
      "cabin": "Economy",
      "BookBy": "23 Sep 2013"
    },
    {
      "type": "",
      "promoFareId": 2,
      "shareurl": "/booking-flow.form?promotionType=commercial&id=20665/booking-flow.form?promotionType=commercial&id=6636/booking-flow.form?promotionType=commercial&id=7581/booking-flow.form?promotionType=commercial&id=7123/booking-flow.form?promotionType=commercial&id=8517/booking-flow.form?promotionType=commercial&id=8258/booking-flow.form?promotionType=commercial&id=8273/booking-flow.form?promotionType=commercial&id=6630",
      "originCityName": "Chennai",
      "destinationCityName": "Dubai",
      "city": "Jakata",
      "miles": "12600",
      "currency": "INR",
      "price": "1688",
      "favourite": true,
      "flighttype": "Economy",
      "tripType": "One Way",
      "imgUrl": "images/promotions-fares-2.jpg",
      "title": null,
      "durationstart": "11 Aug 2014",
      "durationend": "31 Aug 2014",
      "cabin": "Economy",
      "BookBy": "23 Sep 2013"
    },
    {
      "type": "promo",
      "promoFareId": 3,
      "shareurl": "/booking-flow.form?promotionType=commercial&id=20665/booking-flow.form?promotionType=commercial&id=6636/booking-flow.form?promotionType=commercial&id=7581/booking-flow.form?promotionType=commercial&id=7123/booking-flow.form?promotionType=commercial&id=8517/booking-flow.form?promotionType=commercial&id=8258/booking-flow.form?promotionType=commercial&id=8273/booking-flow.form?promotionType=commercial&id=6630",
      "originCityName": "Chennai",
      "destinationCityName": "Hong Kong",
      "city": "Jangon",
      "miles": "12800",
      "currency": "INR",
      "price": "2000",
      "favourite": true,
      "flighttype": "First",
      "tripType": "One Way",
      "imgUrl": "images/promotions-fares-3.jpg",
      "title": null,
      "durationstart": "11 Aug 2014",
      "durationend": "31 Aug 2014",
      "cabin": "Economy",
      "BookBy": "23 Sep 2013"
    },
    {
      "type": "promo",
      "promoFareId": 4,
      "shareurl": "/booking-flow.form?promotionType=commercial&id=20665/booking-flow.form?promotionType=commercial&id=6636/booking-flow.form?promotionType=commercial&id=7581/booking-flow.form?promotionType=commercial&id=7123/booking-flow.form?promotionType=commercial&id=8517/booking-flow.form?promotionType=commercial&id=8258/booking-flow.form?promotionType=commercial&id=8273/booking-flow.form?promotionType=commercial&id=6630",
      "originCityName": "Chennai",
      "destinationCityName": "Taipei",
      "city": "Denpasar Bali",
      "miles": "15600",
      "currency": "INR",
      "price": "1888",
      "favourite": true,
      "flighttype": "Economy",
      "tripType": "One Way",
      "imgUrl": "images/promotions-fares-4.jpg",
      "title": null,
      "durationstart": "11 Aug 2014",
      "durationend": "31 Aug 2014",
      "cabin": "Economy",
      "BookBy": "23 Sep 2013"
    },
    {
      "type": "",
      "expire": true,
      "promoFareId": 5,
      "shareurl": "/booking-flow.form?promotionType=commercial&id=20665/booking-flow.form?promotionType=commercial&id=6636/booking-flow.form?promotionType=commercial&id=7581/booking-flow.form?promotionType=commercial&id=7123/booking-flow.form?promotionType=commercial&id=8517/booking-flow.form?promotionType=commercial&id=8258/booking-flow.form?promotionType=commercial&id=8273/booking-flow.form?promotionType=commercial&id=6630",
      "originCityName": "Chennai",
      "destinationCityName": "Perth",
      "city": "Ho Chi Minh City",
      "miles": "22600",
      "currency": "INR",
      "price": "1880",
      "favourite": true,
      "flighttype": "Economy",
      "tripType": "One Way",
      "imgUrl": "images/promotions-fares-5.jpg",
      "title": null,
      "durationstart": "11 Jun 2014",
      "durationend": "31 Jun 2014",
      "cabin": "Economy",
      "BookBy": "23 Sep 2013"
    },
    {
      "type": "",
      "promoFareId": 6,
      "shareurl": "/booking-flow.form?promotionType=commercial&id=20665/booking-flow.form?promotionType=commercial&id=6636/booking-flow.form?promotionType=commercial&id=7581/booking-flow.form?promotionType=commercial&id=7123/booking-flow.form?promotionType=commercial&id=8517/booking-flow.form?promotionType=commercial&id=8258/booking-flow.form?promotionType=commercial&id=8273/booking-flow.form?promotionType=commercial&id=6630",
      "originCityName": "Chennai",
      "destinationCityName": "Tokyo",
      "city": "Manila",
      "miles": "42600",
      "currency": "INR",
      "price": "1780",
      "favourite": true,
      "flighttype": "Economy",
      "tripType": "One Way",
      "imgUrl": "images/promotions-fares-6.jpg",
      "title": null,
      "durationstart": "11 Aug 2014",
      "durationend": "31 Aug 2014",
      "cabin": "Economy",
      "BookBy": "23 Sep 2013"
    },
    {
      "type": "promo",
      "promoFareId": 7,
      "shareurl": "/booking-flow.form?promotionType=commercial&id=20665/booking-flow.form?promotionType=commercial&id=6636/booking-flow.form?promotionType=commercial&id=7581/booking-flow.form?promotionType=commercial&id=7123/booking-flow.form?promotionType=commercial&id=8517/booking-flow.form?promotionType=commercial&id=8258/booking-flow.form?promotionType=commercial&id=8273/booking-flow.form?promotionType=commercial&id=6630",
      "originCityName": "Chennai",
      "destinationCityName": "Seoul",
      "city": "Hanoi",
      "miles": "10600",
      "currency": "INR",
      "price": "1988",
      "favourite": true,
      "flighttype": "Business",
      "tripType": "One Way",
      "imgUrl": "images/promotions-fares-7.jpg",
      "title": null,
      "durationstart": "11 Aug 2014",
      "durationend": "31 Aug 2014",
      "cabin": "Economy",
      "BookBy": "23 Sep 2013"
    },
    {
      "type": "",
      "promoFareId": 8,
      "shareurl": "/booking-flow.form?promotionType=commercial&id=20665/booking-flow.form?promotionType=commercial&id=6636/booking-flow.form?promotionType=commercial&id=7581/booking-flow.form?promotionType=commercial&id=7123/booking-flow.form?promotionType=commercial&id=8517/booking-flow.form?promotionType=commercial&id=8258/booking-flow.form?promotionType=commercial&id=8273/booking-flow.form?promotionType=commercial&id=6630",
      "originCityName": "Chennai",
      "destinationCityName": "London",
      "city": "Hong Kong",
      "miles": "22600",
      "currency": "INR",
      "price": "2448",
      "favourite": true,
      "flighttype": "Business",
      "tripType": "One Way",
      "imgUrl": "images/promotions-fares-8.jpg",
      "title": null,
      "durationstart": "11 Aug 2014",
      "durationend": "31 Aug 2014",
      "cabin": "Economy",
      "BookBy": "23 Sep 2013"
    },
    {
      "type": "promo",
      "promoFareId": 9,
      "shareurl": "/booking-flow.form?promotionType=commercial&id=20665/booking-flow.form?promotionType=commercial&id=6636/booking-flow.form?promotionType=commercial&id=7581/booking-flow.form?promotionType=commercial&id=7123/booking-flow.form?promotionType=commercial&id=8517/booking-flow.form?promotionType=commercial&id=8258/booking-flow.form?promotionType=commercial&id=8273/booking-flow.form?promotionType=commercial&id=6630",
      "originCityName": "Chennai",
      "destinationCityName": "Paris",
      "city": "Taipei",
      "miles": "10600",
      "currency": "INR",
      "price": "2444",
      "favourite": true,
      "flighttype": "Economy",
      "tripType": "One Way",
      "imgUrl": "images/promotions-fares-9.jpg",
      "title": null,
      "durationstart": "11 Aug 2014",
      "durationend": "31 Aug 2014",
      "cabin": "Economy",
      "BookBy": "23 Sep 2013"
    },
    {
      "type": "",
      "promoFareId": 10,
      "shareurl": "/booking-flow.form?promotionType=commercial&id=20665/booking-flow.form?promotionType=commercial&id=6636/booking-flow.form?promotionType=commercial&id=7581/booking-flow.form?promotionType=commercial&id=7123/booking-flow.form?promotionType=commercial&id=8517/booking-flow.form?promotionType=commercial&id=8258/booking-flow.form?promotionType=commercial&id=8273/booking-flow.form?promotionType=commercial&id=6630",
      "originCityName": "Chennai",
      "destinationCityName": "Ho Chi Minh City",
      "city": "Los Angeles",
      "miles": "19600",
      "currency": "INR",
      "price": "1888",
      "favourite": true,
      "flighttype": "Economy",
      "tripType": "One Way",
      "imgUrl": "images/promotions-fares-10.jpg",
      "title": null,
      "durationstart": "11 Aug 2014",
      "durationend": "31 Aug 2014",
      "cabin": "Economy",
      "BookBy": "23 Sep 2013"
    },
    {
      "type": "promo",
      "promoFareId": 11,
      "shareurl": "/booking-flow.form?promotionType=commercial&id=20665",
      "originCityName": "Chennai",
      "destinationCityName": "Singapore",
      "city": "Bangkok",
      "miles": "12600",
      "currency": "INR",
      "price": "1680",
      "favourite": true,
      "flighttype": "Economy",
      "tripType": "Round Trip",
      "imgUrl": "images/promotions-fares-1.jpg",
      "title": null,
      "durationstart": "11 Aug 2014",
      "durationend": "31 Aug 2014",
      "cabin": "First",
      "BookBy": "23 Sep 2013"
    },
    {
      "type": "",
      "promoFareId": 12,
      "shareurl": "/booking-flow.form?promotionType=commercial&id=20665/booking-flow.form?promotionType=commercial&id=6636/booking-flow.form?promotionType=commercial&id=7581/booking-flow.form?promotionType=commercial&id=7123/booking-flow.form?promotionType=commercial&id=8517/booking-flow.form?promotionType=commercial&id=8258/booking-flow.form?promotionType=commercial&id=8273/booking-flow.form?promotionType=commercial&id=6630",
      "originCityName": "Chennai",
      "destinationCityName": "Dubai",
      "city": "Jakata",
      "miles": "15600",
      "currency": "INR",
      "price": "2688",
      "favourite": true,
      "flighttype": "Economy",
      "tripType": "One Way",
      "imgUrl": "images/promotions-fares-2.jpg",
      "title": null,
      "durationstart": "11 Aug 2014",
      "durationend": "31 Aug 2014",
      "cabin": "First",
      "BookBy": "23 Sep 2013"
    },
    {
      "type": "promo",
      "promoFareId": 13,
      "shareurl": "/booking-flow.form?promotionType=commercial&id=20665/booking-flow.form?promotionType=commercial&id=6636/booking-flow.form?promotionType=commercial&id=7581/booking-flow.form?promotionType=commercial&id=7123/booking-flow.form?promotionType=commercial&id=8517/booking-flow.form?promotionType=commercial&id=8258/booking-flow.form?promotionType=commercial&id=8273/booking-flow.form?promotionType=commercial&id=6630",
      "originCityName": "Chennai",
      "destinationCityName": "Hong Kong",
      "city": "Jangon",
      "miles": "19600",
      "currency": "INR",
      "price": "2100",
      "favourite": true,
      "flighttype": "Economy",
      "tripType": "One Way",
      "imgUrl": "images/promotions-fares-3.jpg",
      "title": null,
      "durationstart": "11 Aug 2014",
      "durationend": "31 Aug 2014",
      "cabin": "First",
      "BookBy": "23 Sep 2013"
    },
    {
      "type": "",
      "promoFareId": 14,
      "shareurl": "/booking-flow.form?promotionType=commercial&id=20665/booking-flow.form?promotionType=commercial&id=6636/booking-flow.form?promotionType=commercial&id=7581/booking-flow.form?promotionType=commercial&id=7123/booking-flow.form?promotionType=commercial&id=8517/booking-flow.form?promotionType=commercial&id=8258/booking-flow.form?promotionType=commercial&id=8273/booking-flow.form?promotionType=commercial&id=6630",
      "originCityName": "Chennai",
      "destinationCityName": "Taipei",
      "city": "Denpasar Bali",
      "miles": "12600",
      "currency": "INR",
      "price": "2888",
      "favourite": true,
      "flighttype": "Economy",
      "tripType": "One Way",
      "imgUrl": "images/promotions-fares-4.jpg",
      "title": null,
      "durationstart": "11 Aug 2014",
      "durationend": "31 Aug 2014",
      "cabin": "First",
      "BookBy": "23 Sep 2013"
    },
    {
      "type": "",
      "promoFareId": 15,
      "shareurl": "/booking-flow.form?promotionType=commercial&id=20665/booking-flow.form?promotionType=commercial&id=6636/booking-flow.form?promotionType=commercial&id=7581/booking-flow.form?promotionType=commercial&id=7123/booking-flow.form?promotionType=commercial&id=8517/booking-flow.form?promotionType=commercial&id=8258/booking-flow.form?promotionType=commercial&id=8273/booking-flow.form?promotionType=commercial&id=6630",
      "originCityName": "Chennai",
      "destinationCityName": "Perth",
      "city": "Ho Chi Minh City",
      "miles": "22600",
      "currency": "INR",
      "price": "1680",
      "favourite": true,
      "flighttype": "First",
      "tripType": "One Way",
      "imgUrl": "images/promotions-fares-5.jpg",
      "title": null,
      "durationstart": "11 Jun 2014",
      "durationend": "31 Jun 2014",
      "cabin": "First",
      "BookBy": "23 Sep 2013"
    },
    {
      "type": "",
      "promoFareId": 16,
      "shareurl": "/booking-flow.form?promotionType=commercial&id=20665/booking-flow.form?promotionType=commercial&id=6636/booking-flow.form?promotionType=commercial&id=7581/booking-flow.form?promotionType=commercial&id=7123/booking-flow.form?promotionType=commercial&id=8517/booking-flow.form?promotionType=commercial&id=8258/booking-flow.form?promotionType=commercial&id=8273/booking-flow.form?promotionType=commercial&id=6630",
      "originCityName": "Chennai",
      "destinationCityName": "Tokyo",
      "city": "Manila",
      "miles": "20600",
      "currency": "INR",
      "price": "1780",
      "favourite": true,
      "flighttype": "First",
      "tripType": "One Way",
      "imgUrl": "images/promotions-fares-6.jpg",
      "title": null,
      "durationstart": "11 Aug 2014",
      "durationend": "31 Aug 2014",
      "cabin": "First",
      "BookBy": "23 Sep 2013"
    },
    {
      "type": "promo",
      "promoFareId": 17,
      "shareurl": "/booking-flow.form?promotionType=commercial&id=20665/booking-flow.form?promotionType=commercial&id=6636/booking-flow.form?promotionType=commercial&id=7581/booking-flow.form?promotionType=commercial&id=7123/booking-flow.form?promotionType=commercial&id=8517/booking-flow.form?promotionType=commercial&id=8258/booking-flow.form?promotionType=commercial&id=8273/booking-flow.form?promotionType=commercial&id=6630",
      "originCityName": "Chennai",
      "destinationCityName": "Seoul",
      "city": "Hanoi",
      "miles": "14600",
      "currency": "INR",
      "price": "1988",
      "favourite": true,
      "flighttype": "Business",
      "tripType": "One Way",
      "imgUrl": "images/promotions-fares-7.jpg",
      "title": null,
      "durationstart": "11 Aug 2014",
      "durationend": "31 Aug 2014",
      "cabin": "First",
      "BookBy": "23 Sep 2013"
    },
    {
      "type": "",
      "promoFareId": 18,
      "shareurl": "/booking-flow.form?promotionType=commercial&id=20665/booking-flow.form?promotionType=commercial&id=6636/booking-flow.form?promotionType=commercial&id=7581/booking-flow.form?promotionType=commercial&id=7123/booking-flow.form?promotionType=commercial&id=8517/booking-flow.form?promotionType=commercial&id=8258/booking-flow.form?promotionType=commercial&id=8273/booking-flow.form?promotionType=commercial&id=6630",
      "originCityName": "Chennai",
      "destinationCityName": "London",
      "city": "Hong Kong",
      "miles": "16600",
      "currency": "INR",
      "price": "2148",
      "favourite": true,
      "flighttype": "Economy",
      "tripType": "One Way",
      "imgUrl": "images/promotions-fares-8.jpg",
      "title": null,
      "durationstart": "11 Aug 2014",
      "durationend": "31 Aug 2014",
      "cabin": "First",
      "BookBy": "23 Sep 2013"
    },
    {
      "type": "",
      "promoFareId": 19,
      "shareurl": "/booking-flow.form?promotionType=commercial&id=20665/booking-flow.form?promotionType=commercial&id=6636/booking-flow.form?promotionType=commercial&id=7581/booking-flow.form?promotionType=commercial&id=7123/booking-flow.form?promotionType=commercial&id=8517/booking-flow.form?promotionType=commercial&id=8258/booking-flow.form?promotionType=commercial&id=8273/booking-flow.form?promotionType=commercial&id=6630",
      "originCityName": "Chennai",
      "destinationCityName": "Paris",
      "city": "Taipei",
      "miles": "18500",
      "currency": "INR",
      "price": "2044",
      "favourite": true,
      "flighttype": "Economy",
      "tripType": "One Way",
      "imgUrl": "images/promotions-fares-9.jpg",
      "title": null,
      "durationstart": "11 Aug 2014",
      "durationend": "31 Aug 2014",
      "cabin": "First",
      "BookBy": "23 Sep 2013"
    },
    {
      "type": "promo",
      "promoFareId": 20,
      "shareurl": "/booking-flow.form?promotionType=commercial&id=20665/booking-flow.form?promotionType=commercial&id=6636/booking-flow.form?promotionType=commercial&id=7581/booking-flow.form?promotionType=commercial&id=7123/booking-flow.form?promotionType=commercial&id=8517/booking-flow.form?promotionType=commercial&id=8258/booking-flow.form?promotionType=commercial&id=8273/booking-flow.form?promotionType=commercial&id=6630",
      "originCityName": "Chennai",
      "destinationCityName": "Los Angeles",
      "city": "Los Angeles",
      "miles": "12100",
      "currency": "INR",
      "price": "1888",
      "favourite": true,
      "flighttype": "Economy",
      "tripType": "One Way",
      "imgUrl": "images/promotions-fares-10.jpg",
      "title": null,
      "durationstart": "11 Aug 2014",
      "durationend": "31 Aug 2014",
      "cabin": "First",
      "BookBy": "23 Sep 2013"
    }
  ]
}
