{
	"digitalWalletVO":{
		"krisFlyerNumber":"8987005988",
		"digitalWalletCardVO": [
			{
			  "cardTokenNumber": "XXXXXXXXXXXX1381",
			  "cardHolderName": "Alex",
			  "cardType": "VI",
			  "expiryDate": "10-2019",
			  "expiryStatus": "active",
			  "defaultCard": "true",
			  "cardCurrency": "SGD",
			  "cardEligibleForTransaction": "true"
			},
			{
			  "cardTokenNumber": "XXXXXXXXXXXX1002",
			  "cardHolderName": "Tom",
			  "cardType": "MC",
			  "expiryDate": "05-2017",
			  "expiryStatus": "expired",
			  "defaultCard": "false",
			  "cardCurrency": "USD",
			  "cardEligibleForTransaction": "true"
			},
			{
			  "cardTokenNumber": "XXXXXXXXXXX0002",
			  "cardHolderName": "Steve",
			  "cardType": "AX",
			  "expiryDate": "12-2022",
			  "expiryStatus": "active",
			  "defaultCard": "false",
			  "cardCurrency": "EUR",
			  "cardEligibleForTransaction": "true"
			},
			{
			  "cardTokenNumber": "XXXXXXXXXX1111",
			  "cardHolderName": "David",
			  "cardType": "DC",
			  "expiryDate": "02-2018",
			  "expiryStatus": "active",
			  "defaultCard": "false",
			  "cardCurrency": "GBP",
			  "cardEligibleForTransaction": "true"
			},
			{
			  "cardTokenNumber": "XXXXXXXXXXXX1065",
			  "cardHolderName": "Peter",
			  "cardType": "JC",
			  "expiryDate": "08-2022",
			  "expiryStatus": "active",
			  "defaultCard": "false",
			  "cardCurrency": "JPY",
			  "cardEligibleForTransaction": "false"
			}
		]
	}
}
