{
    "manageBookingvouchers" : {
        "header": "You may apply these vouchers to this booking:",
        "items": [
            {
            "title": "Earn double KrisFlyer miles",
            "voucherCode": "vouchers code 1234567890",
            "link":[
                {
                "item": "How to use",
                "dataTiggerPopup": ".popup--test"
                },
                {
                "item": "Terms and conditions"
                }
            ],
            "times": "Valid until 30 Dec 2018",
            "button": "use vouchers"
            },
            {
            "title": "Earn double KrisFlyer miles",
            "voucherCode": "vouchers code 1234567890",
            "link":[
                {
                "item": "How to use"
                },
                {
                    "item": "Terms and conditions"
                }
            ],
            "times": "Valid until 30 Dec 2018",
            "button": "use vouchers"
            },
            {
            "title": "Complimentary seat upgrade (Short-haul)",
            "voucherCode": "vouchers code 1234567890",
            "link":[
                {
                    "item": "Terms and conditions"
                }
            ],
            "times": "Valid until 30 Dec 2018",
            "button": "use vouchers"
            }
        ],
        "showAll": "Show all vouchers"
    }
}
