{
	"fareFamilyCondition":[
		{
			"type":"ChangeBooking",
			"isAllowed":true,
			"description":"Booking change (USD 50)"
		},
		{
			"type":"EarnMiles",
			"isAllowed":true,
			"description":"Earn KrisFlyer miles (50%)"
		},
		{
			"type":"CancelAndRefund",
			"isAllowed":false,
			"description":"Refund/Cancellation"
		},
		{
			"type":"Upgrade",
			"isAllowed":true,
			"description":"Upgrade with KrisFlyer miles on flights operated by Singapore Airlines, SilkAir and selected Star Alliance airlines (see the KrisFlyer <a href=\"cib-blank-page.html\">terms and conditions</a>)"
		}
	],
	"fareAvailablityVO":{
		"messages":{

		},
		"dafaults":[
			"O0FF21SIN",
			"R0FF41SIN"
		],
		"packageVO":{
			"type":"CIB",
			"currencyCode":"SGD",
			"fare":1000.00,
			"tax":500.00,
			"surcharge":250.00,
			"total":1750.00
		}
	},
	"bookingSummary":{
		"adultCount":2,
		"childCount":0,
		"infantCount":1,
		"currency":"SGD",
		"fareTotal":1000.00,
		"taxTotal":500.00,
		"surchargeTotal":250.00,
		"fareSubTotal":1750.00,
		"grandTotal":1750.00,
		"costPayableByCash":1750.00,
		"costPayableByMiles":0.00,
		"cashAllocated":1750.00,
		"milesAllocated":0,
		"totalMilesForORB":0,
		"addonSubTotal":0.00,
		"flight":[
			{
				"totalTravelTime":"19hrs 55mins",
				"origin":"SINGAPORE",
				"destination":"SAN FRANCISCO",
				"cabinMismatch": "true",
				"flightSegments":[
					{
						"carrierCode":"SQ",
						"airCraftType":"Boeing 777-300ER",
						"flightNumber":"1",
						"cabinClassDesc":"Economy",
						"layoverTime":"1hr 5mins",
						"deparure":{
							"time":"18:30",
							"date":"14 Feb (Sat)",
							"airportCode":"SIN",
							"airportName":"Changi Int’l",
							"cityCode":"SIN",
							"cityName":"Singapore",
							"terminal":"T1"
						},
						"arrival":{
							"time":"22:30",
							"date":"14 Feb (Sat)",
							"airportCode":"HKG",
							"airportName":"Hong Kong Int’l",
							"cityCode":"HKG",
							"cityName":"Hong Kong",
							"terminal":"T1",
							"terminalName":"Terminal"
						}
					},
					{
						"carrierCode":"SQ",
						"airCraftType":"Boeing 777-300ER",
						"flightNumber":"1",
						"cabinClassDesc":"Economy",
						"deparure":{
							"time":"18:30",
							"date":"15 Feb (Sat)",
							"airportCode":"HKG",
							"airportName":"Hong Kong Int’l",
							"cityCode":"HKG",
							"cityName":"Hong Kong",
							"terminal":"T1",
							"terminalName":"Terminal"
						},
						"arrival":{
							"time":"22:30",
							"date":"15 Feb (Sat)",
							"airportCode":"SFO",
							"airportName":"San Francisco Int’t",
							"cityCode":"SFO",
							"cityName":"San Francisco",
							"terminal":"T1"
						}
					}
				]
			},
			{
				"totalTravelTime":"21hrs 10mins",
				"origin":"SAN FRANCISCO",
				"destination":"SINGAPORE",
				"cabinMismatch": "false",
				"flightSegments":[
					{
						"carrierCode":"SQ",
						"flightNumber":"2",
						"cabinClassDesc":"Economy",
						"layoverTime":"1hr 5mins",
						"deparure":{
							"time":"18:30",
							"date":"24 Feb (Sat)",
							"airportCode":"SFO",
							"airportName":"San Francisco Int’t",
							"cityCode":"SFO",
							"cityName":"San Francisco",
							"terminal":"T1"
						},
						"arrival":{
							"time":"22:30",
							"date":"14 Feb (Sat)",
							"airportCode":"HKG",
							"airportName":"Hong Kong Int’l",
							"cityCode":"HKG",
							"cityName":"Hong Kong",
							"terminal":"T1"
						}
					},
					{
						"carrierCode":"SQ",
						"flightNumber":"2",
						"cabinClassDesc":"Economy",
						"deparure":{
							"time":"18:30",
							"date":"25 Feb (Sat)",
							"airportCode":"HKG",
							"airportName":"Hong Kong Int’l",
							"cityCode":"HKG",
							"cityName":"Hong Kong",
							"terminal":"T1"
						},
						"arrival":{
							"time":"22:30",
							"date":"25 Feb (Sat)",
							"airportCode":"SIN",
							"airportName":"Changi Int’l",
							"cityCode":"SIN",
							"cityName":"Singapore",
							"terminal":"T1"
						}
					}
				]
			}
		],
		"paxDetails":[
			{
				"paxType":"Adult",
				"id":1,
				"paxName":"SHIH SHING LIM",
				"paxCategory":"Non-Nominee",
				"fareDetails":{
					"totalMiles":50000,
					"fareAmount":500.00,
					"taxAmount":200.00,
					"surchargeAmount":100.00,
					"milesAllocation":[
						{
							"category":"Fare",
							"totalAmount":500.00,
							"milesAllocated":5000,
							"equivalentCash":350.99,
							"balanceAmount":149.01
						},
						{
							"category":"Preferred Seat",
							"totalAmount":50.00,
							"milesAllocated":0,
							"equivalentCash":0.00,
							"balanceAmount":50.00
						}
					],
					"surcharge":[
						{
							"amount":99.99,
							"code":"YQAC",
							"description":"Airline Fuel Surcharge"
						},
						{
							"amount":150.01,
							"code":"YQAD",
							"description":"Airline Insurance"
						}
					],
					"taxes":[
						{
							"amount":50.01,
							"code":"XF",
							"description":"Passenger Facility Charge"
						},
						{
							"amount":50.49,
							"code":"OP",
							"description":"Aviation Levy"
						},
						{
							"amount":49.51,
							"code":"OO",
							"description":"Passenger Security Service Charge"
						},
						{
							"amount":49.99,
							"code":"YC",
							"description":"Customs User Fee"
						},
						{
							"amount":50.00,
							"code":"XY",
							"description":"Immigration User Fee"
						}
					]
				},
				"detailsPerFlight": [
					{
						"flightNo": "1",
						"from": "SIN",
						"to": "HKG",
						"addonPerPax": [
							{
								"type": "Seat",
								"description": "44H",
								"category": "Chargable",
								"amount": 50
							},
							{
								"type": "Excess baggage",
								"description": "<strong>Free: </strong>23kg each",
								"category": "Free"
							},
							{
								"type": "Excess baggage",
								"description": "<strong>Additional: </strong>45kg",
								"category": "Chargable",
								"amount": 250
							},
							{
								"type": "Meal",
								"description": "Vegetarian Meal",
								"category": "Free"
							}
						]
					},
					{
						"flightNo": "2",
						"from": "HKG",
						"to": "SFO",
						"addonPerPax": [
							{
								"type": "Seat",
								"description": "50C",
								"category": "Free"
							},
							{
								"type": "Excess baggage",
								"description": "<strong>Free: </strong>23kg each",
								"category": "Free"
							},
							{
								"type": "Meal",
								"description": "Gluten Intolerant Meal",
								"category": "Free"
							}
						]
					}
				]
			},
			{
				"paxType":"Adult",
				"id":2,
				"paxName":"CHOONG LIM",
				"paxCategory":"Nominee",
				"fareDetails":{
					"totalMiles":50000,
					"fareAmount":500.00,
					"taxAmount":200.00,
					"surchargeAmount":100.00,
					"milesAllocation":[
						{
							"category":"Fare",
							"totalAmount":500.00,
							"milesAllocated":5000,
							"equivalentCash":350.99,
							"balanceAmount":149.01
						},
						{
							"category":"Preferred Seat",
							"totalAmount":50.00,
							"milesAllocated":0,
							"equivalentCash":0.00,
							"balanceAmount":50.00
						}
					],
					"surcharge":[
						{
							"amount":99.99,
							"code":"YQAC",
							"description":"Airline Fuel Surcharge"
						},
						{
							"amount":150.01,
							"code":"YQAD",
							"description":"Airline Insurance"
						}
					],
					"taxes":[
						{
							"amount":50.01,
							"code":"XF",
							"description":"Passenger Facility Charge"
						},
						{
							"amount":50.49,
							"code":"OP",
							"description":"Aviation Levy"
						},
						{
							"amount":49.51,
							"code":"OO",
							"description":"Passenger Security Service Charge"
						},
						{
							"amount":49.99,
							"code":"YC",
							"description":"Customs User Fee"
						},
						{
							"amount":50.00,
							"code":"XY",
							"description":"Immigration User Fee"
						}
					]
				}
			},
			{
				"paxType":"Infant",
				"id":3,
				"paxName":"CHOONG LIM",
				"fareDetails":{
					"totalMiles":30000,
					"fareAmount":500.00,
					"taxAmount":200.00,
					"surchargeAmount":100.00,
					"milesAllocation":[
						{
							"category":"Fare",
							"totalAmount":500.00,
							"milesAllocated":5000,
							"equivalentCash":350.99,
							"balanceAmount":149.01
						},
						{
							"category":"Preferred Seat",
							"totalAmount":50.00,
							"milesAllocated":0,
							"equivalentCash":0.00,
							"balanceAmount":50.00
						}
					],
					"surcharge":[
						{
							"amount":99.99,
							"code":"YQAC",
							"description":"Airline Fuel Surcharge"
						},
						{
							"amount":150.01,
							"code":"YQAD",
							"description":"Airline Insurance"
						}
					],
					"taxes":[
						{
							"amount":50.01,
							"code":"XF",
							"description":"Passenger Facility Charge"
						},
						{
							"amount":50.49,
							"code":"OP",
							"description":"Aviation Levy"
						},
						{
							"amount":49.51,
							"code":"OO",
							"description":"Passenger Security Service Charge"
						},
						{
							"amount":49.99,
							"code":"YC",
							"description":"Customs User Fee"
						},
						{
							"amount":50.00,
							"code":"XY",
							"description":"Immigration User Fee"
						}
					]
				}
			}
		],
		"commonAddons":[
			{
				"type":"Travel Insurance",
				"description":"From 14 Feb 2012 to 26 Feb 2015",
				"category":"Chargable",
				"amount":50.00
			},
			{
				"type":"Singapore Stopover Holiday",
				"description":"San Francisco to Singapore - 21 Feb 2015 (Sat) to 26 Feb 2015 (Sat) - 5 nights",
				"category":"Chargable",
				"amount":450.00
			}
		]
	},
	"upgrade":[

	],
	"pwmMessage":[
		{
			"O0FF21SIN":"<strong>You're waitlisted for this flight.</strong> For your convenience, you may also select an alternative, available flight.<br>Many of these flights are also available for immediate confirmation at great fares, starting from just 3,000 KrisFlyer miles plus SGD X,XXX.",
			"R0FF31SIN":"<strong>You're waitlisted for this flight.</strong> For your convenience, you may also select an alternative, available flight.<br>Many of these flights are also available for immediate confirmation at great fares, starting from just 3,000 KrisFlyer miles plus SGD X,XXX."
		}
	]
}
