{
	"paxRecordVO": {  
		 "recordLocator":"KMLHO3",
		 "flights":[  
				{  
					 "flightIDs":[  
							"2301D9CD0002233F",
							"2301D9CD0002233E"
					 ],
					 "origin":{  
							"airportCode":"SIN",
							"airportName":"Changi Intl",
							"airportTerminal":"3",
							"cityName":"Singapore"
					 },
					 "destination":{  
							"airportCode":"HKG",
							"airportName":"Hong Kong",
							"airportTerminal":"1",
							"cityName":"Hong Kong"
					 },
					 "operatingAirline":{  
							"airlineCode":"SQ",
							"airlineName":"Singapore Airlines",
							"flightNumber":"868"
					 },
					 "marketingAirline":null,
					 "scheduledDepartureDateTime":"2017-08-24T23:50:00",
					 "scheduledArrivalDateTime":"2017-08-24T23:50:00",
					 "estimatedDepartureDateTime":"2017-08-24T23:50:00",
					 "estimatedArrivalDateTime":"2017-08-24T23:50:00",
					 "aircraftType":null,
					 "tci":false,
					 "totalTravelTime":"4hrs",
					 "cabinClass":"Economy "
				}
		 ],
		 "passengers":[  
				{  
					 "passengerID":"2301C9CD0000CD12",
					 "lastName":"DAS",
					 "activePassenger":true,
					 "passengerSelected":true,
					 "firstName":"DAS",
					 "title":"Ms",
					 "dateOfBirth":"1982-03-02",
					 "gender":"F",
					 "passengerType":"A",
					 "countryOfResidence":{
					 	"address": "368 Lafayette Ave. Arizona, NY 12401",
					 	"stateName": "Arizona",
					 	"countryName": "United States of America",
					 	"cityName": "New York",
					 	"zipCode": "123568"
					 },
					 "prCard":{
					 	"type": "A", 
					 	"number": "123456",
					 	"issuingCountryCode": "SGP",
					 	"expiryDate": "2030-05-07"
					 },
					 "passport":{  
							"expiryDate":"2030-01-07",
							"firstName":"DAS",
							"issuingCountryCode":"SGP",
							"lastName":"DAS",
							"nationalityCode":"SGP",
							"passportNumber":"F12345678"
					 }
				},
				{  
					 "passengerID":"2301C9CD0000CD12",
					 "lastName":"SHAN",
					 "activePassenger":false,
					 "passengerSelected":true,
					 "firstName":"HARA",
					 "title":"Ms",
					 "dateOfBirth":"1982-03-02",
					 "gender":"F",
					 "passengerType":"I",
					 "countryOfResidence":{
					 	"address": "368 Lafayette Ave. Alabama, NY 12401",
					 	"stateName": "Alabama",
					 	"countryName": "United States of America",
					 	"cityName": "New York",
					 	"zipCode": "123568"
					 },
					 "prCard":{
					 	"type": "B", 
					 	"number": "123456",
					 	"issuingCountryCode": "SGP",
					 	"expiryDate": "2030-05-07"
					 },
					 "passport":{  
							"expiryDate":"2030-01-07",
							"firstName":"HARA",
							"issuingCountryCode":"SGP",
							"lastName":"SHAN",
							"nationalityCode":"SGP",
							"passportNumber":"F12345678"
					 }
				},
				{  
					 "passengerID":"2301C9CD0000CD11",
					 "lastName":"TURBOTESTSEVEN",
					 "firstName":"SEVEN",
					 "title":"MS",
					 "dateOfBirth":"1986-10-20",
					 "gender":"F",
					 "passengerType":"A",
					 "countryOfResidence":null,
					 "activePassenger":false,
					 "passengerSelected":true,
					 "prCard":null,
					 "passport":{  
							"expiryDate":"2030-01-07",
							"firstName":"SEVEN",
							"issuingCountryCode":"SGP",
							"lastName":"SEVEN",
							"nationalityCode":"SGP",
							"passportNumber":"F12345678"
					 }
				},
				{  
					 "passengerID":"2301C9CD0000CD13",
					 "lastName":"TURBOTESTSEVEN1",
					 "firstName":"SEVEN",
					 "title":"MS",
					 "dateOfBirth":"1986-10-20",
					 "gender":"F",
					 "passengerType":"C",
					 "countryOfResidence":null,
					 "activePassenger":false,
					 "passengerSelected":true,
					 "prCard":null,
					 "passport":{  
							"expiryDate":"2030-01-07",
							"firstName":"SEVEN",
							"issuingCountryCode":"SGP",
							"lastName":"SEVEN",
							"nationalityCode":"SGP",
							"passportNumber":"F12345678"
					 }
				}
		 ],
		 "services":[  
				{  
					 "flightID":"2301D9CD0002233F",
					 "mealSelected":null,
					 "seatSelected":"033B",
					 "ticketNumber":"6182418889007",
					 "dcsStatus":{  
							"boardingPassIssued":true,
							"checkedIn":true,
							"docChecksPassed":true,
							"regulatoryChecksPassed":false,
							"ccvChecksPassed":false
					 },
					 "fqtvDetails":null,
					 "fqtsDetails":null
				},
				{  
					 "flightID":"2301D9CD0002233E",
					 "passengerID":"2301C9CD0000CD11",
					 "mealSelected":null,
					 "seatSelected":"033C",
					 "ticketNumber":"6182418889006",
					 "dcsStatus":{  
							"boardingPassIssued":false,
							"checkedIn":false,
							"docChecksPassed":false,
							"regulatoryChecksPassed":false,
							"ccvChecksPassed":false
					 },
					 "fqtvDetails":null,
					 "fqtsDetails":{  
							"loyaltyTierCode":"TPPS",
							"loyaltyTierName":"TPPS",
							"ffpAirline":"SQ",
							"ffpNumber":"8987000086"
					 }
				}
		 ]
	}
}