{
  "results": "<div class=\"promotion-item one-half\">\r\n <div class=\"promotion-item__inner\">\r\n <div class=\"promotion-item__content\">\r\n <p class=\"promotion-item__title\">Flights to Moscow (Round trip)<\/p>\r\n <table class=\"fares-table\">\r\n <thead class=\"hidden-mb\">\r\n <tr>\r\n <th>Departing from<\/th>\r\n <th>Price from (AUD)<\/th>\r\n <\/tr>\r\n <\/thead>\r\n <tbody>\r\n <tr>\r\n <td data-th=\"Departing from\">Adelaide<\/td>\r\n <td data-th=\"Price from (AUD)\"><span class=\"price\">1,694<\/span><a href=\"#\" class=\"link-4\"><em class=\"ico-point-r\"><\/em>Book now<\/a>\r\n <\/td>\r\n <\/tr>\r\n <tr>\r\n <td data-th=\"Departing from\">Brisbane<\/td>\r\n <td data-th=\"Price from (AUD)\"><span class=\"price\">1,735<\/span><a href=\"#\" class=\"link-4\"><em class=\"ico-point-r\"><\/em>Book now<\/a>\r\n <\/td>\r\n <\/tr>\r\n <tr>\r\n <td data-th=\"Departing from\">Cairns<\/td>\r\n <td data-th=\"Price from (AUD)\"><span class=\"price\">1,734<\/span><a href=\"#\" class=\"link-4\"><em class=\"ico-point-r\"><\/em>Book now<\/a>\r\n <\/td>\r\n <\/tr>\r\n <tr>\r\n <td data-th=\"Departing from\">Darwin<\/td>\r\n <td data-th=\"Price from (AUD)\"><span class=\"price\">1,698<\/span><a href=\"#\" class=\"link-4\"><em class=\"ico-point-r\"><\/em>Book now<\/a>\r\n <\/td>\r\n <\/tr>\r\n <tr>\r\n <td data-th=\"Departing from\">Melbourne<\/td>\r\n <td data-th=\"Price from (AUD)\"><span class=\"price\">1,722<\/span><a href=\"#\" class=\"link-4\"><em class=\"ico-point-r\"><\/em>Book now<\/a>\r\n <\/td>\r\n <\/tr>\r\n <tr>\r\n <td data-th=\"Departing from\">Perth<\/td>\r\n <td data-th=\"Price from (AUD)\"><span class=\"price\">1,685<\/span><a href=\"#\" class=\"link-4\"><em class=\"ico-point-r\"><\/em>Book now<\/a>\r\n <\/td>\r\n <\/tr>\r\n <tr>\r\n <td data-th=\"Departing from\">Sydney<\/td>\r\n <td data-th=\"Price from (AUD)\"><span class=\"price\">1,735<\/span><a href=\"#\" class=\"link-4\"><em class=\"ico-point-r\"><\/em>Book now<\/a>\r\n <\/td>\r\n <\/tr>\r\n <\/tbody>\r\n <\/table>\r\n <\/div>\r\n <\/div>\r\n <\/div>\r\n <div class=\"promotion-item one-half\">\r\n <div class=\"promotion-item__inner\">\r\n <div class=\"promotion-item__content\">\r\n <p class=\"promotion-item__title\">Flights to Istanbul (Round trip)<\/p>\r\n <table class=\"fares-table\">\r\n <thead class=\"hidden-mb\">\r\n <tr>\r\n <th>Departing from<\/th>\r\n <th>Price from (AUD)<\/th>\r\n <\/tr>\r\n <\/thead>\r\n <tbody>\r\n <tr>\r\n <td data-th=\"Departing from\">Ho Chi Minh City<\/td>\r\n <td data-th=\"Price from (AUD)\"><span class=\"price\">9,999,999,999<\/span><a href=\"#\" class=\"link-4\"><em class=\"ico-point-r\"><\/em>Book now<\/a>\r\n <\/td>\r\n <\/tr>\r\n <tr>\r\n <td data-th=\"Departing from\">Bandar Seri Begawan<\/td>\r\n <td data-th=\"Price from (AUD)\"><span class=\"price\">9,999,999,999<\/span><a href=\"#\" class=\"link-4\"><em class=\"ico-point-r\"><\/em>Book now<\/a>\r\n <\/td>\r\n <\/tr>\r\n <tr>\r\n <td data-th=\"Departing from\">Cairns<\/td>\r\n <td data-th=\"Price from (AUD)\"><span class=\"price\">9,734,000,888<\/span><a href=\"#\" class=\"link-4\"><em class=\"ico-point-r\"><\/em>Book now<\/a>\r\n <\/td>\r\n <\/tr>\r\n <tr>\r\n <td data-th=\"Departing from\">Darwin<\/td>\r\n <td data-th=\"Price from (AUD)\"><span class=\"price\">9,999,999,999<\/span><a href=\"#\" class=\"link-4\"><em class=\"ico-point-r\"><\/em>Book now<\/a>\r\n <\/td>\r\n <\/tr>\r\n <tr>\r\n <td data-th=\"Departing from\">Melbourne<\/td>\r\n <td data-th=\"Price from (AUD)\"><span class=\"price\">9,999,999,999<\/span><a href=\"#\" class=\"link-4\"><em class=\"ico-point-r\"><\/em>Book now<\/a>\r\n <\/td>\r\n <\/tr>\r\n <tr>\r\n <td data-th=\"Departing from\">Perth<\/td>\r\n <td data-th=\"Price from (AUD)\"><span class=\"price\">9,734,000,888<\/span><a href=\"#\" class=\"link-4\"><em class=\"ico-point-r\"><\/em>Book now<\/a>\r\n <\/td>\r\n <\/tr>\r\n <tr>\r\n <td data-th=\"Departing from\">Sydney<\/td>\r\n <td data-th=\"Price from (AUD)\"><span class=\"price\">9,734,000,888<\/span><a href=\"#\" class=\"link-4\"><em class=\"ico-point-r\"><\/em>Book now<\/a>\r\n <\/td>\r\n <\/tr>\r\n <\/tbody>\r\n <\/table>\r\n <\/div>\r\n <\/div>\r\n <\/div>\r\n <div class=\"promotion-item one-half\">\r\n <div class=\"promotion-item__inner\">\r\n <div class=\"promotion-item__content\">\r\n <p class=\"promotion-item__title\">Flights to Barcelona (Round trip)<\/p>\r\n <table class=\"fares-table\">\r\n <thead class=\"hidden-mb\">\r\n <tr>\r\n <th>Departing from<\/th>\r\n <th>Price from (AUD)<\/th>\r\n <\/tr>\r\n <\/thead>\r\n <tbody>\r\n <tr>\r\n <td data-th=\"Departing from\">Adelaide<\/td>\r\n <td data-th=\"Price from (AUD)\"><span class=\"price\">1,694<\/span><a href=\"#\" class=\"link-4\"><em class=\"ico-point-r\"><\/em>Book now<\/a>\r\n <\/td>\r\n <\/tr>\r\n <tr>\r\n <td data-th=\"Departing from\">Brisbane<\/td>\r\n <td data-th=\"Price from (AUD)\"><span class=\"price\">1,735<\/span><a href=\"#\" class=\"link-4\"><em class=\"ico-point-r\"><\/em>Book now<\/a>\r\n <\/td>\r\n <\/tr>\r\n <tr>\r\n <td data-th=\"Departing from\">Cairns<\/td>\r\n <td data-th=\"Price from (AUD)\"><span class=\"price\">1,734<\/span><a href=\"#\" class=\"link-4\"><em class=\"ico-point-r\"><\/em>Book now<\/a>\r\n <\/td>\r\n <\/tr>\r\n <tr>\r\n <td data-th=\"Departing from\">Darwin<\/td>\r\n <td data-th=\"Price from (AUD)\"><span class=\"price\">1,698<\/span><a href=\"#\" class=\"link-4\"><em class=\"ico-point-r\"><\/em>Book now<\/a>\r\n <\/td>\r\n <\/tr>\r\n <tr>\r\n <td data-th=\"Departing from\">Melbourne<\/td>\r\n <td data-th=\"Price from (AUD)\"><span class=\"price\">1,722<\/span><a href=\"#\" class=\"link-4\"><em class=\"ico-point-r\"><\/em>Book now<\/a>\r\n <\/td>\r\n <\/tr>\r\n <tr>\r\n <td data-th=\"Departing from\">Perth<\/td>\r\n <td data-th=\"Price from (AUD)\"><span class=\"price\">1,685<\/span><a href=\"#\" class=\"link-4\"><em class=\"ico-point-r\"><\/em>Book now<\/a>\r\n <\/td>\r\n <\/tr>\r\n <tr>\r\n <td data-th=\"Departing from\">Sydney<\/td>\r\n <td data-th=\"Price from (AUD)\"><span class=\"price\">1,735<\/span><a href=\"#\" class=\"link-4\"><em class=\"ico-point-r\"><\/em>Book now<\/a>\r\n <\/td>\r\n <\/tr>\r\n <\/tbody>\r\n <\/table>\r\n <\/div>\r\n <\/div>\r\n <\/div>\r\n <div class=\"promotion-item one-half\">\r\n <div class=\"promotion-item__inner\">\r\n <div class=\"promotion-item__content\">\r\n <p class=\"promotion-item__title\">Flights to Copenhagen (Round trip)<\/p>\r\n <table class=\"fares-table\">\r\n <thead class=\"hidden-mb\">\r\n <tr>\r\n <th>Departing from<\/th>\r\n <th>Price from (AUD)<\/th>\r\n <\/tr>\r\n <\/thead>\r\n <tbody>\r\n <tr>\r\n <td data-th=\"Departing from\">Adelaide<\/td>\r\n <td data-th=\"Price from (AUD)\"><span class=\"price\">1,694<\/span><a href=\"#\" class=\"link-4\"><em class=\"ico-point-r\"><\/em>Book now<\/a>\r\n <\/td>\r\n <\/tr>\r\n <tr>\r\n <td data-th=\"Departing from\">Brisbane<\/td>\r\n <td data-th=\"Price from (AUD)\"><span class=\"price\">1,735<\/span><a href=\"#\" class=\"link-4\"><em class=\"ico-point-r\"><\/em>Book now<\/a>\r\n <\/td>\r\n <\/tr>\r\n <tr>\r\n <td data-th=\"Departing from\">Cairns<\/td>\r\n <td data-th=\"Price from (AUD)\"><span class=\"price\">1,734<\/span><a href=\"#\" class=\"link-4\"><em class=\"ico-point-r\"><\/em>Book now<\/a>\r\n <\/td>\r\n <\/tr>\r\n <tr>\r\n <td data-th=\"Departing from\">Darwin<\/td>\r\n <td data-th=\"Price from (AUD)\"><span class=\"price\">1,698<\/span><a href=\"#\" class=\"link-4\"><em class=\"ico-point-r\"><\/em>Book now<\/a>\r\n <\/td>\r\n <\/tr>\r\n <tr>\r\n <td data-th=\"Departing from\">Melbourne<\/td>\r\n <td data-th=\"Price from (AUD)\"><span class=\"price\">1,722<\/span><a href=\"#\" class=\"link-4\"><em class=\"ico-point-r\"><\/em>Book now<\/a>\r\n <\/td>\r\n <\/tr>\r\n <tr>\r\n <td data-th=\"Departing from\">Perth<\/td>\r\n <td data-th=\"Price from (AUD)\"><span class=\"price\">1,685<\/span><a href=\"#\" class=\"link-4\"><em class=\"ico-point-r\"><\/em>Book now<\/a>\r\n <\/td>\r\n <\/tr>\r\n <tr>\r\n <td data-th=\"Departing from\">Sydney<\/td>\r\n <td data-th=\"Price from (AUD)\"><span class=\"price\">1,735<\/span><a href=\"#\" class=\"link-4\"><em class=\"ico-point-r\"><\/em>Book now<\/a>\r\n <\/td>\r\n <\/tr>\r\n <\/tbody>\r\n <\/table>\r\n <\/div>\r\n <\/div>\r\n <\/div>"
}
