{
	"selectedSegmentListJson": [
		{
			"selectFlightSegment": {
				"segment": [
					{
						"segmentId": "1",
						"segmentDropDownValue": "Singapore to San Francisco",
						"itinerary": {
							"flight": "SQ 2",
							"cabin": "Economy (N)",
							"cityCode": "SFO",
							"departureTime": "00:05",
							"departuteDate": "21 Feb (Sat)",
							"upgradeTo": {
								"successFlag": false,
								"errorCode":5000,
								"errorMessage": "We are unable to process your request for a cabin upgrade",
								"upgradeCabinClass": "",
								"upgradeCondition": ""
							}
						}
					}
				]
			}
		}
	]
}
