{
  "response": {
    "sessionID": "JSESSIONID\\u003dbuJvCdadnhClNxadzYN3TBLziC8dMCmGdrdC4JZFDx7c5-euT7th!-1278862189!-1978437125",
    "pageTicket": "0",
    "currency": {
      "code": "NZD",
      "name": "New Zealand Dollar",
      "precision": 2
    },
    "resultType": "F",
    "tripType": "O",
    "defaultRecommendationID": 0,
    "discountApplied": "<strong>'NZD50PERCENT'</strong> promo code applied. You enjoy <strong>50%</strong> off selected fares. Fares shown below are already discounted",
    "recommendations": [
      {
        "recommendationID": 0,
        "segmentBounds": [
          {
            "segments": [
              {
                "segmentID": 0,
                "numOfLastSeats": 5,
                "displayLastSeat": true,
                "legs": [
                  {
                    "sellingClass": "U",
                    "cabinClass": "J",
                    "fareClass": "U13NZO"
                  }
                ],
                "eligibleOCRecommendationIDs": [
                  0
                ]
              }
            ],
            "fareFamily": "FF71CHC",
            "fareSummary": {
              "fareTotal": {
                "totalAmount": 3854.14,
                "amountWithoutTax": 3750,
                "tax": 104.14,
                "promoDetails": [
                  {
                    "orginalFareAmount": 7604.14,
                    "promoType": "PROMOCODE"
                  }
                ]
              },
              "fareDetailsPerAdult": {
                "totalAmount": 1302.07,
                "amountWithoutTax": 1250,
                "tax": 52.07,
                "promoDetails": [
                  {
                    "orginalFareAmount": 2552.07,
                    "promoType": "PROMOCODE"
                  }
                ]
              },
              "fareDetailsPerChild": {
                "totalAmount": 1302.07,
                "amountWithoutTax": 1250,
                "tax": 52.07,
                "promoDetails": [
                  {
                    "orginalFareAmount": 2552.07,
                    "promoType": "PROMOCODE"
                  }
                ]
              },
              "fareDetailsPerInfant": {
                "totalAmount": 1250,
                "amountWithoutTax": 1250,
                "tax": 0,
                "promoDetails": [
                  {
                    "orginalFareAmount": 2500,
                    "promoType": "PROMOCODE"
                  }
                ]
              }
            }
          }
        ],
        "fareFamily": "FF71CHC",
        "fareSummary": {
          "fareTotal": {
            "totalAmount": 3854.14,
            "amountWithoutTax": 3750,
            "tax": 104.14,
            "promoDetails": [
              {
                "orginalFareAmount": 7604.14,
                "promoType": "PROMOCODE"
              }
            ]
          },
          "fareDetailsPerAdult": {
            "totalAmount": 1302.07,
            "amountWithoutTax": 1250,
            "tax": 52.07,
            "promoDetails": [
              {
                "orginalFareAmount": 2552.07,
                "promoType": "PROMOCODE"
              }
            ]
          },
          "fareDetailsPerChild": {
            "totalAmount": 1302.07,
            "amountWithoutTax": 1250,
            "tax": 52.07,
            "promoDetails": [
              {
                "orginalFareAmount": 2552.07,
                "promoType": "PROMOCODE"
              }
            ]
          },
          "fareDetailsPerInfant": {
            "totalAmount": 1250,
            "amountWithoutTax": 1250,
            "tax": 0,
            "promoDetails": [
              {
                "orginalFareAmount": 2500,
                "promoType": "PROMOCODE"
              }
            ]
          }
        },
        "creditCardSurchargeFlag": true,
        "creditCardSurchargeValue": 65.7
      },
      {
        "recommendationID": 3,
        "segmentBounds": [
          {
            "segments": [
              {
                "segmentID": 4,
                "numOfLastSeats": 7,
                "displayLastSeat": true,
                "legs": [
                  {
                    "sellingClass": "Y",
                    "cabinClass": "Y",
                    "fareClass": "U13NZO"
                  },
                  {
                    "sellingClass": "U",
                    "cabinClass": "J",
                    "fareClass": "U13NZO"
                  }
                ],
                "eligibleOCRecommendationIDs": [
                  0
                ]
              },
              {
                "segmentID": 5,
                "numOfLastSeats": 7,
                "displayLastSeat": true,
                "legs": [
                  {
                    "sellingClass": "Y",
                    "cabinClass": "Y",
                    "fareClass": "U13NZO"
                  },
                  {
                    "sellingClass": "U",
                    "cabinClass": "J",
                    "fareClass": "U13NZO"
                  }
                ],
                "eligibleOCRecommendationIDs": [
                  0
                ]
              }
            ],
            "fareFamily": "FF71CHC",
            "fareSummary": {
              "fareTotal": {
                "totalAmount": 7562.14,
                "amountWithoutTax": 7500,
                "tax": 62.14
              },
              "fareDetailsPerAdult": {
                "totalAmount": 2531.07,
                "amountWithoutTax": 2500,
                "tax": 31.07
              },
              "fareDetailsPerChild": {
                "totalAmount": 2531.07,
                "amountWithoutTax": 2500,
                "tax": 31.07
              },
              "fareDetailsPerInfant": {
                "totalAmount": 2500,
                "amountWithoutTax": 2500,
                "tax": 0
              }
            }
          }
        ],
        "fareFamily": "FF71CHC",
        "fareSummary": {
          "fareTotal": {
            "totalAmount": 7562.14,
            "amountWithoutTax": 7500,
            "tax": 62.14
          },
          "fareDetailsPerAdult": {
            "totalAmount": 2531.07,
            "amountWithoutTax": 2500,
            "tax": 31.07
          },
          "fareDetailsPerChild": {
            "totalAmount": 2531.07,
            "amountWithoutTax": 2500,
            "tax": 31.07
          },
          "fareDetailsPerInfant": {
            "totalAmount": 2500,
            "amountWithoutTax": 2500,
            "tax": 0
          }
        },
        "creditCardSurchargeFlag": true,
        "creditCardSurchargeValue": 128.7
      },
      {
        "recommendationID": 4,
        "segmentBounds": [
          {
            "segments": [
              {
                "segmentID": 6,
                "numOfLastSeats": 7,
                "displayLastSeat": true,
                "legs": [
                  {
                    "sellingClass": "Y",
                    "cabinClass": "Y",
                    "fareClass": "U13NZO"
                  },
                  {
                    "sellingClass": "U",
                    "cabinClass": "J",
                    "fareClass": "U13NZO"
                  }
                ],
                "eligibleOCRecommendationIDs": [
                  0
                ]
              }
            ],
            "fareFamily": "FF71CHC",
            "fareSummary": {
              "fareTotal": {
                "totalAmount": 7565.96,
                "amountWithoutTax": 7500,
                "tax": 65.96
              },
              "fareDetailsPerAdult": {
                "totalAmount": 2532.98,
                "amountWithoutTax": 2500,
                "tax": 32.98
              },
              "fareDetailsPerChild": {
                "totalAmount": 2532.98,
                "amountWithoutTax": 2500,
                "tax": 32.98
              },
              "fareDetailsPerInfant": {
                "totalAmount": 2500,
                "amountWithoutTax": 2500,
                "tax": 0
              }
            }
          }
        ],
        "fareFamily": "FF71CHC",
        "fareSummary": {
          "fareTotal": {
            "totalAmount": 7565.96,
            "amountWithoutTax": 7500,
            "tax": 65.96
          },
          "fareDetailsPerAdult": {
            "totalAmount": 2532.98,
            "amountWithoutTax": 2500,
            "tax": 32.98
          },
          "fareDetailsPerChild": {
            "totalAmount": 2532.98,
            "amountWithoutTax": 2500,
            "tax": 32.98
          },
          "fareDetailsPerInfant": {
            "totalAmount": 2500,
            "amountWithoutTax": 2500,
            "tax": 0
          }
        },
        "creditCardSurchargeFlag": true,
        "creditCardSurchargeValue": 128.7
      },
      {
        "recommendationID": 1,
        "segmentBounds": [
          {
            "segments": [
              {
                "segmentID": 1,
                "numOfLastSeats": 4,
                "displayLastSeat": true,
                "legs": [
                  {
                    "sellingClass": "J",
                    "cabinClass": "J",
                    "fareClass": "J11NZO"
                  },
                  {
                    "sellingClass": "J",
                    "cabinClass": "J",
                    "fareClass": "J11NZO"
                  }
                ],
                "eligibleOCRecommendationIDs": [
                  0
                ]
              },
              {
                "segmentID": 2,
                "numOfLastSeats": 4,
                "displayLastSeat": true,
                "legs": [
                  {
                    "sellingClass": "J",
                    "cabinClass": "J",
                    "fareClass": "J11NZO"
                  },
                  {
                    "sellingClass": "J",
                    "cabinClass": "J",
                    "fareClass": "J11NZO"
                  }
                ],
                "eligibleOCRecommendationIDs": [
                  0
                ]
              },
              {
                "segmentID": 3,
                "numOfLastSeats": 4,
                "displayLastSeat": true,
                "legs": [
                  {
                    "sellingClass": "J",
                    "cabinClass": "J",
                    "fareClass": "J11NZO"
                  },
                  {
                    "sellingClass": "J",
                    "cabinClass": "J",
                    "fareClass": "J11NZO"
                  }
                ],
                "eligibleOCRecommendationIDs": [
                  0
                ]
              }
            ],
            "fareFamily": "FF61CHC",
            "fareSummary": {
              "fareTotal": {
                "totalAmount": 4352.34,
                "amountWithoutTax": 4275,
                "tax": 77.34,
                "promoDetails": [
                  {
                    "orginalFareAmount": 8627.34,
                    "promoType": "PROMOCODE"
                  }
                ]
              },
              "fareDetailsPerAdult": {
                "totalAmount": 1463.67,
                "amountWithoutTax": 1425,
                "tax": 38.67,
                "promoDetails": [
                  {
                    "orginalFareAmount": 2888.67,
                    "promoType": "PROMOCODE"
                  }
                ]
              },
              "fareDetailsPerChild": {
                "totalAmount": 1463.67,
                "amountWithoutTax": 1425,
                "tax": 38.67,
                "promoDetails": [
                  {
                    "orginalFareAmount": 2888.67,
                    "promoType": "PROMOCODE"
                  }
                ]
              },
              "fareDetailsPerInfant": {
                "totalAmount": 1425,
                "amountWithoutTax": 1425,
                "tax": 0,
                "promoDetails": [
                  {
                    "orginalFareAmount": 2850,
                    "promoType": "PROMOCODE"
                  }
                ]
              }
            }
          }
        ],
        "fareFamily": "FF61CHC",
        "fareSummary": {
          "fareTotal": {
            "totalAmount": 4352.34,
            "amountWithoutTax": 4275,
            "tax": 77.34,
            "promoDetails": [
              {
                "orginalFareAmount": 8627.34,
                "promoType": "PROMOCODE"
              }
            ]
          },
          "fareDetailsPerAdult": {
            "totalAmount": 1463.67,
            "amountWithoutTax": 1425,
            "tax": 38.67,
            "promoDetails": [
              {
                "orginalFareAmount": 2888.67,
                "promoType": "PROMOCODE"
              }
            ]
          },
          "fareDetailsPerChild": {
            "totalAmount": 1463.67,
            "amountWithoutTax": 1425,
            "tax": 38.67,
            "promoDetails": [
              {
                "orginalFareAmount": 2888.67,
                "promoType": "PROMOCODE"
              }
            ]
          },
          "fareDetailsPerInfant": {
            "totalAmount": 1425,
            "amountWithoutTax": 1425,
            "tax": 0,
            "promoDetails": [
              {
                "orginalFareAmount": 2850,
                "promoType": "PROMOCODE"
              }
            ]
          }
        },
        "creditCardSurchargeFlag": true,
        "creditCardSurchargeValue": 74.1
      },
      {
        "recommendationID": 2,
        "segmentBounds": [
          {
            "segments": [
              {
                "segmentID": 0,
                "numOfLastSeats": 9,
                "displayLastSeat": false,
                "legs": [
                  {
                    "sellingClass": "J",
                    "cabinClass": "J",
                    "fareClass": "J11NZO"
                  }
                ],
                "eligibleOCRecommendationIDs": [
                  0
                ]
              }
            ],
            "fareFamily": "FF61CHC",
            "fareSummary": {
              "fareTotal": {
                "totalAmount": 4379.14,
                "amountWithoutTax": 4275,
                "tax": 104.14,
                "promoDetails": [
                  {
                    "orginalFareAmount": 8654.14,
                    "promoType": "PROMOCODE"
                  }
                ]
              },
              "fareDetailsPerAdult": {
                "totalAmount": 1477.07,
                "amountWithoutTax": 1425,
                "tax": 52.07,
                "promoDetails": [
                  {
                    "orginalFareAmount": 2902.07,
                    "promoType": "PROMOCODE"
                  }
                ]
              },
              "fareDetailsPerChild": {
                "totalAmount": 1477.07,
                "amountWithoutTax": 1425,
                "tax": 52.07,
                "promoDetails": [
                  {
                    "orginalFareAmount": 2902.07,
                    "promoType": "PROMOCODE"
                  }
                ]
              },
              "fareDetailsPerInfant": {
                "totalAmount": 1425,
                "amountWithoutTax": 1425,
                "tax": 0,
                "promoDetails": [
                  {
                    "orginalFareAmount": 2850,
                    "promoType": "PROMOCODE"
                  }
                ]
              }
            }
          }
        ],
        "fareFamily": "FF61CHC",
        "fareSummary": {
          "fareTotal": {
            "totalAmount": 4379.14,
            "amountWithoutTax": 4275,
            "tax": 104.14,
            "promoDetails": [
              {
                "orginalFareAmount": 8654.14,
                "promoType": "PROMOCODE"
              }
            ]
          },
          "fareDetailsPerAdult": {
            "totalAmount": 1477.07,
            "amountWithoutTax": 1425,
            "tax": 52.07,
            "promoDetails": [
              {
                "orginalFareAmount": 2902.07,
                "promoType": "PROMOCODE"
              }
            ]
          },
          "fareDetailsPerChild": {
            "totalAmount": 1477.07,
            "amountWithoutTax": 1425,
            "tax": 52.07,
            "promoDetails": [
              {
                "orginalFareAmount": 2902.07,
                "promoType": "PROMOCODE"
              }
            ]
          },
          "fareDetailsPerInfant": {
            "totalAmount": 1425,
            "amountWithoutTax": 1425,
            "tax": 0,
            "promoDetails": [
              {
                "orginalFareAmount": 2850,
                "promoType": "PROMOCODE"
              }
            ]
          }
        },
        "creditCardSurchargeFlag": true,
        "creditCardSurchargeValue": 74.7
      },
      {
        "recommendationID": 5,
        "segmentBounds": [
          {
            "segments": [
              {
                "segmentID": 4,
                "numOfLastSeats": 7,
                "displayLastSeat": true,
                "legs": [
                  {
                    "sellingClass": "Y",
                    "cabinClass": "Y",
                    "fareClass": "J11NZO"
                  },
                  {
                    "sellingClass": "J",
                    "cabinClass": "J",
                    "fareClass": "J11NZO"
                  }
                ],
                "eligibleOCRecommendationIDs": [
                  0
                ]
              },
              {
                "segmentID": 5,
                "numOfLastSeats": 7,
                "displayLastSeat": true,
                "legs": [
                  {
                    "sellingClass": "Y",
                    "cabinClass": "Y",
                    "fareClass": "J11NZO"
                  },
                  {
                    "sellingClass": "J",
                    "cabinClass": "J",
                    "fareClass": "J11NZO"
                  }
                ],
                "eligibleOCRecommendationIDs": [
                  0
                ]
              }
            ],
            "fareFamily": "FF61CHC",
            "fareSummary": {
              "fareTotal": {
                "totalAmount": 8612.14,
                "amountWithoutTax": 8550,
                "tax": 62.14
              },
              "fareDetailsPerAdult": {
                "totalAmount": 2881.07,
                "amountWithoutTax": 2850,
                "tax": 31.07
              },
              "fareDetailsPerChild": {
                "totalAmount": 2881.07,
                "amountWithoutTax": 2850,
                "tax": 31.07
              },
              "fareDetailsPerInfant": {
                "totalAmount": 2850,
                "amountWithoutTax": 2850,
                "tax": 0
              }
            }
          }
        ],
        "fareFamily": "FF61CHC",
        "fareSummary": {
          "fareTotal": {
            "totalAmount": 8612.14,
            "amountWithoutTax": 8550,
            "tax": 62.14
          },
          "fareDetailsPerAdult": {
            "totalAmount": 2881.07,
            "amountWithoutTax": 2850,
            "tax": 31.07
          },
          "fareDetailsPerChild": {
            "totalAmount": 2881.07,
            "amountWithoutTax": 2850,
            "tax": 31.07
          },
          "fareDetailsPerInfant": {
            "totalAmount": 2850,
            "amountWithoutTax": 2850,
            "tax": 0
          }
        },
        "creditCardSurchargeFlag": true,
        "creditCardSurchargeValue": 146.5
      },
      {
        "recommendationID": 6,
        "segmentBounds": [
          {
            "segments": [
              {
                "segmentID": 6,
                "numOfLastSeats": 7,
                "displayLastSeat": true,
                "legs": [
                  {
                    "sellingClass": "Y",
                    "cabinClass": "Y",
                    "fareClass": "J11NZO"
                  },
                  {
                    "sellingClass": "J",
                    "cabinClass": "J",
                    "fareClass": "J11NZO"
                  }
                ],
                "eligibleOCRecommendationIDs": [
                  0
                ]
              }
            ],
            "fareFamily": "FF61CHC",
            "fareSummary": {
              "fareTotal": {
                "totalAmount": 8615.96,
                "amountWithoutTax": 8550,
                "tax": 65.96
              },
              "fareDetailsPerAdult": {
                "totalAmount": 2882.98,
                "amountWithoutTax": 2850,
                "tax": 32.98
              },
              "fareDetailsPerChild": {
                "totalAmount": 2882.98,
                "amountWithoutTax": 2850,
                "tax": 32.98
              },
              "fareDetailsPerInfant": {
                "totalAmount": 2850,
                "amountWithoutTax": 2850,
                "tax": 0
              }
            }
          }
        ],
        "fareFamily": "FF61CHC",
        "fareSummary": {
          "fareTotal": {
            "totalAmount": 8615.96,
            "amountWithoutTax": 8550,
            "tax": 65.96
          },
          "fareDetailsPerAdult": {
            "totalAmount": 2882.98,
            "amountWithoutTax": 2850,
            "tax": 32.98
          },
          "fareDetailsPerChild": {
            "totalAmount": 2882.98,
            "amountWithoutTax": 2850,
            "tax": 32.98
          },
          "fareDetailsPerInfant": {
            "totalAmount": 2850,
            "amountWithoutTax": 2850,
            "tax": 0
          }
        },
        "creditCardSurchargeFlag": true,
        "creditCardSurchargeValue": 146.7
      },
      {
        "recommendationID": 7,
        "segmentBounds": [
          {
            "segments": [
              {
                "segmentID": 7,
                "numOfLastSeats": 7,
                "displayLastSeat": true,
                "legs": [
                  {
                    "sellingClass": "D",
                    "cabinClass": "J",
                    "fareClass": "J11NZO"
                  },
                  {
                    "sellingClass": "J",
                    "cabinClass": "J",
                    "fareClass": "J11NZO"
                  }
                ],
                "eligibleOCRecommendationIDs": [
                  0
                ]
              }
            ],
            "fareFamily": "FF61CHC",
            "fareSummary": {
              "fareTotal": {
                "totalAmount": 8620.34,
                "amountWithoutTax": 8550,
                "tax": 70.34
              },
              "fareDetailsPerAdult": {
                "totalAmount": 2885.17,
                "amountWithoutTax": 2850,
                "tax": 35.17
              },
              "fareDetailsPerChild": {
                "totalAmount": 2885.17,
                "amountWithoutTax": 2850,
                "tax": 35.17
              },
              "fareDetailsPerInfant": {
                "totalAmount": 2850,
                "amountWithoutTax": 2850,
                "tax": 0
              }
            }
          }
        ],
        "fareFamily": "FF61CHC",
        "fareSummary": {
          "fareTotal": {
            "totalAmount": 8620.34,
            "amountWithoutTax": 8550,
            "tax": 70.34
          },
          "fareDetailsPerAdult": {
            "totalAmount": 2885.17,
            "amountWithoutTax": 2850,
            "tax": 35.17
          },
          "fareDetailsPerChild": {
            "totalAmount": 2885.17,
            "amountWithoutTax": 2850,
            "tax": 35.17
          },
          "fareDetailsPerInfant": {
            "totalAmount": 2850,
            "amountWithoutTax": 2850,
            "tax": 0
          }
        },
        "creditCardSurchargeFlag": true,
        "creditCardSurchargeValue": 146.7
      },
      {
        "recommendationID": 8,
        "segmentBounds": [
          {
            "segments": [
              {
                "segmentID": 6,
                "numOfLastSeats": 4,
                "displayLastSeat": true,
                "legs": [
                  {
                    "sellingClass": "Y",
                    "cabinClass": "Y",
                    "fareClass": "A11NZO"
                  },
                  {
                    "sellingClass": "A",
                    "cabinClass": "F",
                    "fareClass": "A11NZO"
                  }
                ],
                "eligibleOCRecommendationIDs": [
                  0
                ]
              }
            ],
            "fareFamily": "FF91CHC",
            "fareSummary": {
              "fareTotal": {
                "totalAmount": 11165.96,
                "amountWithoutTax": 11100,
                "tax": 65.96
              },
              "fareDetailsPerAdult": {
                "totalAmount": 3732.98,
                "amountWithoutTax": 3700,
                "tax": 32.98
              },
              "fareDetailsPerChild": {
                "totalAmount": 3732.98,
                "amountWithoutTax": 3700,
                "tax": 32.98
              },
              "fareDetailsPerInfant": {
                "totalAmount": 3700,
                "amountWithoutTax": 3700,
                "tax": 0
              }
            }
          }
        ],
        "fareFamily": "FF91CHC",
        "fareSummary": {
          "fareTotal": {
            "totalAmount": 11165.96,
            "amountWithoutTax": 11100,
            "tax": 65.96
          },
          "fareDetailsPerAdult": {
            "totalAmount": 3732.98,
            "amountWithoutTax": 3700,
            "tax": 32.98
          },
          "fareDetailsPerChild": {
            "totalAmount": 3732.98,
            "amountWithoutTax": 3700,
            "tax": 32.98
          },
          "fareDetailsPerInfant": {
            "totalAmount": 3700,
            "amountWithoutTax": 3700,
            "tax": 0
          }
        },
        "creditCardSurchargeFlag": true,
        "creditCardSurchargeValue": 189.9
      }
    ],
    "ocRecommendations": [
      {
        "ocRecommendationID": 0,
        "tttInfoBound": [
          {
            "travllerInfo": [
              {
                "type": "ADT",
                "count": 1
              }
            ],
            "pricingAmountType": "PU",
            "pricingAmount": 10
          },
          {
            "travllerInfo": [
              {
                "type": "ADT",
                "count": 1
              }
            ],
            "pricingAmountType": "PU",
            "pricingAmount": 10
          }
        ],
        "totalPricingAmout": 60
      }
    ],
    "flights": [
      {
        "originAirportCode": "WLG",
        "destinationAirportCode": "SIN",
        "departureDate": "2018-07-18",
        "segments": [
          {
            "segmentID": 0,
            "originAirportCode": "WLG",
            "destinationAirportCode": "SIN",
            "departureDateTime": "2018-07-18 20:15:00",
            "arrivalDateTime": "2018-07-19 05:40:00",
            "legs": [
              {
                "legID": 0,
                "flightNumber": "292",
                "originAirportCode": "WLG",
                "destinationAirportCode": "SIN",
                "arrivalTerminal": "0",
                "departureDateTime": "2018-07-18 20:15:00",
                "arrivalDateTime": "2018-07-19 05:40:00",
                "operatingAirline": {
                  "code": "SQ",
                  "name": "Singapore Airlines"
                },
                "marketingAirline": {
                  "code": "SQ",
                  "name": "Singapore Airlines"
                },
                "aircraft": {
                  "code": "772",
                  "name": "Boeing 777-200"
                },
                "stops": [
                  {
                    "arrivalDateTime": "2018-07-18 22:05:00",
                    "departureDateTime": "2018-07-18 23:30:00",
                    "airportCode": "CBR",
                    "layoverDuration": 5100
                  }
                ],
                "flightDuration": 48300,
                "layoverDuration": 0,
                "codeShareFlight": false
              }
            ],
            "tripDuration": 48300
          },
          {
            "segmentID": 1,
            "originAirportCode": "WLG",
            "destinationAirportCode": "SIN",
            "departureDateTime": "2018-07-18 06:00:00",
            "arrivalDateTime": "2018-07-18 15:30:00",
            "legs": [
              {
                "legID": 0,
                "flightNumber": "6525",
                "originAirportCode": "WLG",
                "destinationAirportCode": "BNE",
                "arrivalTerminal": "I",
                "departureDateTime": "2018-07-18 06:00:00",
                "arrivalDateTime": "2018-07-18 08:00:00",
                "operatingAirline": {
                  "code": "VA",
                  "name": "Virgin Australia"
                },
                "marketingAirline": {
                  "code": "SQ",
                  "name": "Singapore Airlines"
                },
                "aircraft": {
                  "code": "73H",
                  "name": "Boeing 737-800 (Winglets)"
                },
                "stops": [],
                "flightDuration": 14400,
                "layoverDuration": 4200,
                "codeShareFlight": true
              },
              {
                "legID": 0,
                "flightNumber": "256",
                "originAirportCode": "BNE",
                "destinationAirportCode": "SIN",
                "departureTerminal": "I",
                "arrivalTerminal": "0",
                "departureDateTime": "2018-07-18 09:10:00",
                "arrivalDateTime": "2018-07-18 15:30:00",
                "operatingAirline": {
                  "code": "SQ",
                  "name": "Singapore Airlines"
                },
                "marketingAirline": {
                  "code": "SQ",
                  "name": "Singapore Airlines"
                },
                "aircraft": {
                  "code": "359",
                  "name": "Airbus A350-900"
                },
                "stops": [],
                "flightDuration": 30000,
                "layoverDuration": 0,
                "codeShareFlight": false
              }
            ],
            "tripDuration": 48600
          },
          {
            "segmentID": 2,
            "originAirportCode": "WLG",
            "destinationAirportCode": "SIN",
            "departureDateTime": "2018-07-18 06:00:00",
            "arrivalDateTime": "2018-07-18 20:45:00",
            "legs": [
              {
                "legID": 0,
                "flightNumber": "6525",
                "originAirportCode": "WLG",
                "destinationAirportCode": "BNE",
                "arrivalTerminal": "I",
                "departureDateTime": "2018-07-18 06:00:00",
                "arrivalDateTime": "2018-07-18 08:00:00",
                "operatingAirline": {
                  "code": "VA",
                  "name": "Virgin Australia"
                },
                "marketingAirline": {
                  "code": "SQ",
                  "name": "Singapore Airlines"
                },
                "aircraft": {
                  "code": "73H",
                  "name": "Boeing 737-800 (Winglets)"
                },
                "stops": [],
                "flightDuration": 14400,
                "layoverDuration": 23400,
                "codeShareFlight": true
              },
              {
                "legID": 0,
                "flightNumber": "236",
                "originAirportCode": "BNE",
                "destinationAirportCode": "SIN",
                "departureTerminal": "I",
                "arrivalTerminal": "0",
                "departureDateTime": "2018-07-18 14:30:00",
                "arrivalDateTime": "2018-07-18 20:45:00",
                "operatingAirline": {
                  "code": "SQ",
                  "name": "Singapore Airlines"
                },
                "marketingAirline": {
                  "code": "SQ",
                  "name": "Singapore Airlines"
                },
                "aircraft": {
                  "code": "359",
                  "name": "Airbus A350-900"
                },
                "stops": [],
                "flightDuration": 29700,
                "layoverDuration": 0,
                "codeShareFlight": false
              }
            ],
            "tripDuration": 67500
          },
          {
            "segmentID": 3,
            "originAirportCode": "WLG",
            "destinationAirportCode": "SIN",
            "departureDateTime": "2018-07-18 15:15:00",
            "arrivalDateTime": "2018-07-19 06:20:00",
            "legs": [
              {
                "legID": 0,
                "flightNumber": "6523",
                "originAirportCode": "WLG",
                "destinationAirportCode": "BNE",
                "arrivalTerminal": "I",
                "departureDateTime": "2018-07-18 15:15:00",
                "arrivalDateTime": "2018-07-18 17:15:00",
                "operatingAirline": {
                  "code": "VA",
                  "name": "Virgin Australia"
                },
                "marketingAirline": {
                  "code": "SQ",
                  "name": "Singapore Airlines"
                },
                "aircraft": {
                  "code": "73H",
                  "name": "Boeing 737-800 (Winglets)"
                },
                "stops": [],
                "flightDuration": 14400,
                "layoverDuration": 24000,
                "codeShareFlight": true
              },
              {
                "legID": 0,
                "flightNumber": "246",
                "originAirportCode": "BNE",
                "destinationAirportCode": "SIN",
                "departureTerminal": "I",
                "arrivalTerminal": "0",
                "departureDateTime": "2018-07-18 23:55:00",
                "arrivalDateTime": "2018-07-19 06:20:00",
                "operatingAirline": {
                  "code": "SQ",
                  "name": "Singapore Airlines"
                },
                "marketingAirline": {
                  "code": "SQ",
                  "name": "Singapore Airlines"
                },
                "aircraft": {
                  "code": "359",
                  "name": "Airbus A350-900"
                },
                "stops": [],
                "flightDuration": 30300,
                "layoverDuration": 0,
                "codeShareFlight": false
              }
            ],
            "tripDuration": 68700
          },
          {
            "segmentID": 4,
            "originAirportCode": "WLG",
            "destinationAirportCode": "SIN",
            "departureDateTime": "2018-07-18 08:35:00",
            "arrivalDateTime": "2018-07-18 17:40:00",
            "legs": [
              {
                "legID": 0,
                "flightNumber": "339",
                "originAirportCode": "WLG",
                "destinationAirportCode": "CHC",
                "departureDateTime": "2018-07-18 08:35:00",
                "arrivalDateTime": "2018-07-18 09:25:00",
                "operatingAirline": {
                  "code": "NZ",
                  "name": "Air New Zealand"
                },
                "marketingAirline": {
                  "code": "NZ",
                  "name": "Air New Zealand"
                },
                "aircraft": {
                  "code": "320",
                  "name": "Airbus A320"
                },
                "stops": [],
                "flightDuration": 3000,
                "layoverDuration": 5100,
                "codeShareFlight": false
              },
              {
                "legID": 0,
                "flightNumber": "298",
                "originAirportCode": "CHC",
                "destinationAirportCode": "SIN",
                "arrivalTerminal": "0",
                "departureDateTime": "2018-07-18 10:50:00",
                "arrivalDateTime": "2018-07-18 17:40:00",
                "operatingAirline": {
                  "code": "SQ",
                  "name": "Singapore Airlines"
                },
                "marketingAirline": {
                  "code": "SQ",
                  "name": "Singapore Airlines"
                },
                "aircraft": {
                  "code": "772",
                  "name": "Boeing 777-200"
                },
                "stops": [],
                "flightDuration": 39000,
                "layoverDuration": 0,
                "codeShareFlight": false
              }
            ],
            "tripDuration": 47100
          },
          {
            "segmentID": 6,
            "originAirportCode": "WLG",
            "destinationAirportCode": "SIN",
            "departureDateTime": "2018-07-18 09:45:00",
            "arrivalDateTime": "2018-07-18 19:00:00",
            "legs": [
              {
                "legID": 0,
                "flightNumber": "416",
                "originAirportCode": "WLG",
                "destinationAirportCode": "AKL",
                "arrivalTerminal": "D",
                "departureDateTime": "2018-07-18 09:45:00",
                "arrivalDateTime": "2018-07-18 10:50:00",
                "operatingAirline": {
                  "code": "NZ",
                  "name": "Air New Zealand"
                },
                "marketingAirline": {
                  "code": "NZ",
                  "name": "Air New Zealand"
                },
                "aircraft": {
                  "code": "320",
                  "name": "Airbus A320"
                },
                "stops": [],
                "flightDuration": 3900,
                "layoverDuration": 4800,
                "codeShareFlight": false
              },
              {
                "legID": 0,
                "flightNumber": "286",
                "originAirportCode": "AKL",
                "destinationAirportCode": "SIN",
                "departureTerminal": "I",
                "arrivalTerminal": "0",
                "departureDateTime": "2018-07-18 12:10:00",
                "arrivalDateTime": "2018-07-18 19:00:00",
                "operatingAirline": {
                  "code": "SQ",
                  "name": "Singapore Airlines"
                },
                "marketingAirline": {
                  "code": "SQ",
                  "name": "Singapore Airlines"
                },
                "aircraft": {
                  "code": "77W",
                  "name": "Boeing 777-300ER"
                },
                "stops": [],
                "flightDuration": 39000,
                "layoverDuration": 0,
                "codeShareFlight": false
              }
            ],
            "tripDuration": 47700
          },
          {
            "segmentID": 7,
            "originAirportCode": "WLG",
            "destinationAirportCode": "SIN",
            "departureDateTime": "2018-07-18 06:00:00",
            "arrivalDateTime": "2018-07-18 15:30:00",
            "legs": [
              {
                "legID": 0,
                "flightNumber": "100",
                "originAirportCode": "WLG",
                "destinationAirportCode": "BNE",
                "arrivalTerminal": "I",
                "departureDateTime": "2018-07-18 06:00:00",
                "arrivalDateTime": "2018-07-18 08:00:00",
                "operatingAirline": {
                  "code": "VA",
                  "name": "Virgin Australia"
                },
                "marketingAirline": {
                  "code": "VA",
                  "name": "Virgin Australia"
                },
                "aircraft": {
                  "code": "73H",
                  "name": "Boeing 737-800 (Winglets)"
                },
                "stops": [],
                "flightDuration": 14400,
                "layoverDuration": 4200,
                "codeShareFlight": false
              },
              {
                "legID": 0,
                "flightNumber": "256",
                "originAirportCode": "BNE",
                "destinationAirportCode": "SIN",
                "departureTerminal": "I",
                "arrivalTerminal": "0",
                "departureDateTime": "2018-07-18 09:10:00",
                "arrivalDateTime": "2018-07-18 15:30:00",
                "operatingAirline": {
                  "code": "SQ",
                  "name": "Singapore Airlines"
                },
                "marketingAirline": {
                  "code": "SQ",
                  "name": "Singapore Airlines"
                },
                "aircraft": {
                  "code": "359",
                  "name": "Airbus A350-900"
                },
                "stops": [],
                "flightDuration": 30000,
                "layoverDuration": 0,
                "codeShareFlight": false
              }
            ],
            "tripDuration": 48600
          },
          {
            "segmentID": 5,
            "originAirportCode": "WLG",
            "destinationAirportCode": "SIN",
            "departureDateTime": "2018-07-18 08:05:00",
            "arrivalDateTime": "2018-07-18 17:40:00",
            "legs": [
              {
                "legID": 0,
                "flightNumber": "5337",
                "originAirportCode": "WLG",
                "destinationAirportCode": "CHC",
                "departureDateTime": "2018-07-18 08:05:00",
                "arrivalDateTime": "2018-07-18 09:05:00",
                "operatingAirline": {
                  "code": "NZ",
                  "name": "Air New Zealand"
                },
                "marketingAirline": {
                  "code": "NZ",
                  "name": "Air New Zealand"
                },
                "aircraft": {
                  "code": "AT7",
                  "name": "Aerospatiale ATR72"
                },
                "stops": [],
                "flightDuration": 3600,
                "layoverDuration": 6300,
                "codeShareFlight": false
              },
              {
                "legID": 0,
                "flightNumber": "298",
                "originAirportCode": "CHC",
                "destinationAirportCode": "SIN",
                "arrivalTerminal": "0",
                "departureDateTime": "2018-07-18 10:50:00",
                "arrivalDateTime": "2018-07-18 17:40:00",
                "operatingAirline": {
                  "code": "SQ",
                  "name": "Singapore Airlines"
                },
                "marketingAirline": {
                  "code": "SQ",
                  "name": "Singapore Airlines"
                },
                "aircraft": {
                  "code": "772",
                  "name": "Boeing 777-200"
                },
                "stops": [],
                "flightDuration": 39000,
                "layoverDuration": 0,
                "codeShareFlight": false
              }
            ],
            "tripDuration": 48900
          }
        ]
      }
    ],
    "fareFamilies": [
      {
        "fareFamily": "FF71CHC",
        "fareFamilyCode": "FF7",
        "fareFamilyName": "Business Standard",
        "cabinClassName": "Business",
        "cabinClass": "J",
        "itinChangeAllowed": false,
        "itinCancelRefundAllowed": false,
        "itinEarnMilesAllowed": false,
        "itinAwardUpgradeAllowed": false,
        "promotionalFF": false
      },
      {
        "fareFamily": "FF61CHC",
        "fareFamilyCode": "FF6",
        "fareFamilyName": "Business Flexi",
        "cabinClassName": "Business",
        "cabinClass": "J",
        "itinChangeAllowed": false,
        "itinCancelRefundAllowed": false,
        "itinEarnMilesAllowed": false,
        "itinAwardUpgradeAllowed": false,
        "promotionalFF": false
      },
      {
        "fareFamily": "FF91CHC",
        "fareFamilyCode": "FF9",
        "fareFamilyName": "FIRST/SUITES",
        "cabinClassName": "First",
        "cabinClass": "F",
        "itinChangeAllowed": false,
        "itinCancelRefundAllowed": false,
        "itinEarnMilesAllowed": false,
        "itinAwardUpgradeAllowed": false,
        "promotionalFF": false
      }
    ],
    "airports": [
      {
        "airportCode": "CBR",
        "airportName": "Canberra",
        "stateCode": "AC",
        "stateName": "AC",
        "cityCode": "CBR",
        "cityName": "Canberra",
        "countryCode": "AU",
        "countryName": "Australia"
      },
      {
        "airportCode": "AKL",
        "airportName": "Auckland Intl",
        "cityCode": "AKL",
        "cityName": "Auckland",
        "countryCode": "NZ",
        "countryName": "New Zealand"
      },
      {
        "airportCode": "WLG",
        "airportName": "Wellington Intl",
        "cityCode": "WLG",
        "cityName": "Wellington",
        "countryCode": "NZ",
        "countryName": "New Zealand"
      },
      {
        "airportCode": "BNE",
        "airportName": "Brisbane Intl",
        "stateCode": "QL",
        "stateName": "QL",
        "cityCode": "BNE",
        "cityName": "Brisbane",
        "countryCode": "AU",
        "countryName": "Australia"
      },
      {
        "airportCode": "SIN",
        "airportName": "Changi",
        "cityCode": "SIN",
        "cityName": "Singapore",
        "countryCode": "SG",
        "countryName": "Singapore"
      },
      {
        "airportCode": "CHC",
        "airportName": "Christchurch Intl",
        "cityCode": "CHC",
        "cityName": "Christchurch",
        "countryCode": "NZ",
        "countryName": "New Zealand"
      }
    ],
    "creditCardSurcharge": true,
    "fourDigtfareFamilyCode": [
      "FC01",
      "FC11",
      "FC21",
      "FC31",
      "FC41",
      "FC51",
      "FF13",
      "FF14"
    ]
  },
  "clientUUID": "_05u8KngEs5JU0zwVb6PiG4oiaPckVpcbVB2hygvvmy7ABN8Oz-P!1987779533!1530869623264",
  "pageTicket": 0,
  "status": "SUCCESS",
  "code": "200",
  "message": ""
}