{
  "fareFamilyCondition": [
    {
      "description": "FF71CHC"
    }
  ],
  "bookingSummary": {
    "locale": "en_UK",
    "adultCount": 1,
    "childCount": 1,
    "infantCount": 1,
    "precision": 2,
    "currency": "NZD",
    "fareTotal": 7500,
    "taxTotal": 77.34,
    "surchargeTotal": 0,
    "fareSubTotal": 7577.34,
    "grandTotal": 7577.34,
    "flight": [
      {
        "totalTravelTime": "18hrs 45mins",
        "origin": "Wellington",
        "destination": "Singapore",
        "originAirportCode": "WLG",
        "destinationAirportCode": "SIN",
        "flightSegments": [
          {
            "carrierCode": "SQ",
            "operatingCarrier": "Virgin Australia",
            "carrierName": "Singapore Airlines",
            "airCraftType": "Boeing 737-800 (Winglets)",
            "flightNumber": "6525",
            "cabinClassDesc": "Business (U)",
            "layoverTime": "6hrs 30mins",
            "deparure": {
              "time": "06:00",
              "date": "18 Jul(Wed)",
              "airportCode": "WLG",
              "airportName": "Wellington Intl",
              "cityCode": "WLG",
              "cityName": "Wellington"
            },
            "arrival": {
              "time": "08:00",
              "date": "18 Jul(Wed)",
              "airportCode": "BNE",
              "airportName": "Brisbane Intl",
              "cityCode": "BNE",
              "cityName": "Brisbane",
              "terminal": "I"
            },
            "flyingTime": "4hrs",
            "aircraftTypeCode": "73H"
          },
          {
            "carrierCode": "SQ",
            "operatingCarrier": "NA",
            "carrierName": "Singapore Airlines",
            "airCraftType": "Airbus A350-900",
            "flightNumber": "236",
            "cabinClassDesc": "Business (U)",
            "deparure": {
              "time": "14:30",
              "date": "18 Jul(Wed)",
              "airportCode": "BNE",
              "airportName": "Brisbane Intl",
              "cityCode": "BNE",
              "cityName": "Brisbane",
              "terminal": "I"
            },
            "arrival": {
              "time": "20:45",
              "date": "18 Jul(Wed)",
              "airportCode": "SIN",
              "airportName": "Changi",
              "cityCode": "SIN",
              "cityName": "Singapore",
              "terminal": "0"
            },
            "flyingTime": "8hrs 15mins",
            "aircraftTypeCode": "359"
          }
        ],
        "isMixedCabinClass": false,
        "flownFlag": false
      }
    ],
    "paxDetails": [
      {
        "paxType": "Adult",
        "id": 0,
        "paxName": "Adult 1",
        "fareDetails": {
          "totalCost": 0,
          "fareAmount": 0,
          "taxAmount": 0,
          "surchargeAmount": 0,
          "qSurchargeAmount": 0,
          "othersAmount": 0,
          "totalMiles": 0
        },
        "detailsPerFlight": [
          {
            "flightNo": "SQ6525",
            "from": "WLG",
            "to": "BNE",
            "departureDate": "2018-07-18 06:00:00",
            "id": "0",
            "originAirportCode": "WLG",
            "destinationAirportCode": "BNE",
            "originCityName": "Wellington",
            "destinationCityName": "Brisbane",
            "formattedDepDate": "18 Jul 2018 (Wed)",
            "operatingAirlineCode": "VA",
            "marketingAirlineCode": "SQ",
            "railPresent": false
          },
          {
            "flightNo": "SQ236",
            "from": "BNE",
            "to": "SIN",
            "departureDate": "2018-07-18 14:30:00",
            "id": "0",
            "originAirportCode": "BNE",
            "destinationAirportCode": "SIN",
            "originCityName": "Brisbane",
            "destinationCityName": "Singapore",
            "formattedDepDate": "18 Jul 2018 (Wed)",
            "operatingAirlineCode": "SQ",
            "marketingAirlineCode": "SQ",
            "railPresent": false
          }
        ],
        "isKrisFlyer": false
      },
      {
        "paxType": "Child",
        "id": 0,
        "paxName": "Child 1",
        "fareDetails": {
          "totalCost": 0,
          "fareAmount": 0,
          "taxAmount": 0,
          "surchargeAmount": 0,
          "qSurchargeAmount": 0,
          "othersAmount": 0,
          "totalMiles": 0
        },
        "detailsPerFlight": [
          {
            "flightNo": "SQ6525",
            "from": "WLG",
            "to": "BNE",
            "departureDate": "2018-07-18 06:00:00",
            "id": "0",
            "originAirportCode": "WLG",
            "destinationAirportCode": "BNE",
            "originCityName": "Wellington",
            "destinationCityName": "Brisbane",
            "formattedDepDate": "18 Jul 2018 (Wed)",
            "operatingAirlineCode": "VA",
            "marketingAirlineCode": "SQ",
            "railPresent": false
          },
          {
            "flightNo": "SQ236",
            "from": "BNE",
            "to": "SIN",
            "departureDate": "2018-07-18 14:30:00",
            "id": "0",
            "originAirportCode": "BNE",
            "destinationAirportCode": "SIN",
            "originCityName": "Brisbane",
            "destinationCityName": "Singapore",
            "formattedDepDate": "18 Jul 2018 (Wed)",
            "operatingAirlineCode": "SQ",
            "marketingAirlineCode": "SQ",
            "railPresent": false
          }
        ],
        "isKrisFlyer": false
      },
      {
        "paxType": "Infant",
        "id": 0,
        "paxName": "Infant 1",
        "fareDetails": {
          "totalCost": 2500,
          "fareAmount": 2500,
          "taxAmount": 0,
          "surchargeAmount": 0,
          "qSurchargeAmount": 0,
          "othersAmount": 0,
          "totalMiles": 0
        },
        "detailsPerFlight": [
          {
            "flightNo": "SQ6525",
            "from": "WLG",
            "to": "BNE",
            "departureDate": "2018-07-18 06:00:00",
            "id": "0",
            "originAirportCode": "WLG",
            "destinationAirportCode": "BNE",
            "originCityName": "Wellington",
            "destinationCityName": "Brisbane",
            "formattedDepDate": "18 Jul 2018 (Wed)",
            "operatingAirlineCode": "VA",
            "marketingAirlineCode": "SQ",
            "railPresent": false
          },
          {
            "flightNo": "SQ236",
            "from": "BNE",
            "to": "SIN",
            "departureDate": "2018-07-18 14:30:00",
            "id": "0",
            "originAirportCode": "BNE",
            "destinationAirportCode": "SIN",
            "originCityName": "Brisbane",
            "destinationCityName": "Singapore",
            "formattedDepDate": "18 Jul 2018 (Wed)",
            "operatingAirlineCode": "SQ",
            "marketingAirlineCode": "SQ",
            "railPresent": false
          }
        ],
        "isKrisFlyer": false
      }
    ],
    "costPayableByMiles": 0,
    "costPayableByCash": 0,
    "creditCardSurcharge": 0,
    "totalCCSurchargeAmount": 0,
    "addonSubTotal": 0,
    "othersTotal": 0,
    "tttAmount": 0,
    "milesAllocated": 0,
    "paxAddOnTotal": 0,
    "commonAddOnsTotal": 0,
    "seatTotal": 0,
    "cardTypeSelected": "CC",
    "tripType": "O",
    "legIdUpdated": false,
    "mpFlow": false
  },
  "fareAvailablityVO": {
    "messages": {
      "O5FF61CHC": "A few seats left",
      "O5FF71CHC": "A few seats left",
      "O2FF71CHC": "A few seats left",
      "O0FF61CHC": "A few seats left",
      "O4FF61CHC": "A few seats left",
      "O6FF61CHC": "A few seats left",
      "O4FF71CHC": "A few seats left",
      "O1FF71CHC": "A few seats left",
      "O2FF61CHC": "A few seats left",
      "O6FF71CHC": "A few seats left",
      "O1FF61CHC": "A few seats left",
      "O2FF91CHC": "A few seats left",
      "O3FF71CHC": "A few seats left",
      "O0FF71CHC": "A few seats left",
      "O3FF61CHC": "A few seats left"
    },
    "defaults": [
      "O5FF71CHC"
    ]
  },
  "tttEnabled": false,
  "tttDisabled": true,
  "odSpecificMessages": []
}