{
  "bookingSummary": {
    "locale": "en_UK",
    "adultCount": 2,
    "childCount": 1,
    "infantCount": 0,
    "precision": 2,
    "currency": "SGD",
    "taxTotal": 102.00,
    "surchargeTotal": 146.10,
    "fareSubTotal": 248.10,
    "grandTotal": 248.10,
    "milesAllocated": 0,
    "totalMilesForORB": 19125,
    "orbQSurchargeTotal": 0.00,
    "oldItinerary": {
      "currency": "SGD",
      "taxTotal": 278.40,
      "surchargeTotal": 1046.70,
      "grandTotal": 1325.10,
      "costPaidBymiles": 0,
      "totalMilesForORB": 178500
    },
    "rebookingFee": 51.00,
    "totalToBePaidMiles": 0,
    "cashToBeRefunded": 1026.00,
    "milesToBeRefunded": 0,
    "scenario": "ORC",
    "flight": [{
      "totalTravelTime": "0hrs 55mins",
      "origin": "Singapore",
      "destination": "Kuala Lumpur",
      "flightSegments": [{
        "carrierCode": "MI",
        "airCraftType": "Airbus A320",
        "flightNumber": "320",
        "cabinClassDesc": "Economy(X)",
        "deparure": {
          "time": "06:00",
          "date": "17 Aug (Mon)",
          "airportCode": "SIN",
          "airportName": "Changi Intl",
          "cityCode": "SIN",
          "cityName": "Singapore",
          "terminal": "2"
        },
        "arrival": {
          "time": "06:55",
          "date": "17 Aug (Mon)",
          "airportCode": "KUL",
          "airportName": "Kuala Lumpur Intl",
          "cityCode": "KUL",
          "cityName": "Kuala Lumpur",
          "terminal": "M"
        }
      }]
    }],
    "waitListFlights": [],
    "paxDetails": [{
      "paxType": "Adult",
      "id": 2,
      "paxName": "TWO TESTA",
      "fareDetails": {
        "totalCost": 37.95,
        "totalMiles": 6375,
        "fareAmount": 0.00,
        "taxAmount": 17.00,
        "surchargeAmount": 20.95,
        "qSurchargeAmount": 0.00,
        "surcharge": [{
          "amount": 20.95,
          "code": "YQ",
          "description": "Airline Fuel and Insurance Surcharge"
        }],
        "taxes": [{
          "amount": 9.95,
          "code": "SG",
          "description": "Passenger Service and Security Charge"
        }, {
          "amount": 3.05,
          "code": "OP",
          "description": "Aviation Levy"
        }, {
          "amount": 4.00,
          "code": "OO",
          "description": "Passenger Security Service Charge"
        }],
        "orbQSurcharge": []
      },
      "detailsPerFlight": [{
        "flightNo": "MI320",
        "from": "SIN",
        "to": "KUL",
        "departureDate": "Mon Aug 17 06:00:00 IST 2015"
      }]
    }, {
      "paxType": "Adult",
      "id": 3,
      "paxName": " ADDNOMINEE",
      "fareDetails": {
        "totalCost": 37.95,
        "totalMiles": 6375,
        "fareAmount": 0.00,
        "taxAmount": 17.00,
        "surchargeAmount": 20.95,
        "qSurchargeAmount": 0.00,
        "surcharge": [{
          "amount": 20.95,
          "code": "YQ",
          "description": "Airline Fuel and Insurance Surcharge"
        }],
        "taxes": [{
          "amount": 9.95,
          "code": "SG",
          "description": "Passenger Service and Security Charge"
        }, {
          "amount": 3.05,
          "code": "OP",
          "description": "Aviation Levy"
        }, {
          "amount": 4.00,
          "code": "OO",
          "description": "Passenger Security Service Charge"
        }],
        "orbQSurcharge": []
      },
      "detailsPerFlight": [{
        "flightNo": "MI320",
        "from": "SIN",
        "to": "KUL",
        "departureDate": "Mon Aug 17 06:00:00 IST 2015"
      }]
    }, {
      "paxType": "Child",
      "id": 4,
      "paxName": "THREE TESTA",
      "fareDetails": {
        "totalCost": 75.90,
        "totalMiles": 6375,
        "fareAmount": 0.00,
        "taxAmount": 34.00,
        "surchargeAmount": 41.90,
        "qSurchargeAmount": 0.00,
        "surcharge": [{
          "amount": 41.90,
          "code": "YQ",
          "description": "Airline Fuel and Insurance Surcharge"
        }],
        "taxes": [{
          "amount": 19.90,
          "code": "SG",
          "description": "Passenger Service and Security Charge"
        }, {
          "amount": 6.10,
          "code": "OP",
          "description": "Aviation Levy"
        }, {
          "amount": 8.00,
          "code": "OO",
          "description": "Passenger Security Service Charge"
        }],
        "orbQSurcharge": []
      },
      "detailsPerFlight": [{
        "flightNo": "MI320",
        "from": "SIN",
        "to": "KUL",
        "departureDate": "Mon Aug 17 06:00:00 IST 2015"
      }]
    }]
  }
}
