{
  "fareFamilyCondition": [
    {
      "isAllowed": false,
      "description": "FF21SIN"
    }
  ],
  "fareAvailablityVO": {
    "messages": {
      "O1FF11SIN": " ",
      "R3FF21SIN": " ",
      "R1FF21SIN": " ",
      "R0FF21SIN": " ",
      "R2FF21SIN": " ",
      "O3FF21SIN": " ",
      "O1FF21SIN": " ",
      "O0FF21SIN": " ",
      "R2FF11SIN": " ",
      "O3FF11SIN": " ",
      "O2FF21SIN": " "
    },
    "packageVO": {
      "type": "ATC",
      "currencyCode": "SGD",
      "fare": 4620.00,
      "tax": 830.20,
      "surcharge": 843.20,
      "total": 6293.40
    }
  },
  "bookingSummary": {
    "adultCount": 2,
    "childCount": 0,
    "infantCount": 0,
    "precision": 2,
    "currency": "SGD",
    "fareTotal": 4620.00,
    "taxTotal": 830.20,
    "surchargeTotal": 843.20,
    "fareSubTotal": 6293.40,
    "grandTotal": 6293.40,
    "milesAllocated": 0,
    "totalMilesForORB": 0,
    "rebookingFee": 0.0,
    "totalToBePaidMiles": 0,
    "cashToBeRefunded": 580.0,
    "milesToBeRefunded": 0,
    "oldItinerary": {
      "currency": "SGD",
      "fareTotal": 5999.4,
      "totalMilesForORB": 0
    },
    "locale": "en_UK",
    "scenario": "ATC",
    "flight": [
      {
        "totalTravelTime": "13hrs 30mins",
        "origin": "Singapore",
        "destination": "London",
        "flightSegments": [
          {
            "carrierCode": "SQ",
            "airCraftType": "Boeing 777-300ER",
            "flightNumber": "318",
            "cabinClassDesc": "ECONOMY(E)",
            "deparure": {
              "time": "12:35",
              "date": "03 Jul (Fri)",
              "airportCode": "SIN",
              "airportName": "Changi Intl",
              "cityCode": "SIN",
              "cityName": "Singapore",
              "terminal": "3"
            },
            "arrival": {
              "time": "19:05",
              "date": "03 Jul (Fri)",
              "airportCode": "LHR",
              "airportName": "Heathrow",
              "cityCode": "LON",
              "cityName": "London",
              "terminal": "2"
            }
          }
        ]
      },
      {
        "totalTravelTime": "12hrs 50mins",
        "origin": "London",
        "destination": "Singapore",
        "flightSegments": [
          {
            "carrierCode": "SQ",
            "airCraftType": "Boeing 777-300ER",
            "flightNumber": "305",
            "cabinClassDesc": "PREMIUM_ECONOMY(P)",
            "deparure": {
              "time": "13:35",
              "date": "24 Jul (Fri)",
              "airportCode": "LHR",
              "airportName": "Heathrow",
              "cityCode": "LON",
              "cityName": "London",
              "terminal": "2"
            },
            "arrival": {
              "time": "09:25",
              "date": "25 Jul (Sat)",
              "airportCode": "SIN",
              "airportName": "Changi Intl",
              "cityCode": "SIN",
              "cityName": "Singapore"
            }
          }
        ]
      }
    ],
    "paxDetails": [
      {
        "paxType": "Adult",
        "id": 0,
        "paxName": "Mr Anoop Krishnan",
        "fareDetails": {
          "totalCost": 3146.70,
          "totalMiles": 0,
          "fareAmount": 2310.00,
          "taxAmount": 415.10,
          "surchargeAmount": 421.60,
          "surcharge": [
            {
              "amount": 13.60,
              "code": "YQAD",
              "description": "Airline Insurance"
            },
            {
              "amount": 408.00,
              "code": "YQAC",
              "description": "Airline Fuel Surcharge"
            }
          ],
          "taxes": [
            {
              "amount": 87.10,
              "code": "UB",
              "description": "Passenger Service Charge - (Domestic/International)"
            },
            {
              "amount": 19.90,
              "code": "SG",
              "description": "Passenger Service and Security Charge"
            },
            {
              "amount": 6.10,
              "code": "OP",
              "description": "Aviation Levy"
            },
            {
              "amount": 8.00,
              "code": "OO",
              "description": "Passenger Security Service Charge"
            },
            {
              "amount": 294.00,
              "code": "GB",
              "description": "Air Passenger Duty (APD) (Domestic/International)"
            }
          ]
        },
        "detailsPerFlight": [
          {
            "flightNo": "SQ318",
            "from": "SIN",
            "to": "LON",
            "departureDate": "Fri Jul 03 12:35:00 IST 2015"
          },
          {
            "flightNo": "SQ305",
            "from": "LON",
            "to": "SIN",
            "departureDate": "Fri Jul 24 13:35:00 IST 2015"
          }
        ]
      },
      {
        "paxType": "Adult",
        "id": 1,
        "paxName": "Mr Nikhil Sreedharan",
        "fareDetails": {
          "totalCost": 3146.70,
          "totalMiles": 0,
          "fareAmount": 2310.00,
          "taxAmount": 415.10,
          "surchargeAmount": 421.60,
          "surcharge": [
            {
              "amount": 13.60,
              "code": "YQAD",
              "description": "Airline Insurance"
            },
            {
              "amount": 408.00,
              "code": "YQAC",
              "description": "Airline Fuel Surcharge"
            }
          ],
          "taxes": [
            {
              "amount": 87.10,
              "code": "UB",
              "description": "Passenger Service Charge - (Domestic/International)"
            },
            {
              "amount": 19.90,
              "code": "SG",
              "description": "Passenger Service and Security Charge"
            },
            {
              "amount": 6.10,
              "code": "OP",
              "description": "Aviation Levy"
            },
            {
              "amount": 8.00,
              "code": "OO",
              "description": "Passenger Security Service Charge"
            },
            {
              "amount": 294.00,
              "code": "GB",
              "description": "Air Passenger Duty (APD) (Domestic/International)"
            }
          ]
        },
        "detailsPerFlight": [
          {
            "flightNo": "SQ318",
            "from": "SIN",
            "to": "LON",
            "departureDate": "Fri Jul 03 12:35:00 IST 2015"
          },
          {
            "flightNo": "SQ305",
            "from": "LON",
            "to": "SIN",
            "departureDate": "Fri Jul 24 13:35:00 IST 2015"
          }
        ]
      }
    ]
  }
}