{
  "bookingSummary": {
    "locale": "en_UK",
    "adultCount": 1,
    "childCount": 0,
    "infantCount": 0,
    "precision": 2,
    "currency": "MYR",
    "taxTotal": 86.90,
    "surchargeTotal": 155.00,
    "fareSubTotal": 241.90,
    "grandTotal": 241.90,
    "milesAllocated": 0,
    "totalMilesForORB": 12750,
    "orbQSurchargeTotal": 0.00,
    "oldItinerary": {
      "currency": "MYR",
      "taxTotal": 68.90,
      "surchargeTotal": 129.00,
      "grandTotal": 197.90,
      "costPaidBymiles": 0,
      "totalMilesForORB": 6375
    },
    "rebookingFee": 44.00,
    "totalToBePaidCash": 88.00,
    "totalToBePaidMiles": 6375,
    "milesToBeRefunded": 0,
    "scenario": "ORC",
    "flight": [{
      "totalTravelTime": "11hrs 15mins",
      "origin": "Kuala Lumpur",
      "destination": "Hong Kong",
      "flightSegments": [{
        "carrierCode": "MI",
        "airCraftType": "Airbus A320",
        "flightNumber": "319",
        "cabinClassDesc": "Economy(X)",
        "layoverTime": "6hrs 30mins",
        "deparure": {
          "time": "07:35",
          "date": "19 Aug (Wed)",
          "airportCode": "KUL",
          "airportName": "Kuala Lumpur Intl",
          "cityCode": "KUL",
          "cityName": "Kuala Lumpur",
          "terminal": "M"
        },
        "arrival": {
          "time": "08:35",
          "date": "19 Aug (Wed)",
          "airportCode": "SIN",
          "airportName": "Changi Intl",
          "cityCode": "SIN",
          "cityName": "Singapore",
          "terminal": "2"
        }
      }, {
        "carrierCode": "SQ",
        "airCraftType": "Boeing 777-200",
        "flightNumber": "872",
        "cabinClassDesc": "Economy(X)",
        "deparure": {
          "time": "15:05",
          "date": "19 Aug (Wed)",
          "airportCode": "SIN",
          "airportName": "Changi Intl",
          "cityCode": "SIN",
          "cityName": "Singapore",
          "terminal": "3"
        },
        "arrival": {
          "time": "18:50",
          "date": "19 Aug (Wed)",
          "airportCode": "HKG",
          "airportName": "Hong Kong",
          "cityCode": "HKG",
          "cityName": "Hong Kong",
          "terminal": "1"
        }
      }]
    }],
    "waitListFlights": [],
    "paxDetails": [{
      "paxType": "Adult",
      "id": 2,
      "paxName": "TWO TESTA",
      "fareDetails": {
        "totalCost": 197.90,
        "totalMiles": 12750,
        "fareAmount": 0.00,
        "taxAmount": 86.90,
        "surchargeAmount": 111.00,
        "qSurchargeAmount": 0.00,
        "surcharge": [{
          "amount": 111.00,
          "code": "YQ",
          "description": "Airline Fuel and Insurance Surcharge"
        }],
        "taxes": [{
          "amount": 3.90,
          "code": "D8",
          "description": "Goods And Services Tax"
        }, {
          "amount": 9.00,
          "code": "SG",
          "description": "Passenger Service and Security Charge"
        }, {
          "amount": 65.00,
          "code": "MY",
          "description": "Passenger Service and Security Charge (Domestic/International)"
        }, {
          "amount": 9.00,
          "code": "OO",
          "description": "Passenger Security Service Charge"
        }],
        "orbQSurcharge": []
      },
      "detailsPerFlight": [{
        "flightNo": "MI319",
        "from": "KUL",
        "to": "SIN",
        "departureDate": "Wed Aug 19 07:35:00 IST 2015"
      }, {
        "flightNo": "SQ872",
        "from": "SIN",
        "to": "HKG",
        "departureDate": "Wed Aug 19 15:05:00 IST 2015"
      }]
    }]
  }
}
