{
    "paxRecordVO": {
        "recordLocator": "MFFMCP",
        "flights": [
            {
                "flightIDs": [
                    "2301CB25000217E8"
                ],
                "origin": {
                    "airportCode": "KUL",
                    "airportName": "Kuala Lumpur Intl",
                    "terminalNumber": "M",
                    "cityName": "Kuala Lumpur",
                    "cityCode": "KUL",
                    "countryCode": "MY"
                },
                "destination": {
                    "airportCode": "SIN",
                    "airportName": "Changi",
                    "terminalNumber": "0",
                    "cityName": "Singapore",
                    "cityCode": "SIN",
                    "countryCode": "SG"
                },
                "scheduledDepartureDateTime": "2018-08-03T10:25",
                "scheduledArrivalDateTime": "2018-08-03T11:35",
                "aircraftType": "Airbus A330-300",
                "cabinClass": "Economy",
                "scheduledDepartureDateTimeDisplay": "03 Aug (Fri)",
                "scheduledArrivalDateTimeDisplay": "03 Aug (Fri)",
                "cabinClassDisplay": "Economy",
                "operatingAirline": {
                    "airlineCode": "SQ",
                    "airlineName": "Singapore Airlines",
                    "flightNumber": "107"
                },
                "rci": false,
                "tci": true,
                "stopOver": true,
                "hasSuites": false,
                "flightSegments": [],
                "totalTravelTimeMins": "70",
                "totalFlyingTimeMins": "70",
                "boardingPassIssued": true,
                "checkedIn": false,
                "lastCheckedIn": false,
                "eligibleForBP": false
            },
            {
                "flightIDs": [
                    "2301CB25000217E9"
                ],
                "origin": {
                    "airportCode": "SIN",
                    "airportName": "Changi",
                    "terminalNumber": "3",
                    "cityName": "Singapore",
                    "cityCode": "SIN",
                    "countryCode": "SG"
                },
                "destination": {
                    "airportCode": "MAA",
                    "airportName": "Chennai International Airport",
                    "terminalNumber": "3",
                    "cityName": "Chennai",
                    "cityCode": "MAA",
                    "countryCode": "IN"
                },
                "scheduledDepartureDateTime": "2018-08-03T20:25",
                "scheduledArrivalDateTime": "2018-08-03T22:00",
                "aircraftType": "Airbus A330-300",
                "cabinClass": "Economy",
                "scheduledDepartureDateTimeDisplay": "03 Aug (Fri)",
                "scheduledArrivalDateTimeDisplay": "03 Aug (Fri)",
                "cabinClassDisplay": "Economy",
                "operatingAirline": {
                    "airlineCode": "SQ",
                    "airlineName": "Singapore Airlines",
                    "flightNumber": "528"
                },
                "rci": true,
                "tci": true,
                "stopOver": true,
                "hasSuites": false,
                "flightSegments": [],
                "totalTravelTimeMins": "245",
                "totalFlyingTimeMins": "245",
                "boardingPassIssued": true,
                "checkedIn": false,
                "lastCheckedIn": false,
                "eligibleForBP": false
            },
            {
                "flightIDs": [
                    "2301CB25000217ED"
                ],
                "origin": {
                    "airportCode": "MAA",
                    "airportName": "Chennai International Airport",
                    "terminalNumber": "4",
                    "cityName": "Chennai",
                    "cityCode": "MAA",
                    "countryCode": "IN"
                },
                "destination": {
                    "airportCode": "SIN",
                    "airportName": "Changi",
                    "terminalNumber": "0",
                    "cityName": "Singapore",
                    "cityCode": "SIN",
                    "countryCode": "SG"
                },
                "scheduledDepartureDateTime": "2018-08-04T23:15",
                "scheduledArrivalDateTime": "2018-08-05T06:10",
                "aircraftType": "Airbus A330-300",
                "cabinClass": "Economy",
                "scheduledDepartureDateTimeDisplay": "04 Aug (Sat)",
                "scheduledArrivalDateTimeDisplay": "05 Aug (Sun)",
                "cabinClassDisplay": "Economy",
                "operatingAirline": {
                    "airlineCode": "SQ",
                    "airlineName": "Singapore Airlines",
                    "flightNumber": "529"
                },
                "rci": true,
                "tci": true,
                "stopOver": true,
                "hasSuites": false,
                "flightSegments": [],
                "totalTravelTimeMins": "265",
                "totalFlyingTimeMins": "265",
                "boardingPassIssued": true,
                "checkedIn": false,
                "lastCheckedIn": false,
                "eligibleForBP": false
            },
            {
                "flightIDs": [
                    "2301CB25000217EE"
                ],
                "origin": {
                    "airportCode": "SIN",
                    "airportName": "Changi",
                    "terminalNumber": "2",
                    "cityName": "Singapore",
                    "cityCode": "SIN",
                    "countryCode": "SG"
                },
                "destination": {
                    "airportCode": "KUL",
                    "airportName": "Kuala Lumpur Intl",
                    "terminalNumber": "M",
                    "cityName": "Kuala Lumpur",
                    "cityCode": "KUL",
                    "countryCode": "MY"
                },
                "scheduledDepartureDateTime": "2018-08-05T18:45",
                "scheduledArrivalDateTime": "2018-08-05T19:45",
                "aircraftType": "Airbus A350-900",
                "cabinClass": "Economy",
                "scheduledDepartureDateTimeDisplay": "05 Aug (Sun)",
                "scheduledArrivalDateTimeDisplay": "05 Aug (Sun)",
                "cabinClassDisplay": "Economy",
                "operatingAirline": {
                    "airlineCode": "SQ",
                    "airlineName": "Singapore Airlines",
                    "flightNumber": "118"
                },
                "rci": false,
                "tci": true,
                "stopOver": false,
                "hasSuites": false,
                "flightSegments": [],
                "totalTravelTimeMins": "60",
                "totalFlyingTimeMins": "60",
                "boardingPassIssued": true,
                "checkedIn": false,
                "lastCheckedIn": false,
                "eligibleForBP": false
            }
        ],
        "passengers": [
            {
                "title": "",
                "firstName": "Simon",
                "lastName": "Test",
                "gender": "UNKNOWN",
                "passengerID": "2301DB2500009ABF",
                "passengerType": "A",
                "flightIDs": [
                    "2301CB25000217E8",
                    "2301CB25000217E9",
                    "2301CB25000217ED",
                    "2301CB25000217EE"
                ],
                "contactDetails": {
                    "mobile": {
                        "mobileNumber": "34534534",
                        "mobileCountryCode": "65"
                    }
                },
                "regulatoryDocs": [],
                "segmentListForCheckIn": [],
                "taggedInfant": false,
                "isAMember": false
            }
        ],
        "services": [
            {
                "flightID": "2301CB25000217E8",
                "ticketNumber": "6182423545000",
                "upgraded": false,
                "passengerID": "2301DB2500009ABF",
                "adcMsgSuccess": "Please proceed to the counter to verify your travel documents.",
                "cabinClass": "Y",
                "dcsStatus": {
                    "boardingPassIssued": false,
                    "ccvDocCheckRequired": false,
                    "checkedIn": false,
                    "docChecksPassed": false,
                    "estaCheckPassed": false,
                    "estaCheckRequired": false,
                    "nationalityRestricted": false,
                    "regulatoryChecksPassed": true,
                    "spBpEnabled": true,
                    "visaDocCheckRequired": false,
                    "bpBlockedByConfig": false,
                    "bpBlockedForSAorBR": false
                },
                "sellingClass": "Y",
                "regulatoryDocs": []
            },
            {
                "flightID": "2301CB25000217E9",
                "ticketNumber": "6182423545000",
                "upgraded": false,
                "passengerID": "2301DB2500009ABF",
                "adcMsgSuccess": "Please proceed to the counter to verify your travel documents.",
                "cabinClass": "Y",
                "dcsStatus": {
                    "boardingPassIssued": false,
                    "ccvDocCheckRequired": false,
                    "checkedIn": false,
                    "docChecksPassed": false,
                    "estaCheckPassed": false,
                    "estaCheckRequired": false,
                    "nationalityRestricted": false,
                    "regulatoryChecksPassed": true,
                    "spBpEnabled": true,
                    "visaDocCheckRequired": false,
                    "bpBlockedByConfig": false,
                    "bpBlockedForSAorBR": false
                },
                "sellingClass": "Y",
                "regulatoryDocs": []
            },
            {
                "flightID": "2301CB25000217ED",
                "ticketNumber": "6182423545000",
                "upgraded": false,
                "passengerID": "2301DB2500009ABF",
                "adcMsgSuccess": "Please proceed to the counter to verify your travel documents.",
                "cabinClass": "Y",
                "dcsStatus": {
                    "boardingPassIssued": false,
                    "ccvDocCheckRequired": false,
                    "checkedIn": false,
                    "docChecksPassed": false,
                    "estaCheckPassed": false,
                    "estaCheckRequired": false,
                    "nationalityRestricted": false,
                    "regulatoryChecksPassed": true,
                    "spBpEnabled": true,
                    "visaDocCheckRequired": false,
                    "bpBlockedByConfig": false,
                    "bpBlockedForSAorBR": false
                },
                "sellingClass": "Y",
                "regulatoryDocs": []
            },
            {
                "flightID": "2301CB25000217EE",
                "ticketNumber": "6182423545000",
                "upgraded": false,
                "passengerID": "2301DB2500009ABF",
                "adcMsgSuccess": "Please proceed to the counter to verify your travel documents.",
                "cabinClass": "Y",
                "dcsStatus": {
                    "boardingPassIssued": false,
                    "ccvDocCheckRequired": false,
                    "checkedIn": false,
                    "docChecksPassed": false,
                    "estaCheckPassed": false,
                    "estaCheckRequired": false,
                    "nationalityRestricted": false,
                    "regulatoryChecksPassed": true,
                    "spBpEnabled": true,
                    "visaDocCheckRequired": false,
                    "bpBlockedByConfig": false,
                    "bpBlockedForSAorBR": false
                },
                "sellingClass": "Y",
                "regulatoryDocs": []
            }
        ]
    }
}