{
    "paxRecordVO": {
        "recordLocator": "MFHGLA",
        "flights": [
            {
                "flightIDs": [
                    "2301DB2500021937"
                ],
                "origin": {
                    "airportCode": "MAA",
                    "airportName": "Chennai International Airport",
                    "terminalNumber": "4",
                    "cityName": "Chennai",
                    "cityCode": "MAA",
                    "countryCode": "IN"
                },
                "destination": {
                    "airportCode": "SIN",
                    "airportName": "Changi",
                    "terminalNumber": "0",
                    "cityName": "Singapore",
                    "cityCode": "SIN",
                    "countryCode": "SG"
                },
                "scheduledDepartureDateTime": "2018-08-03T23:15",
                "scheduledArrivalDateTime": "2018-08-04T06:10",
                "aircraftType": "Airbus A330-300",
                "cabinClass": "Economy",
                "scheduledDepartureDateTimeDisplay": "03 Aug (Fri)",
                "scheduledArrivalDateTimeDisplay": "04 Aug (Sat)",
                "cabinClassDisplay": "Economy",
                "operatingAirline": {
                    "airlineCode": "SQ",
                    "airlineName": "Singapore Airlines",
                    "flightNumber": "529"
                },
                "rci": false,
                "tci": true,
                "stopOver": true,
                "hasSuites": false,
                "flightSegments": [],
                "totalTravelTimeMins": "265",
                "totalFlyingTimeMins": "265",
                "boardingPassIssued": true,
                "checkedIn": false,
                "lastCheckedIn": false,
                "eligibleForBP": false
            },
            {
                "flightIDs": [
                    "2301CB2500021867"
                ],
                "origin": {
                    "airportCode": "SIN",
                    "airportName": "Changi",
                    "terminalNumber": "3",
                    "cityName": "Singapore",
                    "cityCode": "SIN",
                    "countryCode": "SG"
                },
                "destination": {
                    "airportCode": "HKG",
                    "airportName": "Hong Kong",
                    "terminalNumber": "1",
                    "cityName": "Hong Kong SAR",
                    "cityCode": "HKG",
                    "countryCode": "HK"
                },
                "scheduledDepartureDateTime": "2018-08-04T08:40",
                "scheduledArrivalDateTime": "2018-08-04T12:40",
                "aircraftType": "Airbus A350-900",
                "cabinClass": "Economy",
                "scheduledDepartureDateTimeDisplay": "04 Aug (Sat)",
                "scheduledArrivalDateTimeDisplay": "04 Aug (Sat)",
                "cabinClassDisplay": "Economy",
                "operatingAirline": {
                    "airlineCode": "SQ",
                    "airlineName": "Singapore Airlines",
                    "flightNumber": "860"
                },
                "rci": true,
                "tci": true,
                "stopOver": true,
                "hasSuites": false,
                "flightSegments": [],
                "totalTravelTimeMins": "240",
                "totalFlyingTimeMins": "240",
                "boardingPassIssued": true,
                "checkedIn": false,
                "lastCheckedIn": false,
                "eligibleForBP": false
            },
            {
                "flightIDs": [
                    "2301DB2500021947"
                ],
                "origin": {
                    "airportCode": "HKG",
                    "airportName": "Hong Kong",
                    "terminalNumber": "1",
                    "cityName": "Hong Kong SAR",
                    "cityCode": "HKG",
                    "countryCode": "HK"
                },
                "destination": {
                    "airportCode": "SIN",
                    "airportName": "Changi",
                    "terminalNumber": "0",
                    "cityName": "Singapore",
                    "cityCode": "SIN",
                    "countryCode": "SG"
                },
                "scheduledDepartureDateTime": "2018-08-05T08:00",
                "scheduledArrivalDateTime": "2018-08-05T11:50",
                "aircraftType": "Boeing 777-300ER",
                "cabinClass": "Economy",
                "scheduledDepartureDateTimeDisplay": "05 Aug (Sun)",
                "scheduledArrivalDateTimeDisplay": "05 Aug (Sun)",
                "cabinClassDisplay": "Economy",
                "operatingAirline": {
                    "airlineCode": "SQ",
                    "airlineName": "Singapore Airlines",
                    "flightNumber": "1"
                },
                "rci": true,
                "tci": false,
                "stopOver": false,
                "hasSuites": false,
                "flightSegments": [],
                "totalTravelTimeMins": "230",
                "totalFlyingTimeMins": "230",
                "boardingPassIssued": true,
                "checkedIn": false,
                "lastCheckedIn": false,
                "eligibleForBP": false
            }
        ],
        "passengers": [
            {
                "title": "",
                "firstName": "Ddsd",
                "lastName": "Test",
                "gender": "UNKNOWN",
                "passengerID": "2301CB2500009A83",
                "passengerType": "A",
                "flightIDs": [
                    "2301DB2500021937",
                    "2301CB2500021867",
                    "2301DB2500021947"
                ],
                "contactDetails": {
                    "mobile": {
                        "mobileNumber": "2453423",
                        "mobileCountryCode": "65"
                    }
                },
                "regulatoryDocs": [],
                "segmentListForCheckIn": [],
                "taggedInfant": false,
                "isAMember": false
            }
        ],
        "services": [
            {
                "flightID": "2301DB2500021937",
                "ticketNumber": "6182423545004",
                "upgraded": false,
                "passengerID": "2301CB2500009A83",
                "adcMsgSuccess": "Please proceed to the counter to verify your travel documents.",
                "cabinClass": "Y",
                "dcsStatus": {
                    "boardingPassIssued": false,
                    "ccvDocCheckRequired": false,
                    "checkedIn": false,
                    "docChecksPassed": false,
                    "estaCheckPassed": false,
                    "estaCheckRequired": false,
                    "nationalityRestricted": false,
                    "regulatoryChecksPassed": true,
                    "spBpEnabled": true,
                    "visaDocCheckRequired": false,
                    "bpBlockedByConfig": false,
                    "bpBlockedForSAorBR": false
                },
                "sellingClass": "Y",
                "regulatoryDocs": []
            },
            {
                "flightID": "2301CB2500021867",
                "ticketNumber": "6182423545004",
                "upgraded": false,
                "passengerID": "2301CB2500009A83",
                "adcMsgSuccess": "Please proceed to the counter to verify your travel documents.",
                "cabinClass": "Y",
                "dcsStatus": {
                    "boardingPassIssued": false,
                    "ccvDocCheckRequired": false,
                    "checkedIn": false,
                    "docChecksPassed": false,
                    "estaCheckPassed": false,
                    "estaCheckRequired": false,
                    "nationalityRestricted": false,
                    "regulatoryChecksPassed": true,
                    "spBpEnabled": true,
                    "visaDocCheckRequired": false,
                    "bpBlockedByConfig": false,
                    "bpBlockedForSAorBR": false
                },
                "sellingClass": "Y",
                "regulatoryDocs": []
            },
            {
                "flightID": "2301DB2500021947",
                "ticketNumber": "6182423545004",
                "upgraded": false,
                "passengerID": "2301CB2500009A83",
                "adcMsgSuccess": "Please proceed to the counter to verify your travel documents.",
                "cabinClass": "Y",
                "dcsStatus": {
                    "boardingPassIssued": false,
                    "ccvDocCheckRequired": false,
                    "checkedIn": false,
                    "docChecksPassed": false,
                    "estaCheckPassed": false,
                    "estaCheckRequired": false,
                    "nationalityRestricted": false,
                    "regulatoryChecksPassed": true,
                    "spBpEnabled": true,
                    "visaDocCheckRequired": false,
                    "bpBlockedByConfig": false,
                    "bpBlockedForSAorBR": false
                },
                "sellingClass": "Y",
                "regulatoryDocs": []
            }
        ]
    }
}