

<svg width="20px" height="31px" viewBox="0 0 20 31" version="1.1" xmlns="http://www.w3.org/2000/svg" xmlns:xlink="http://www.w3.org/1999/xlink">
    <!-- Generator: Sketch 47 (45396) - http://www.bohemiancoding.com/sketch -->
    <desc>Created with Sketch.</desc>
    <defs>
        <polygon id="path-1" points="0 16.6938014 0 0.283082298 19.4435439 0.283082298 19.4435439 16.6938014"></polygon>
        <polygon id="path-3" points="7.06293684 23.9942909 0.122988582 23.9942909 0.122988582 0.289514093 7.06293684 0.289514093 7.06293684 23.9942909"></polygon>
    </defs>
    <g id="Symbols" stroke="none" stroke-width="1" fill="none" fill-rule="evenodd">
        <g id="wholesome-icon" transform="translate(-1.000000, 1.000000)">
            <g id="Page-1" transform="translate(1.000000, -0.631010)">
                <g id="Group-3" transform="translate(0.000000, 0.227537)">
                    <mask id="mask-2" fill="white">
                        <use xlink:href="#path-1"></use>
                    </mask>
                    <g id="Clip-2"></g>
                    <path d="M13.8819736,16.1613291 C14.3373546,16.3384784 14.7968197,16.3415415 15.2598585,16.203702 C16.1022112,15.9540593 16.4748885,15.3312287 16.2967181,14.4710079 C16.2880394,14.4291455 16.2854868,14.3857516 16.2803816,14.3433787 C17.5980255,14.1192618 18.4577359,12.7684343 18.5608603,11.5722933 C18.6267169,10.8085602 18.4643726,10.1040469 17.9824447,9.49397933 C17.5127692,8.89922722 16.8858546,8.54084441 16.1369264,8.32285373 C16.2104408,8.24780775 16.2696608,8.19267194 16.3227545,8.13243095 C17.2590424,7.06953492 17.6368248,5.84123143 17.2524056,4.46743065 C16.8802389,3.13651328 15.9174041,2.40034802 14.5727028,2.1813363 C13.4505868,1.99806076 12.4642683,2.32938618 11.6101737,3.06963558 C11.5805637,3.09516142 11.5514642,3.12170829 11.5208332,3.14570258 C11.512665,3.15284982 11.5014336,3.15489189 11.5279805,3.14315 C11.1583663,2.82203492 10.8234672,2.48305174 10.4426217,2.20788317 C8.37707061,0.716663522 5.82652855,1.52685373 4.72279117,2.70155294 C4.10557632,3.3585881 3.79262951,4.14937867 3.67316857,5.02797812 C3.57412831,5.75495409 3.6134381,6.47631436 3.76301953,7.19307999 C3.76761418,7.21452169 3.76710367,7.23698444 3.76914573,7.26557338 C3.24280288,7.28190992 2.73432813,7.36971881 2.24780559,7.56882037 C0.894935998,8.12222061 0.408413462,9.66244988 1.20584075,10.8933059 C1.62038041,11.5329835 2.16765445,12.0195061 2.89973558,12.2870169 C2.6123146,13.0206296 2.49132212,13.7511791 2.95589243,14.4546713 C3.4071893,15.1382534 4.11170252,15.3613492 4.87492518,15.4695788 C4.06932963,15.6615331 3.32346454,15.5492194 2.70778125,14.9692723 C1.93690084,14.2417858 1.86083383,13.3892227 2.35705619,12.4636557 C2.1661229,12.3840151 1.98386839,12.3171374 1.80978215,12.2334126 C1.23647175,11.9587546 0.738207332,11.5906719 0.383908654,11.0505451 C-0.432918269,9.80641562 0.023483774,7.51623714 2.03951472,6.97559982 C2.21104838,6.92914279 2.38870823,6.89800126 2.56585757,6.88166472 C2.73739123,6.8658387 2.91096695,6.87809111 3.11211058,6.87809111 C3.0886268,6.79947151 3.07382181,6.74382518 3.05544321,6.68919988 C2.65877163,5.50071671 2.6031253,4.31019147 3.09066887,3.13549225 C3.64151653,1.81019056 4.6630607,0.981621755 6.00316737,0.555850721 C7.78333954,-0.00929140625 9.41393029,0.29855024 10.8392933,1.52787476 C11.1113987,1.7627125 11.3334736,2.05574916 11.5734165,2.31509171 C11.8348011,2.12620048 12.0992488,1.9112729 12.3861593,1.73208149 C13.8615529,0.813151202 15.6825664,0.915765084 17.0053155,1.98836094 C17.870131,2.68981106 18.2836496,3.61537806 18.3357224,4.71554183 C18.3780953,5.62170919 18.2315769,6.49009832 17.7491385,7.27016803 C17.566884,7.56575727 17.3197939,7.82050517 17.1089504,8.0854634 C18.7625144,8.74249856 19.5972094,9.96569687 19.4205706,11.7969207 C19.2612894,13.4423165 18.1626572,14.2060496 16.6745006,14.5940424 C16.6923687,14.6660253 16.7117683,14.7446449 16.7306575,14.8232645 C16.9353747,15.6783802 16.4927566,16.416077 15.640704,16.6253889 C14.9765216,16.7887543 14.3792169,16.6692933 13.8819736,16.1613291" id="Fill-1" fill="#00226B" mask="url(#mask-2)"></path>
                </g>
                <g id="Group-6" transform="translate(6.126202, 6.353739)">
                    <mask id="mask-4" fill="white">
                        <use xlink:href="#path-3"></use>
                    </mask>
                    <g id="Clip-5"></g>
                    <path d="M4.45063465,23.9943419 L2.75571878,23.9943419 C2.75010309,23.8953017 2.73938224,23.799835 2.74040328,23.7048789 C2.75725033,20.9904609 2.78226566,20.4309345 2.78941289,17.7165165 C2.79145496,16.9068368 2.73836121,16.0971571 2.7230457,15.2869669 C2.71947209,15.123091 2.65718903,15.0582554 2.51322329,14.9913777 C1.95420736,14.7299931 1.39008627,14.4732031 0.85557515,14.1663825 C0.350163492,13.8764089 0.0974576623,13.4414486 0.125025571,12.8104498 C0.20568723,10.9736102 0.260823047,9.13472864 0.285838371,7.29584703 C0.31340628,5.24561145 0.28124372,4.63145971 0.308301112,2.58173465 C0.316469381,1.96707239 0.41806223,1.35087858 0.51454991,0.741321484 C0.540075751,0.578977133 0.692720282,0.326781821 0.811670703,0.311466316 C1.05263465,0.280835306 1.1057284,0.55855646 1.13482785,0.742342518 C1.22518933,1.30697413 1.33546097,1.87620039 1.34158717,2.44491614 C1.36558146,4.60440231 1.35077647,5.32780466 1.35128699,7.48729084 C1.35128699,7.9018305 1.51209979,8.11318447 1.92459739,8.17750959 C2.12625153,8.20967215 2.34322118,8.20558801 2.54436481,8.1688308 C2.90581073,8.10246361 3.06662353,7.88294138 3.06662353,7.51792184 C3.06713404,5.33035724 3.05437112,4.58040802 3.07581283,2.39335394 C3.080918,1.83331698 3.17740568,1.27123795 3.26980922,0.716816677 C3.29533507,0.562640595 3.45767942,0.430927254 3.5572302,0.289514093 C3.66750183,0.430927254 3.84720376,0.559577494 3.8757927,0.715795643 C3.98300123,1.31412136 4.1004201,1.92061535 4.10807785,2.52506728 C4.13513525,4.67536415 4.11879871,5.38957719 4.11879871,7.53987407 C4.11879871,7.88498344 4.23723861,8.08663759 4.57264817,8.14994168 C4.83250123,8.19895129 5.11736962,8.19588819 5.37620165,8.14279444 C5.69731674,8.07693777 5.81371457,7.87324156 5.81371457,7.54497924 C5.81677767,5.25786385 5.81116199,4.40734282 5.82851956,2.12022743 C5.83209318,1.69547743 5.92092311,1.27072743 5.98371668,0.848530018 C6.00362683,0.715795643 6.05008386,0.579998167 6.11645105,0.463600331 C6.15984498,0.387533323 6.25684318,0.306361148 6.3364838,0.298703395 C6.39723531,0.29308771 6.50801746,0.389064874 6.52843813,0.459005679 C6.63105201,0.815856941 6.7459183,1.17423975 6.79033326,1.54028032 C6.84649011,2.00893477 6.85465838,2.48473645 6.85772148,2.95747503 C6.86895285,4.81677731 6.84802166,5.23897473 6.88069474,7.09725598 C6.91540989,9.06325628 6.99147689,11.0287461 7.06192822,12.9942358 C7.07775424,13.4266436 6.9067311,13.7503113 6.59174222,14.0178221 C6.04140508,14.486987 5.39151716,14.7749185 4.71661391,15.001588 C4.47258687,15.0832707 4.39651986,15.2032422 4.39651986,15.4462482 C4.400604,18.1601556 4.39243573,18.7191715 4.39907245,21.433079 C4.40111451,22.2248906 4.44195586,23.0167022 4.46339757,23.8090243 C4.46492912,23.8621181 4.45625033,23.9157223 4.45063465,23.9943419" id="Fill-4" fill="#00226B" mask="url(#mask-4)"></path>
                </g>
            </g>
        </g>
    </g>
</svg>